uID,"AppName","OriginIP",OriginPort,"OriginPortName","DestinationIP",DestinationPort,"DestPortName","Protocol",TotalPackets,TotalBytes,"RemoteCity","RemoteRegion","RemoteCountry"
10112,"com.google.android.googlequicksearchbox","128.110.65.220",43263,"","216.58.217.202",443,"https","TCP",20,2972,"","",""
10161,"com.kingouser.com","128.110.65.220",48382,"","149.56.19.76",8090,"","TCP",7,593,"","",""
0,"","128.110.65.220",48415,"","155.97.136.200",53,"domain","UDP",1,59,"","",""
10161,"com.kingouser.com","149.56.19.76",8090,"","128.110.65.220",48380,"","TCP",2,84,"","",""
10029,"com.sec.android.providers.downloads","140.197.248.77",443,"https","128.110.65.220",51702,"","TCP",3189,4770158,"","",""
10112,"com.google.android.googlequicksearchbox","128.110.65.220",43262,"","216.58.217.202",443,"https","TCP",22,3273,"","",""
10018,"com.google.android.syncadapters.bookmarks","128.110.65.220",56577,"","216.58.217.206",443,"https","TCP",13,1664,"","",""
10161,"com.kingouser.com","128.110.65.220",48341,"","149.56.19.76",8090,"","TCP",4,413,"","",""
10057,"com.android.vending","128.110.65.220",60906,"","172.217.4.174",443,"https","TCP",2,104,"","",""
10152,"com.cleanmaster.mguard","52.9.74.113",80,"http","128.110.65.220",37034,"","TCP",1,40,"","",""
-1,"","54.175.233.164",443,"https","128.110.65.220",38652,"","TCP",1,89,"","",""
10057,"com.android.vending","172.217.4.174",443,"https","128.110.65.220",60904,"","TCP",14,5032,"","",""
10057,"com.android.vending","172.217.4.174",443,"https","128.110.65.220",60906,"","TCP",1,52,"","",""
10018,"com.google.android.syncadapters.bookmarks","216.58.217.202",443,"https","128.110.65.220",43265,"","TCP",12,5178,"","",""
10029,"com.sec.android.providers.downloads","128.110.65.220",51702,"","140.197.248.77",443,"https","TCP",1082,60480,"","",""
10161,"com.kingouser.com","149.56.19.76",8090,"","128.110.65.220",48386,"","TCP",2,84,"","",""
10057,"com.android.vending","216.58.219.14",443,"https","128.110.65.220",59684,"","TCP",12,6923,"","",""
-1,"","52.9.74.113",80,"http","128.110.65.220",37041,"","TCP",1,52,"","",""
10161,"com.kingouser.com","149.56.19.76",8090,"","128.110.65.220",48354,"","TCP",2,84,"","",""
10029,"com.sec.android.providers.downloads","128.110.65.220",59685,"","216.58.219.14",443,"https","TCP",12,1752,"","",""
0,"","155.97.136.200",53,"domain","128.110.65.220",3885,"topflow-ssl","UDP",1,185,"","",""
10161,"com.kingouser.com","128.110.65.220",48375,"","149.56.19.76",8090,"","TCP",7,498,"","",""
0,"","128.110.65.220",3885,"topflow-ssl","155.97.136.200",53,"domain","UDP",1,62,"","",""
10029,"com.sec.android.providers.downloads","140.197.248.77",443,"https","128.110.65.220",51707,"","TCP",3218,4818026,"","",""
10018,"com.google.android.syncadapters.bookmarks","216.58.217.206",443,"https","128.110.65.220",56577,"","TCP",11,6062,"","",""
0,"","155.97.136.200",53,"domain","128.110.65.220",52326,"","UDP",1,450,"","",""
0,"","155.97.136.200",53,"domain","128.110.65.220",8387,"","UDP",1,315,"","",""
10018,"com.google.android.syncadapters.bookmarks","128.110.65.220",56859,"","172.217.4.142",443,"https","TCP",13,1996,"","",""
10057,"com.android.vending","128.110.65.220",60096,"","172.217.4.170",443,"https","TCP",16,5862,"","",""
10049,"com.google.android.music","128.110.65.220",42204,"","172.217.5.74",443,"https","TCP",14,1768,"","",""
0,"","128.110.65.220",52326,"","155.97.136.200",53,"domain","UDP",1,64,"","",""
0,"","155.97.136.200",53,"domain","128.110.65.220",11777,"","UDP",1,262,"","",""
1014,"","10.72.2.152",67,"bootps","128.110.65.220",68,"bootpc","UDP",1,328,"","",""
10142,"com.google.android.apps.paidtasks","128.110.65.220",33306,"","140.197.248.99",443,"https","TCP",12,1447,"","",""
10137,"com.instagram.android","31.13.70.52",443,"https","128.110.65.220",50954,"","TCP",10,4831,"","",""
10152,"com.cleanmaster.mguard","52.9.74.113",80,"http","128.110.65.220",37059,"","TCP",5,408,"","",""
10152,"com.cleanmaster.mguard","52.9.74.113",80,"http","128.110.65.220",37041,"","TCP",1,40,"","",""
10029,"com.sec.android.providers.downloads","128.110.65.220",51707,"","140.197.248.77",443,"https","TCP",830,46344,"","",""
10137,"com.instagram.android","128.110.65.220",35322,"","31.13.77.52",443,"https","TCP",13,1803,"","",""
10137,"com.instagram.android","128.110.65.220",38910,"","31.13.77.6",443,"https","TCP",15,2366,"","",""
0,"","128.110.65.220",55791,"","155.97.136.200",53,"domain","UDP",1,61,"","",""
10057,"com.android.vending","216.58.219.14",443,"https","128.110.65.220",59695,"","TCP",18,5625,"","",""
0,"","128.110.65.220",49736,"","155.97.136.200",53,"domain","UDP",1,64,"","",""
10018,"com.google.android.syncadapters.bookmarks","173.194.202.188",5228,"","128.110.65.220",56082,"","TCP",3,222,"","",""
10018,"com.google.android.syncadapters.bookmarks","128.110.65.220",60000,"","216.58.193.194",443,"https","TCP",1,52,"","",""
10018,"com.google.android.syncadapters.bookmarks","128.110.65.220",56082,"","173.194.202.188",5228,"","TCP",4,278,"","",""
10152,"com.cleanmaster.mguard","221.228.204.21",80,"http","128.110.65.220",41140,"","TCP",4,371,"","",""
10161,"com.kingouser.com","149.56.19.76",8090,"","128.110.65.220",48381,"","TCP",2,84,"","",""
10018,"com.google.android.syncadapters.bookmarks","216.58.194.200",443,"https","128.110.65.220",55931,"","TCP",9,5263,"","",""
10161,"com.kingouser.com","149.56.19.76",8090,"","128.110.65.220",48364,"","TCP",2,84,"","",""
10018,"com.google.android.syncadapters.bookmarks","128.110.65.220",48381,"","172.217.4.138",443,"https","TCP",3,2992,"","",""
0,"","155.97.136.200",53,"domain","128.110.65.220",41712,"","UDP",1,185,"","",""
0,"","155.97.136.200",53,"domain","128.110.65.220",25043,"","UDP",1,515,"","",""
0,"","155.97.136.200",53,"domain","128.110.65.220",54058,"","UDP",1,245,"","",""
0,"","128.110.65.220",60072,"","155.97.136.200",53,"domain","UDP",1,61,"","",""
10018,"com.google.android.syncadapters.bookmarks","128.110.65.220",59998,"","216.58.193.194",443,"https","TCP",1,52,"","",""
10161,"com.kingouser.com","128.110.65.220",48386,"","149.56.19.76",8090,"","TCP",7,593,"","",""
-1,"","172.217.4.138",443,"https","128.110.65.220",48395,"","TCP",1,52,"","",""
10152,"com.cleanmaster.mguard","128.110.65.220",37041,"","52.9.74.113",80,"http","TCP",2,104,"","",""
10137,"com.instagram.android","31.13.70.1",443,"https","128.110.65.220",41323,"","TCP",12,4652,"","",""
10161,"com.kingouser.com","128.110.65.220",48380,"","149.56.19.76",8090,"","TCP",7,593,"","",""
0,"","128.110.65.220",56360,"","155.97.136.200",53,"domain","UDP",1,64,"","",""
0,"","155.97.136.200",53,"domain","128.110.65.220",21606,"","UDP",1,318,"","",""
10018,"com.google.android.syncadapters.bookmarks","172.217.4.138",443,"https","128.110.65.220",48395,"","TCP",3,120,"","",""
10161,"com.kingouser.com","149.56.19.76",8090,"","128.110.65.220",48374,"","TCP",2,84,"","",""
0,"","155.97.136.200",53,"domain","128.110.65.220",34592,"","UDP",1,266,"","",""
10161,"com.kingouser.com","128.110.65.220",48346,"","149.56.19.76",8090,"","TCP",7,593,"","",""
10049,"com.google.android.music","172.217.5.74",443,"https","128.110.65.220",42204,"","TCP",14,5524,"","",""
10137,"com.instagram.android","31.13.70.3",443,"https","128.110.65.220",53793,"","TCP",4,356,"","",""
10161,"com.kingouser.com","149.56.19.76",8090,"","128.110.65.220",48371,"","TCP",2,84,"","",""
0,"","128.110.65.220",20399,"","155.97.136.200",53,"domain","UDP",1,65,"","",""
10137,"com.instagram.android","128.110.65.220",50970,"","31.13.70.52",443,"https","TCP",24,12554,"","",""
0,"","155.97.136.200",53,"domain","128.110.65.220",38323,"","UDP",1,248,"","",""
10151,"com.lslk.sleepbot","174.129.41.20",443,"https","128.110.65.220",55491,"","TCP",12,7866,"","",""
10057,"com.android.vending","128.110.65.220",59684,"","216.58.219.14",443,"https","TCP",15,2738,"","",""
10161,"com.kingouser.com","128.110.65.220",48371,"","149.56.19.76",8090,"","TCP",7,498,"","",""
-1,"","218.10.224.2",32547,"","128.110.65.220",22,"ssh","TCP",1,48,"","",""
10018,"com.google.android.syncadapters.bookmarks","172.217.4.142",443,"https","128.110.65.220",56859,"","TCP",13,5885,"","",""
10018,"com.google.android.syncadapters.bookmarks","216.58.193.194",443,"https","128.110.65.220",59998,"","TCP",1,40,"","",""
10142,"com.google.android.apps.paidtasks","140.197.248.99",443,"https","128.110.65.220",33306,"","TCP",10,5364,"","",""
0,"","128.110.65.220",8387,"","155.97.136.200",53,"domain","UDP",1,65,"","",""
0,"","128.110.65.220",25043,"","155.97.136.200",53,"domain","UDP",1,65,"","",""
-1,"","172.217.4.138",443,"https","128.110.65.220",48381,"","TCP",1,52,"","",""
0,"","155.97.136.200",53,"domain","128.110.65.220",57489,"","UDP",1,470,"","",""
10151,"com.lslk.sleepbot","128.110.65.220",55491,"","174.129.41.20",443,"https","TCP",16,2177,"","",""
10137,"com.instagram.android","128.110.65.220",53793,"","31.13.70.3",443,"https","TCP",7,487,"","",""
10018,"com.google.android.syncadapters.bookmarks","172.217.4.138",443,"https","128.110.65.220",48381,"","TCP",2,80,"","",""
10161,"com.kingouser.com","149.56.19.76",8090,"","128.110.65.220",48375,"","TCP",2,84,"","",""
10161,"com.kingouser.com","128.110.65.220",48387,"","149.56.19.76",8090,"","TCP",7,498,"","",""
0,"","155.97.136.200",53,"domain","128.110.65.220",55791,"","UDP",1,262,"","",""
10137,"com.instagram.android","31.13.77.6",443,"https","128.110.65.220",38920,"","TCP",11,4562,"","",""
0,"","128.110.65.220",38323,"","155.97.136.200",53,"domain","UDP",1,72,"","",""
10029,"com.sec.android.providers.downloads","128.110.65.220",59680,"","216.58.219.14",443,"https","TCP",15,1908,"","",""
10161,"com.kingouser.com","149.56.19.76",8090,"","128.110.65.220",48382,"","TCP",2,84,"","",""
10112,"com.google.android.googlequicksearchbox","216.58.217.202",443,"https","128.110.65.220",43263,"","TCP",19,6447,"","",""
10018,"com.google.android.syncadapters.bookmarks","128.110.65.220",43265,"","216.58.217.202",443,"https","TCP",15,5618,"","",""
0,"","128.110.65.220",58260,"","155.97.136.200",53,"domain","UDP",1,70,"","",""
0,"","128.110.65.220",64934,"","155.97.136.200",53,"domain","UDP",1,72,"","",""
0,"","155.97.136.200",53,"domain","128.110.65.220",48415,"","UDP",1,347,"","",""
10018,"com.google.android.syncadapters.bookmarks","128.110.65.220",56508,"","216.58.217.40",443,"https","TCP",4,751,"","",""
10029,"com.sec.android.providers.downloads","216.58.219.14",443,"https","128.110.65.220",59680,"","TCP",10,6565,"","",""
0,"","128.110.65.220",41712,"","155.97.136.200",53,"domain","UDP",1,62,"","",""
0,"","128.110.65.220",64002,"","155.97.136.200",53,"domain","UDP",1,64,"","",""
10137,"com.instagram.android","31.13.77.6",443,"https","128.110.65.220",38904,"","TCP",3,193,"","",""
-1,"","52.85.77.140",80,"http","128.110.65.220",54442,"","TCP",1,52,"","",""
10161,"com.kingouser.com","128.110.65.220",48364,"","149.56.19.76",8090,"","TCP",7,593,"","",""
1014,"","128.110.65.220",68,"bootpc","10.72.2.152",67,"bootps","UDP",1,337,"","",""
10152,"com.cleanmaster.mguard","54.175.233.164",443,"https","128.110.65.220",38652,"","TCP",3,132,"","",""
10161,"com.kingouser.com","128.110.65.220",48354,"","149.56.19.76",8090,"","TCP",7,498,"","",""
10094,"com.accuweather.android","128.110.65.220",36690,"","104.100.188.168",80,"http","TCP",1,52,"","",""
10018,"com.google.android.syncadapters.bookmarks","216.58.193.194",443,"https","128.110.65.220",60000,"","TCP",1,40,"","",""
0,"","155.97.136.200",53,"domain","128.110.65.220",20399,"","UDP",1,331,"","",""
10094,"com.accuweather.android","104.100.188.168",80,"http","128.110.65.220",36690,"","TCP",1,40,"","",""
0,"","155.97.136.200",53,"domain","128.110.65.220",64934,"","UDP",1,248,"","",""
10152,"com.cleanmaster.mguard","128.110.65.220",41114,"","221.228.204.21",80,"http","TCP",8,320,"","",""
10161,"com.kingouser.com","149.56.19.76",8090,"","128.110.65.220",48365,"","TCP",2,84,"","",""
0,"","155.97.136.200",53,"domain","128.110.65.220",65281,"","UDP",1,248,"","",""
10137,"com.instagram.android","128.110.65.220",38904,"","31.13.77.6",443,"https","TCP",5,224,"","",""
10161,"com.kingouser.com","128.110.65.220",48345,"","149.56.19.76",8090,"","TCP",7,498,"","",""
0,"","128.110.65.220",20430,"","155.97.136.200",53,"domain","UDP",1,65,"","",""
10141,"com.dropbox.android","128.110.65.220",58870,"","108.160.172.225",443,"https","TCP",14,2525,"","",""
10152,"com.cleanmaster.mguard","52.204.46.218",443,"https","128.110.65.220",38633,"","TCP",11,5765,"","",""
10152,"com.cleanmaster.mguard","128.110.65.220",54442,"","52.85.77.140",80,"http","TCP",1,52,"","",""
0,"","155.97.136.200",53,"domain","128.110.65.220",56360,"","UDP",1,314,"","",""
0,"","128.110.65.220",54058,"","155.97.136.200",53,"domain","UDP",1,64,"","",""
-1,"","128.110.65.220",22,"ssh","218.10.224.2",32547,"","TCP",1,40,"","",""
10137,"com.instagram.android","31.13.70.52",443,"https","128.110.65.220",50928,"","TCP",3,193,"","",""
10112,"com.google.android.googlequicksearchbox","216.58.217.202",443,"https","128.110.65.220",43262,"","TCP",21,6618,"","",""
10018,"com.google.android.syncadapters.bookmarks","216.58.217.40",443,"https","128.110.65.220",56508,"","TCP",2,522,"","",""
10137,"com.instagram.android","31.13.77.6",443,"https","128.110.65.220",38910,"","TCP",11,4563,"","",""
0,"","155.97.136.200",53,"domain","128.110.65.220",54708,"","UDP",1,313,"","",""
10029,"com.sec.android.providers.downloads","216.58.219.14",443,"https","128.110.65.220",59685,"","TCP",9,6513,"","",""
10161,"com.kingouser.com","128.110.65.220",48381,"","149.56.19.76",8090,"","TCP",7,498,"","",""
10161,"com.kingouser.com","128.110.65.220",48355,"","149.56.19.76",8090,"","TCP",4,240,"","",""
10137,"com.instagram.android","31.13.77.52",443,"https","128.110.65.220",35313,"","TCP",11,4883,"","",""
10018,"com.google.android.syncadapters.bookmarks","216.58.193.194",443,"https","128.110.65.220",59984,"","TCP",1,40,"","",""
10137,"com.instagram.android","128.110.65.220",38920,"","31.13.77.6",443,"https","TCP",13,2298,"","",""
10161,"com.kingouser.com","149.56.19.76",8090,"","128.110.65.220",48366,"","TCP",2,84,"","",""
10137,"com.instagram.android","128.110.65.220",50954,"","31.13.70.52",443,"https","TCP",13,2576,"","",""
10161,"com.kingouser.com","128.110.65.220",48374,"","149.56.19.76",8090,"","TCP",7,593,"","",""
0,"","155.97.136.200",53,"domain","128.110.65.220",58260,"","UDP",1,266,"","",""
10094,"com.accuweather.android","104.100.188.168",80,"http","128.110.65.220",36809,"","TCP",7,3470,"","",""
10161,"com.kingouser.com","128.110.65.220",48384,"","149.56.19.76",8090,"","TCP",7,498,"","",""
10057,"com.android.vending","128.110.65.220",59695,"","216.58.219.14",443,"https","TCP",29,23837,"","",""
10152,"com.cleanmaster.mguard","128.110.65.220",38633,"","52.204.46.218",443,"https","TCP",14,1742,"","",""
10161,"com.kingouser.com","149.56.19.76",8090,"","128.110.65.220",48361,"","TCP",2,84,"","",""
0,"","128.110.65.220",65281,"","155.97.136.200",53,"domain","UDP",1,72,"","",""
10161,"com.kingouser.com","149.56.19.76",8090,"","128.110.65.220",48346,"","TCP",2,84,"","",""
0,"","128.110.65.220",54708,"","155.97.136.200",53,"domain","UDP",1,63,"","",""
10018,"com.google.android.syncadapters.bookmarks","128.110.65.220",59984,"","216.58.193.194",443,"https","TCP",1,52,"","",""
10137,"com.instagram.android","31.13.77.52",443,"https","128.110.65.220",35322,"","TCP",10,4831,"","",""
10161,"com.kingouser.com","149.56.19.76",8090,"","128.110.65.220",48345,"","TCP",2,84,"","",""
10152,"com.cleanmaster.mguard","128.110.65.220",41140,"","221.228.204.21",80,"http","TCP",5,481,"","",""
10018,"com.google.android.syncadapters.bookmarks","128.110.65.220",60001,"","216.58.193.194",443,"https","TCP",1,52,"","",""
10137,"com.instagram.android","128.110.65.220",35313,"","31.13.77.52",443,"https","TCP",15,1871,"","",""
10137,"com.instagram.android","128.110.65.220",50928,"","31.13.70.52",443,"https","TCP",5,224,"","",""
0,"","155.97.136.200",53,"domain","128.110.65.220",20430,"","UDP",1,481,"","",""
0,"","128.110.65.220",34592,"","155.97.136.200",53,"domain","UDP",1,65,"","",""
0,"","128.110.65.220",57489,"","155.97.136.200",53,"domain","UDP",1,70,"","",""
10094,"com.accuweather.android","128.110.65.220",36809,"","104.100.188.168",80,"http","TCP",9,1346,"","",""
10161,"com.kingouser.com","149.56.19.76",8090,"","128.110.65.220",48384,"","TCP",2,84,"","",""
10057,"com.android.vending","172.217.4.170",443,"https","128.110.65.220",60096,"","TCP",14,5578,"","",""
0,"","155.97.136.200",53,"domain","128.110.65.220",60072,"","UDP",1,262,"","",""
0,"","155.97.136.200",53,"domain","128.110.65.220",64002,"","UDP",1,245,"","",""
10161,"com.kingouser.com","149.56.19.76",8090,"","128.110.65.220",48341,"","TCP",2,84,"","",""
0,"","128.110.65.220",11777,"","155.97.136.200",53,"domain","UDP",1,61,"","",""
0,"","155.97.136.200",53,"domain","128.110.65.220",49736,"","UDP",1,245,"","",""
10018,"com.google.android.syncadapters.bookmarks","128.110.65.220",48395,"","172.217.4.138",443,"https","TCP",6,4774,"","",""
10018,"com.google.android.syncadapters.bookmarks","216.58.193.194",443,"https","128.110.65.220",60001,"","TCP",1,40,"","",""
10161,"com.kingouser.com","149.56.19.76",8090,"","128.110.65.220",48355,"","TCP",1,40,"","",""
10161,"com.kingouser.com","128.110.65.220",48365,"","149.56.19.76",8090,"","TCP",7,498,"","",""
10161,"com.kingouser.com","128.110.65.220",48366,"","149.56.19.76",8090,"","TCP",7,593,"","",""
10137,"com.instagram.android","128.110.65.220",41323,"","31.13.70.1",443,"https","TCP",13,2322,"","",""
10152,"com.cleanmaster.mguard","128.110.65.220",37059,"","52.9.74.113",80,"http","TCP",6,688,"","",""
10161,"com.kingouser.com","128.110.65.220",48361,"","149.56.19.76",8090,"","TCP",7,498,"","",""
10057,"com.android.vending","128.110.65.220",60904,"","172.217.4.174",443,"https","TCP",16,6958,"","",""
10018,"com.google.android.syncadapters.bookmarks","128.110.65.220",55931,"","216.58.194.200",443,"https","TCP",13,2135,"","",""
10137,"com.instagram.android","31.13.70.52",443,"https","128.110.65.220",50970,"","TCP",24,10714,"","",""
10152,"com.cleanmaster.mguard","128.110.65.220",37034,"","52.9.74.113",80,"http","TCP",1,52,"","",""
10152,"com.cleanmaster.mguard","128.110.65.220",38652,"","54.175.233.164",443,"https","TCP",4,682,"","",""
0,"","128.110.65.220",21606,"","155.97.136.200",53,"domain","UDP",1,68,"","",""
10141,"com.dropbox.android","108.160.172.225",443,"https","128.110.65.220",58870,"","TCP",10,5199,"","",""
10161,"com.kingouser.com","149.56.19.76",8090,"","128.110.65.220",48387,"","TCP",2,84,"","",""
