uID,"AppName","OriginIP",OriginPort,"OriginPortName","DestinationIP",DestinationPort,"DestPortName","Protocol",TotalPackets,TotalBytes,"RemoteLocation"
-1,"","192.168.29.102",34745,"","192.168.29.1",5353,"mdns","ICMP",1,90,"  "
10144,"com.android.chrome","216.58.217.46",443,"https","192.168.0.19",54352,"","TCP",12,6992,"  "
0,"","155.97.136.200",53,"domain","155.99.89.217",61501,"","UDP",1,250,"Salt Lake City Utah US"
10067,"com.android.vending","155.99.169.255",40715,"","172.217.5.74",443,"https","TCP",15,3405,"Mountain View California US"
10144,"com.android.chrome","216.58.192.14",443,"https","192.168.0.19",57233,"","TCP",20,6780,"  "
10144,"com.android.chrome","192.168.0.19",45674,"","151.101.69.140",443,"https","TCP",9,803,"  "
0,"","192.168.0.19",8133,"","192.168.0.1",53,"domain","UDP",1,63,"  "
10144,"com.android.chrome","54.175.69.3",443,"https","192.168.0.19",59500,"","TCP",9,5401,"  "
0,"","192.168.0.19",29955,"","192.168.0.1",53,"domain","UDP",1,70,"  "
10022,"com.google.android.syncadapters.bookmarks","192.168.0.19",54230,"","216.58.217.46",443,"https","TCP",15,1877,"  "
0,"","192.168.0.1",53,"domain","192.168.0.19",64372,"","UDP",1,130,"  "
10022,"com.google.android.syncadapters.bookmarks","192.168.0.19",48195,"","216.58.217.10",443,"https","TCP",12,2192,"  "
10152,"com.snapchat.android","216.58.217.49",443,"https","192.168.0.19",36971,"","TCP",10,4547,"  "
10144,"com.android.chrome","155.99.89.217",60036,"","199.96.57.6",443,"https","TCP",9,815,"San Francisco California US"
0,"","155.99.89.217",54645,"","155.97.136.200",53,"domain","UDP",1,65,"Salt Lake City Utah US"
10144,"com.android.chrome","216.58.217.1",443,"https","155.99.89.217",39469,"","TCP",18,7318,"Mountain View California US"
0,"","155.99.89.217",53753,"","155.97.136.200",53,"domain","UDP",1,68,"Salt Lake City Utah US"
0,"","155.99.169.255",5844,"","155.97.136.200",53,"domain","UDP",1,60,"Salt Lake City Utah US"
10001,"com.tmobile.pr.mytmobile","155.99.169.255",34842,"","65.52.232.150",443,"https","TCP",3,180,"Chicago Illinois US"
10022,"com.google.android.syncadapters.bookmarks","216.58.217.10",443,"https","192.168.0.19",48196,"","TCP",8,2537,"  "
10144,"com.android.chrome","192.168.0.19",45661,"","151.101.69.140",443,"https","TCP",9,807,"  "
10144,"com.android.chrome","155.99.89.217",56275,"","151.101.69.140",443,"https","TCP",9,807,"San Francisco California US"
10144,"com.android.chrome","192.168.0.19",60135,"","72.21.91.70",443,"https","TCP",9,796,"  "
10022,"com.google.android.syncadapters.bookmarks","216.58.217.46",443,"https","192.168.0.19",54356,"","TCP",10,1333,"  "
10144,"com.android.chrome","155.99.89.217",58193,"","140.197.248.113",443,"https","UDP",6,4338,"Salt Lake City Utah US"
10144,"com.android.chrome","151.101.69.140",443,"https","192.168.0.19",45718,"","TCP",3,172,"  "
10022,"com.google.android.syncadapters.bookmarks","155.99.89.217",35222,"","216.58.216.10",443,"https","TCP",9,2061,"Mountain View California US"
0,"","192.168.0.1",53,"domain","192.168.0.19",27483,"","UDP",1,131,"  "
10067,"com.android.vending","192.168.0.19",48288,"","216.58.217.10",443,"https","TCP",16,2960,"  "
10144,"com.android.chrome","155.99.89.217",58140,"","140.197.248.99",443,"https","TCP",14,1200,"Salt Lake City Utah US"
10144,"com.android.chrome","155.99.89.217",36693,"","54.148.176.238",443,"https","TCP",21,7679,"Boardman Oregon US"
10144,"com.android.chrome","151.101.69.140",443,"https","192.168.0.19",45661,"","TCP",5,4130,"  "
0,"","155.99.89.217",21714,"","155.97.136.200",53,"domain","UDP",1,62,"Salt Lake City Utah US"
10144,"com.android.chrome","192.168.0.19",45668,"","151.101.69.140",443,"https","TCP",9,802,"  "
0,"","192.168.0.19",64874,"","192.168.0.1",53,"domain","UDP",1,64,"  "
10144,"com.android.chrome","192.168.0.19",45703,"","151.101.69.140",443,"https","TCP",9,807,"  "
0,"","155.97.136.200",53,"domain","155.99.89.217",63361,"","UDP",1,260,"Salt Lake City Utah US"
0,"","192.168.0.19",46503,"","192.168.0.1",53,"domain","UDP",2,126,"  "
10152,"com.snapchat.android","216.58.217.49",443,"https","192.168.0.19",36970,"","TCP",18,7512,"  "
10022,"com.google.android.syncadapters.bookmarks","192.168.0.19",48291,"","216.58.217.10",443,"https","TCP",10,2289,"  "
-1,"","192.168.29.102",515,"printer","192.168.29.1",49104,"","TCP",1,40,"  "
10152,"com.snapchat.android","216.58.217.49",443,"https","192.168.0.19",24716,"","UDP",9,9436,"  "
1000,"","140.197.248.112",80,"http","155.99.89.217",49549,"","TCP",4,299,"Salt Lake City Utah US"
10022,"com.google.android.syncadapters.bookmarks","155.99.169.255",55562,"","173.194.203.188",5228,"","TCP",10,1477,"Mountain View California US"
10001,"com.tmobile.pr.mytmobile","192.168.0.19",38006,"","52.85.83.68",80,"http","TCP",6,468,"  "
10144,"com.android.chrome","199.96.57.6",443,"https","192.168.0.19",51089,"","TCP",9,4772,"  "
10144,"com.android.chrome","192.168.0.19",54300,"","216.58.217.46",443,"https","TCP",19,1738,"  "
10114,"com.google.android.videos","216.58.217.46",443,"https","192.168.0.19",54248,"","TCP",9,1281,"  "
0,"","192.168.0.1",53,"domain","192.168.0.19",52393,"","UDP",1,105,"  "
10144,"com.android.chrome","155.99.89.217",56273,"","151.101.69.140",443,"https","TCP",9,807,"San Francisco California US"
10144,"com.android.chrome","151.101.69.140",443,"https","192.168.0.19",45704,"","TCP",5,4130,"  "
10144,"com.android.chrome","192.168.0.19",45665,"","151.101.69.140",443,"https","TCP",9,807,"  "
10022,"com.google.android.syncadapters.bookmarks","192.168.0.19",58819,"","216.58.217.42",443,"https","TCP",10,1761,"  "
10144,"com.android.chrome","192.168.0.19",45712,"","151.101.69.140",443,"https","TCP",9,797,"  "
0,"","192.168.0.19",1729,"citynl","192.168.0.1",53,"domain","UDP",1,63,"  "
10144,"com.android.chrome","216.58.217.1",443,"https","155.99.89.217",38273,"","UDP",91,118558,"Mountain View California US"
0,"","192.168.0.1",53,"domain","192.168.0.19",46703,"","UDP",1,76,"  "
0,"","192.168.29.1",53,"domain","192.168.29.102",19194,"ua-secureagent","UDP",1,109,"  "
0,"","155.99.89.217",50986,"","155.97.136.200",53,"domain","UDP",1,60,"Salt Lake City Utah US"
10144,"com.android.chrome","151.101.69.140",443,"https","192.168.0.19",45666,"","TCP",5,4114,"  "
10144,"com.android.chrome","140.197.248.95",443,"https","155.99.89.217",59152,"","UDP",22,12502,"Salt Lake City Utah US"
0,"","155.97.136.200",53,"domain","155.99.169.255",58038,"","UDP",1,347,"Salt Lake City Utah US"
10144,"com.android.chrome","140.19789.217",52757,"","140.197.248.77",443,"https","UDP",1,67,"  "
0,"","192.168.0.1",53,"domain","192.168.0.19",16967,"","UDP",1,107,"  "
0,"","155.97.136.200",53,"domain","155.99.169.255",5844,"","UDP",1,429,"Salt Lake City Utah US"
10144,"com.android.chrome","52.40.110.82",443,"https","192.168.0.19",60933,"","TCP",8,3627,"  "
10144,"com.android.chrome","155.99.89.217",7434,"","155.97.136.200",53,"domain","UDP",1,59,"Salt Lake City Utah US"
0,"","155.99.169.255",42864,"","155.97.136.200",53,"domain","UDP",1,60,"Salt Lake City Utah US"
10144,"com.android.chrome","192.168.0.19",60935,"","52.40.110.82",443,"https","TCP",11,885,"  "
10022,"com.google.android.syncadapters.bookmarks","192.168.0.19",37360,"","216.58.195.78",443,"https","TCP",12,1745,"  "
10152,"com.snapchat.android","192.168.0.19",36975,"","216.58.217.49",443,"https","TCP",11,1718,"  "
10144,"com.android.chrome","151.101.69.140",443,"https","192.168.0.19",45659,"","TCP",5,4130,"  "
0,"","192.168.0.1",53,"domain","192.168.0.19",56368,"","UDP",1,108,"  "
0,"","155.99.89.217",3391,"savant","155.97.136.200",53,"domain","UDP",1,63,"Salt Lake City Utah US"
10144,"com.android.chrome","192.168.0.19",58807,"","216.58.217.42",443,"https","TCP",22,1898,"  "
-1,"","192.168.29.1",49104,"","192.168.29.102",515,"printer","TCP",1,60,"  "
0,"","155.97.136.200",53,"domain","155.99.89.217",20209,"","UDP",1,466,"Salt Lake City Utah US"
10114,"com.google.android.videos","140.197.248.99",443,"https","155.99.169.255",39732,"","TCP",29,14850,"Salt Lake City Utah US"
10144,"com.android.chrome","151.101.69.140",443,"https","192.168.0.19",45669,"","TCP",5,4114,"  "
10144,"com.android.chrome","155.99.89.217",50458,"","140.197.248.77",443,"https","TCP",12,2284,"Salt Lake City Utah US"
10022,"com.google.android.syncadapters.bookmarks","216.58.217.46",443,"https","192.168.0.19",54230,"","TCP",11,5518,"  "
10144,"com.android.chrome","155.97.136.200",53,"domain","155.99.89.217",7434,"","UDP",1,134,"Salt Lake City Utah US"
0,"","155.97.136.200",53,"domain","155.99.89.217",63463,"","UDP",1,264,"Salt Lake City Utah US"
0,"","192.168.0.19",27644,"","192.168.0.1",53,"domain","UDP",1,64,"  "
0,"","192.168.0.19",41040,"","192.168.0.1",53,"domain","UDP",1,59,"  "
-1,"","192.168.29.1",39499,"","192.168.29.102",9100,"pdl-datastream","TCP",1,60,"  "
10114,"com.google.android.videos","216.58.217.46",443,"https","192.168.0.19",54232,"","TCP",17,7313,"  "
10144,"com.android.chrome","216.58.193.194",443,"https","155.99.89.217",38574,"","TCP",10,4922,"Mountain View California US"
10022,"com.google.android.syncadapters.bookmarks","216.58.217.46",443,"https","192.168.0.19",54227,"","TCP",11,5689,"  "
0,"","192.168.0.1",53,"domain","192.168.0.19",60503,"","UDP",1,130,"  "
10144,"com.android.chrome","151.101.69.140",443,"https","155.99.89.217",56272,"","TCP",5,4130,"San Francisco California US"
-1,"","192.168.29.102",9100,"pdl-datastream","192.168.29.1",39499,"","TCP",1,40,"  "
10022,"com.google.android.syncadapters.bookmarks","216.58.217.10",443,"https","192.168.0.19",48232,"","TCP",10,6761,"  "
10144,"com.android.chrome","155.99.89.217",56268,"","151.101.69.140",443,"https","TCP",299,16753,"San Francisco California US"
10144,"com.android.chrome","192.168.0.19",39363,"","216.58.217.33",443,"https","UDP",91,9897,"  "
10144,"com.android.chrome","192.168.0.19",59393,"","216.58.193.100",443,"https","UDP",4,1897,"  "
0,"","155.99.89.217",37774,"","155.97.136.200",53,"domain","UDP",1,70,"Salt Lake City Utah US"
0,"","192.168.0.19",6462,"","192.168.0.1",53,"domain","UDP",1,64,"  "
0,"","192.168.0.19",56368,"","192.168.0.1",53,"domain","UDP",1,66,"  "
10144,"com.android.chrome","192.168.0.19",35683,"","172.217.3.195",443,"https","TCP",46,3387,"  "
0,"","155.97.136.200",53,"domain","155.99.169.255",42864,"","UDP",1,429,"Salt Lake City Utah US"
0,"","155.97.136.200",53,"domain","155.99.89.217",34716,"","UDP",1,452,"Salt Lake City Utah US"
10022,"com.google.android.syncadapters.bookmarks","216.58.217.42",443,"https","192.168.0.19",58819,"","TCP",8,980,"  "
0,"","155.97.136.200",53,"domain","155.99.89.217",53753,"","UDP",1,334,"Salt Lake City Utah US"
-1,"","106.75.81.82",52616,"","155.99.89.217",27017,"","TCP",1,40,"Shanghai Shanghai CN"
0,"","155.97.136.200",53,"domain","155.99.169.255",46510,"","UDP",1,248,"Salt Lake City Utah US"
10144,"com.android.chrome","192.168.0.19",45718,"","151.101.69.140",443,"https","TCP",5,280,"  "
0,"","192.168.0.1",53,"domain","192.168.0.19",34759,"","UDP",1,109,"  "
10144,"com.android.chrome","192.168.0.19",60552,"","52.35.19.240",443,"https","TCP",11,1199,"  "
-1,"","140.197.248.84",80,"http","155.99.89.217",46948,"","TCP",1,52,"Salt Lake City Utah US"
0,"","192.168.0.19",29685,"","192.168.0.1",53,"domain","UDP",1,65,"  "
10045,"com.carrieriq.tmobile","192.168.0.1",53,"domain","192.168.0.19",8643,"","UDP",1,130,"  "
10144,"com.android.chrome","216.58.193.100",443,"https","192.168.0.19",44311,"","TCP",14,5106,"  "
10045,"com.carrieriq.tmobile","192.168.0.1",53,"domain","192.168.0.19",4071,"aibkup","UDP",1,130,"  "
10022,"com.google.android.syncadapters.bookmarks","155.99.169.255",49320,"","216.58.216.42",443,"https","TCP",8,1865,"Mountain View California US"
0,"","155.99.89.217",49076,"","155.97.136.200",53,"domain","UDP",1,71,"Salt Lake City Utah US"
-1,"","192.168.0.1",0,"","224.0.0.1",0,"","2",173,6228,"  "
10022,"com.google.android.syncadapters.bookmarks","216.58.217.10",443,"https","192.168.0.19",48286,"","TCP",17,9584,"  "
10022,"com.google.android.syncadapters.bookmarks","216.58.217.42",443,"https","192.168.0.19",58796,"","TCP",10,5072,"  "
10114,"com.google.android.videos","216.58.217.46",443,"https","192.168.0.19",54245,"","TCP",8,1229,"  "
10022,"com.google.android.syncadapters.bookmarks","192.168.0.19",54356,"","216.58.217.46",443,"https","TCP",10,1355,"  "
10144,"com.android.chrome","140.197.248.101",443,"https","155.99.89.217",41565,"","UDP",8,5878,"Salt Lake City Utah US"
10144,"com.android.chrome","155.99.89.217",36717,"","54.148.176.238",443,"https","TCP",11,897,"Boardman Oregon US"
10022,"com.google.android.syncadapters.bookmarks","216.58.217.202",443,"https","155.99.89.217",50576,"","TCP",8,5432,"Mountain View California US"
0,"","192.168.0.1",53,"domain","192.168.0.19",29685,"","UDP",1,131,"  "
10001,"com.tmobile.pr.mytmobile","192.168.0.19",36658,"","65.52.232.150",443,"https","TCP",3,180,"  "
10144,"com.android.chrome","216.58.217.34",443,"https","192.168.0.19",53945,"","TCP",9,4836,"  "
0,"","155.99.89.217",33527,"","155.97.136.200",53,"domain","UDP",1,84,"Salt Lake City Utah US"
10022,"com.google.android.syncadapters.bookmarks","216.58.217.42",443,"https","192.168.0.19",58792,"","TCP",40,47620,"  "
0,"","192.168.0.19",39058,"","192.168.0.1",53,"domain","UDP",1,66,"  "
10144,"com.android.chrome","155.99.89.217",40889,"","140.197.248.106",443,"https","UDP",118,14041,"Salt Lake City Utah US"
10144,"com.android.chrome","192.168.0.19",42836,"","192.168.0.1",53,"domain","UDP",1,53,"  "
0,"","192.168.0.19",33871,"","192.168.0.1",53,"domain","UDP",1,63,"  "
10114,"com.google.android.videos","216.58.217.46",443,"https","192.168.0.19",54246,"","TCP",9,1281,"  "
0,"","155.99.89.217",38152,"","155.97.136.200",53,"domain","UDP",1,66,"Salt Lake City Utah US"
0,"","192.168.0.19",49129,"","192.168.0.1",53,"domain","UDP",1,70,"  "
10144,"com.android.chrome","216.58.217.8",443,"https","155.99.89.217",52004,"","TCP",16,5404,"Mountain View California US"
0,"","192.168.0.19",61710,"","192.168.0.1",53,"domain","UDP",1,72,"  "
10001,"com.tmobile.pr.mytmobile","155.99.169.255",34843,"","65.52.232.150",443,"https","TCP",3,180,"Chicago Illinois US"
10144,"com.android.chrome","151.101.69.140",443,"https","192.168.0.19",45670,"","TCP",5,4114,"  "
10144,"com.android.chrome","151.101.69.140",443,"https","192.168.0.19",45700,"","TCP",5,4130,"  "
0,"","155.97.136.200",53,"domain","155.99.169.255",43895,"","UDP",1,248,"Salt Lake City Utah US"
10144,"com.android.chrome","52.40.110.82",443,"https","192.168.0.19",60953,"","TCP",11,4433,"  "
10144,"com.android.chrome","155.99.89.217",51371,"","199.59.149.201",443,"https","TCP",12,974,"San Francisco California US"
-1,"","192.168.29.102",139,"netbios-ssn","192.168.29.1",45166,"","TCP",1,40,"  "
10022,"com.google.android.syncadapters.bookmarks","216.58.217.34",443,"https","192.168.0.19",53863,"","TCP",8,5233,"  "
10144,"com.android.chrome","140.197.248.77",443,"https","155.99.89.217",50459,"","TCP",9,6017,"Salt Lake City Utah US"
0,"","192.168.0.19",14710,"","192.168.0.1",53,"domain","UDP",1,70,"  "
10144,"com.android.chrome","172.217.4.174",443,"https","192.168.0.19",59963,"","TCP",10,6833,"  "
10144,"com.android.chrome","151.101.69.140",443,"https","192.168.0.19",45717,"","TCP",5,4130,"  "
10144,"com.android.chrome","151.101.69.140",443,"https","192.168.0.19",45675,"","TCP",5,4130,"  "
0,"","155.97.136.200",53,"domain","155.99.89.217",1780,"dpkeyserv","UDP",1,478,"Salt Lake City Utah US"
10144,"com.android.chrome","151.101.69.140",443,"https","192.168.0.19",45702,"","TCP",5,4130,"  "
10144,"com.android.chrome","192.168.0.19",53559,"","216.58.217.33",443,"https","TCP",10,988,"  "
10001,"com.tmobile.pr.mytmobile","155.99.169.255",41794,"crestron-cip","52.84.246.245",80,"http","TCP",7,522,"Seattle Washington US"
0,"","192.168.0.19",4269,"vrml-multi-use","192.168.0.1",53,"domain","UDP",1,65,"  "
0,"","192.168.0.1",53,"domain","192.168.0.19",42205,"","UDP",1,86,"  "
0,"","192.168.29.1",53,"domain","192.168.29.102",47663,"","UDP",1,107,"  "
10152,"com.snapchat.android","216.58.217.49",443,"https","192.168.0.19",36969,"","TCP",13,4524,"  "
10144,"com.android.chrome","140.197.248.77",443,"https","155.99.89.217",52757,"","UDP",2749,3763426,"Salt Lake City Utah US"
10114,"com.google.android.videos","216.58.217.46",443,"https","192.168.0.19",54223,"","TCP",11,5742,"  "
0,"","192.168.0.1",53,"domain","192.168.0.19",20000,"dnp","UDP",1,178,"  "
10144,"com.android.chrome","155.99.89.217",38574,"","216.58.193.194",443,"https","TCP",12,1095,"Mountain View California US"
10144,"com.android.chrome","155.99.89.217",39469,"","216.58.217.1",443,"https","TCP",16,1450,"Mountain View California US"
10067,"com.android.vending","216.58.193.206",443,"https","155.99.169.255",35385,"","TCP",35,27253,"Mountain View California US"
0,"","192.168.0.19",48566,"","192.168.0.1",53,"domain","UDP",1,64,"  "
0,"","192.168.0.19",18010,"","192.168.0.1",53,"domain","UDP",1,65,"  "
0,"","192.168.0.1",53,"domain","192.168.0.19",38333,"","UDP",1,231,"  "
0,"","155.97.136.200",53,"domain","155.99.89.217",21192,"","UDP",1,220,"Salt Lake City Utah US"
10022,"com.google.android.syncadapters.bookmarks","216.58.216.10",443,"https","155.99.89.217",35220,"","TCP",10,5120,"Mountain View California US"
10114,"com.google.android.videos","192.168.0.19",54223,"","216.58.217.46",443,"https","TCP",15,1747,"  "
0,"","192.168.0.1",53,"domain","192.168.0.19",6291,"","UDP",1,116,"  "
10114,"com.google.android.videos","192.168.29.102",50101,"","216.58.217.46",443,"https","TCP",11,2150,"  "
0,"","192.168.0.19",60145,"","192.168.0.1",53,"domain","UDP",1,66,"  "
0,"","192.168.0.19",35951,"","192.168.0.1",53,"domain","UDP",1,64,"  "
0,"","155.97.136.200",53,"domain","155.99.169.255",60646,"","UDP",1,483,"Salt Lake City Utah US"
0,"","192.168.0.1",53,"domain","192.168.0.19",41040,"","UDP",1,212,"  "
10022,"com.google.android.syncadapters.bookmarks","216.58.219.46",443,"https","155.99.169.255",60642,"","TCP",13,5773,"Mountain View California US"
0,"","192.168.0.19",39142,"","192.168.0.1",53,"domain","UDP",1,59,"  "
0,"","192.168.0.19",20000,"dnp","192.168.0.1",53,"domain","UDP",1,64,"  "
0,"","155.99.89.217",33625,"","155.97.136.200",53,"domain","UDP",1,70,"Salt Lake City Utah US"
0,"","155.97.136.200",53,"domain","155.99.89.217",1709,"centra","UDP",1,257,"Salt Lake City Utah US"
10144,"com.android.chrome","151.101.69.140",443,"https","155.99.89.217",56274,"","TCP",5,4114,"San Francisco California US"
10001,"com.tmobile.pr.mytmobile","192.168.0.19",36648,"","65.52.232.150",443,"https","TCP",3,180,"  "
0,"","155.99.169.255",33027,"","155.97.136.200",53,"domain","UDP",1,63,"Salt Lake City Utah US"
0,"","192.168.0.19",51190,"","192.168.0.1",53,"domain","UDP",1,60,"  "
0,"","155.97.136.200",53,"domain","155.99.89.217",33166,"","UDP",1,417,"Salt Lake City Utah US"
0,"","192.168.0.1",53,"domain","192.168.0.19",44670,"","UDP",1,107,"  "
0,"","192.168.0.19",27762,"","192.168.0.1",53,"domain","UDP",1,72,"  "
0,"","192.168.29.102",41491,"","192.168.29.1",53,"domain","UDP",1,63,"  "
10144,"com.android.chrome","151.101.69.140",443,"https","155.99.89.217",56275,"","TCP",5,4130,"San Francisco California US"
10114,"com.google.android.videos","192.168.29.102",50098,"","216.58.217.46",443,"https","TCP",27,4956,"  "
10144,"com.android.chrome","140.197.248.106",443,"https","155.99.89.217",40889,"","UDP",195,216316,"Salt Lake City Utah US"
0,"","155.97.136.200",53,"domain","155.99.169.255",10419,"","UDP",1,220,"Salt Lake City Utah US"
0,"","155.99.89.217",1709,"centra","155.97.136.200",53,"domain","UDP",1,70,"Salt Lake City Utah US"
0,"","155.97.136.200",53,"domain","155.99.89.217",44793,"","UDP",1,330,"Salt Lake City Utah US"
10022,"com.google.android.syncadapters.bookmarks","192.168.0.19",58785,"","216.58.217.42",443,"https","TCP",31,2905,"  "
0,"","155.97.136.200",53,"domain","155.99.89.217",38152,"","UDP",1,253,"Salt Lake City Utah US"
0,"","192.168.0.19",63241,"","192.168.0.1",53,"domain","UDP",1,70,"  "
10152,"com.snapchat.android","192.168.0.19",36971,"","216.58.217.49",443,"https","TCP",15,3021,"  "
0,"","155.97.136.200",53,"domain","155.99.89.217",7423,"","UDP",1,250,"Salt Lake City Utah US"
10144,"com.android.chrome","155.99.89.217",51811,"","140.197.248.101",443,"https","TCP",16,1480,"Salt Lake City Utah US"
10144,"com.android.chrome","151.101.69.140",443,"https","192.168.0.19",45709,"","TCP",5,4114,"  "
10144,"com.android.chrome","155.99.89.217",51510,"","72.21.91.70",443,"https","TCP",10,860,"  US"
10152,"com.snapchat.android","216.58.217.49",443,"https","192.168.29.102",36038,"","TCP",8,4665,"  "
0,"","192.168.0.19",6240,"","192.168.0.1",53,"domain","UDP",1,66,"  "
10022,"com.google.android.syncadapters.bookmarks","192.168.0.19",54241,"","216.58.217.46",443,"https","TCP",14,10041,"  "
0,"","155.99.169.255",1525,"prospero-np","155.97.136.200",53,"domain","UDP",1,65,"Salt Lake City Utah US"
10144,"com.android.chrome","216.58.217.34",443,"https","192.168.0.19",53976,"","TCP",10,4922,"  "
10144,"com.android.chrome","151.101.69.140",443,"https","155.99.89.217",56278,"","TCP",5,4130,"San Francisco California US"
0,"","155.97.136.200",53,"domain","155.99.89.217",39248,"","UDP",1,485,"Salt Lake City Utah US"
0,"","192.168.0.19",39943,"","192.168.0.1",53,"domain","UDP",1,60,"  "
10112,"com.google.android.googlequicksearchbox","216.58.193.68",443,"https","192.168.0.19",48535,"","TCP",9,1521,"  "
10112,"com.google.android.googlequicksearchbox","140.197.248.123",443,"https","155.99.169.255",45938,"","TCP",9,1533,"Salt Lake City Utah US"
10045,"com.carrieriq.tmobile","192.168.0.1",53,"domain","192.168.0.19",18909,"","UDP",1,130,"  "
10144,"com.android.chrome","199.96.57.6",443,"https","155.99.89.217",60036,"","TCP",8,4720,"San Francisco California US"
10022,"com.google.android.syncadapters.bookmarks","155.99.89.217",46209,"","173.194.203.188",5228,"","TCP",26,1859,"Mountain View California US"
0,"","192.168.0.1",53,"domain","192.168.0.19",57449,"","UDP",1,107,"  "
0,"","155.99.89.217",52549,"","155.97.136.200",53,"domain","UDP",1,63,"Salt Lake City Utah US"
10144,"com.android.chrome","192.168.0.19",53976,"","216.58.217.34",443,"https","TCP",10,979,"  "
0,"","155.97.136.200",53,"domain","155.99.89.217",21714,"","UDP",1,250,"Salt Lake City Utah US"
10022,"com.google.android.syncadapters.bookmarks","216.58.217.10",443,"https","192.168.0.19",48291,"","TCP",8,980,"  "
0,"","192.168.0.1",53,"domain","192.168.0.19",63241,"","UDP",1,121,"  "
0,"","192.168.0.19",28525,"","192.168.0.1",53,"domain","UDP",1,76,"  "
10045,"com.carrieriq.tmobile","192.168.0.19",18909,"","192.168.0.1",53,"domain","UDP",1,64,"  "
10144,"com.android.chrome","151.101.69.140",443,"https","192.168.0.19",45660,"","TCP",5,4130,"  "
10022,"com.google.android.syncadapters.bookmarks","192.168.29.102",47579,"","74.125.69.188",5228,"","TCP",9,1670,"  "
0,"","155.99.89.217",53893,"","155.97.136.200",53,"domain","UDP",1,67,"Salt Lake City Utah US"
0,"","192.168.0.19",38333,"","192.168.0.1",53,"domain","UDP",1,60,"  "
10114,"com.google.android.videos","155.99.89.217",39182,"","140.197.248.106",443,"https","TCP",19,2043,"Salt Lake City Utah US"
10144,"com.android.chrome","192.168.0.19",57999,"","172.217.3.196",443,"https","TCP",16,1446,"  "
10022,"com.google.android.syncadapters.bookmarks","216.58.217.10",443,"https","192.168.0.19",48195,"","TCP",9,5761,"  "
10022,"com.google.android.syncadapters.bookmarks","216.58.217.46",443,"https","192.168.0.19",54247,"","TCP",9,1470,"  "
0,"","192.168.0.19",14305,"","192.168.0.1",53,"domain","UDP",1,67,"  "
10144,"com.android.chrome","155.99.89.217",44514,"","140.197.248.102",443,"https","TCP",12,1066,"Salt Lake City Utah US"
0,"","192.168.0.1",53,"domain","192.168.0.19",17234,"integrius-stp","UDP",1,115,"  "
10144,"com.android.chrome","151.101.69.140",443,"https","155.99.89.217",56276,"","TCP",5,4130,"San Francisco California US"
0,"","192.168.0.19",42205,"","192.168.0.1",53,"domain","UDP",1,70,"  "
10144,"com.android.chrome","151.101.69.140",443,"https","192.168.0.19",45667,"","TCP",5,4130,"  "
10144,"com.android.chrome","151.101.69.140",443,"https","192.168.0.19",45699,"","TCP",5,4130,"  "
10144,"com.android.chrome","151.101.69.140",443,"https","192.168.0.19",45668,"","TCP",5,4130,"  "
10144,"com.android.chrome","155.97.136.200",53,"domain","155.99.89.217",27293,"","UDP",1,132,"Salt Lake City Utah US"
10144,"com.android.chrome","155.99.89.217",38273,"","216.58.217.1",443,"https","UDP",54,5687,"Mountain View California US"
0,"","155.97.136.200",53,"domain","155.99.89.217",25782,"","UDP",1,245,"Salt Lake City Utah US"
0,"","192.168.0.1",53,"domain","192.168.0.19",31298,"","UDP",1,164,"  "
1000,"","192.168.0.19",44087,"","216.58.217.46",80,"http","TCP",5,447,"  "
10144,"com.android.chrome","192.168.0.19",53946,"","216.58.217.34",443,"https","TCP",9,929,"  "
10022,"com.google.android.syncadapters.bookmarks","192.168.0.19",54243,"","216.58.217.46",443,"https","TCP",10,1668,"  "
10144,"com.android.chrome","192.168.0.19",45710,"","151.101.69.140",443,"https","TCP",9,800,"  "
10144,"com.android.chrome","72.21.91.70",443,"https","192.168.0.19",60135,"","TCP",7,4753,"  "
10144,"com.android.chrome","192.168.0.19",57233,"","216.58.192.14",443,"https","TCP",21,2673,"  "
0,"","192.168.0.19",4546,"sf-lm","192.168.0.1",53,"domain","UDP",1,65,"  "
0,"","192.168.0.19",19918,"","192.168.0.1",53,"domain","UDP",1,68,"  "
10022,"com.google.android.syncadapters.bookmarks","216.58.217.10",443,"https","192.168.0.19",48290,"","TCP",10,5168,"  "
-1,"","0.0.0.0",0,"","224.0.0.1",0,"","2",9,288,"  "
10144,"com.android.chrome","151.101.69.140",443,"https","192.168.0.19",45708,"","TCP",5,4114,"  "
10022,"com.google.android.syncadapters.bookmarks","216.58.216.42",443,"https","155.99.169.255",49319,"","TCP",11,4772,"Mountain View California US"
10045,"com.carrieriq.tmobile","192.168.0.1",53,"domain","192.168.0.19",49828,"","UDP",1,130,"  "
10144,"com.android.chrome","155.99.89.217",52004,"","216.58.217.8",443,"https","TCP",16,1468,"Mountain View California US"
10022,"com.google.android.syncadapters.bookmarks","172.217.4.170",443,"https","192.168.0.19",46046,"","TCP",10,5253,"  "
10144,"com.android.chrome","155.99.89.217",36929,"","140.197.248.102",443,"https","UDP",24,4611,"Salt Lake City Utah US"
0,"","192.168.0.1",53,"domain","192.168.0.19",25176,"","UDP",1,130,"  "
0,"","192.168.0.19",29728,"","192.168.0.1",53,"domain","UDP",1,63,"  "
0,"","155.99.89.217",14988,"","155.97.136.200",53,"domain","UDP",1,74,"Salt Lake City Utah US"
10144,"com.android.chrome","192.168.0.19",54347,"","216.58.217.46",443,"https","TCP",14,1188,"  "
10144,"com.android.chrome","216.58.217.35",443,"https","192.168.0.19",55572,"","UDP",3,2811,"  "
10144,"com.android.chrome","192.168.0.19",53947,"","216.58.217.34",443,"https","TCP",9,927,"  "
10022,"com.google.android.syncadapters.bookmarks","155.99.89.217",35220,"","216.58.216.10",443,"https","TCP",13,2372,"Mountain View California US"
-1,"","192.168.29.1",34745,"","192.168.29.102",5353,"mdns","UDP",1,62,"  "
10152,"com.snapchat.android","216.58.217.49",443,"https","192.168.0.19",36975,"","TCP",9,936,"  "
0,"","192.168.0.1",53,"domain","192.168.0.19",33237,"","UDP",1,80,"  "
0,"","192.168.0.19",7049,"","192.168.0.1",53,"domain","UDP",1,74,"  "
10144,"com.android.chrome","140.197.248.110",443,"https","155.99.89.217",37892,"","TCP",21,7157,"Salt Lake City Utah US"
0,"","192.168.0.1",53,"domain","192.168.0.19",18797,"","UDP",1,77,"  "
10114,"com.google.android.videos","192.168.0.19",41793,"","216.58.217.14",443,"https","TCP",13,1663,"  "
10152,"com.snapchat.android","192.168.0.19",24716,"","216.58.217.49",443,"https","UDP",7,3248,"  "
10022,"com.google.android.syncadapters.bookmarks","216.58.217.10",443,"https","192.168.0.19",48285,"","TCP",103,139268,"  "
0,"","192.168.0.1",53,"domain","192.168.0.19",43572,"","UDP",1,99,"  "
0,"","192.168.0.19",60608,"","192.168.0.1",53,"domain","UDP",1,60,"  "
0,"","192.168.29.1",53,"domain","192.168.29.102",41491,"","UDP",1,107,"  "
10022,"com.google.android.syncadapters.bookmarks","173.194.203.188",5228,"","155.99.89.217",46209,"","TCP",15,1080,"Mountain View California US"
10067,"com.android.vending","172.217.5.74",443,"https","155.99.169.255",40715,"","TCP",13,5366,"Mountain View California US"
0,"","192.168.29.102",19194,"ua-secureagent","192.168.29.1",53,"domain","UDP",1,63,"  "
10022,"com.google.android.syncadapters.bookmarks","155.99.89.217",5353,"mdns","224.0.0.251",5353,"mdns","UDP",6,534,"  "
10144,"com.android.chrome","151.101.69.140",443,"https","192.168.0.19",45656,"","TCP",5,4130,"  "
0,"","155.99.89.217",31725,"","155.97.136.200",53,"domain","UDP",1,70,"Salt Lake City Utah US"
10144,"com.android.chrome","199.16.156.52",443,"https","192.168.0.19",36850,"","TCP",7,4232,"  "
10022,"com.google.android.syncadapters.bookmarks","216.58.217.46",443,"https","192.168.0.19",54233,"","TCP",18,1890,"  "
10144,"com.android.chrome","192.168.0.19",45657,"","151.101.69.140",443,"https","TCP",9,807,"  "
10144,"com.android.chrome","192.168.0.19",45714,"","151.101.69.140",443,"https","TCP",9,802,"  "
10112,"com.google.android.googlequicksearchbox","155.99.169.255",45936,"","140.197.248.123",443,"https","TCP",13,1415,"Salt Lake City Utah US"
0,"","155.97.136.200",53,"domain","155.99.89.217",35810,"","UDP",1,483,"Salt Lake City Utah US"
10022,"com.google.android.syncadapters.bookmarks","216.58.217.46",443,"https","192.168.0.19",54270,"","TCP",9,1417,"  "
0,"","155.99.89.217",38866,"","155.97.136.200",53,"domain","UDP",1,63,"Salt Lake City Utah US"
0,"","155.97.136.200",53,"domain","155.99.89.217",31725,"","UDP",1,257,"Salt Lake City Utah US"
10152,"com.snapchat.android","192.168.29.102",36038,"","216.58.217.49",443,"https","TCP",10,1360,"  "
10144,"com.android.chrome","192.168.0.19",54316,"","216.58.217.46",443,"https","TCP",13,1124,"  "
0,"","155.99.89.217",4711,"","155.97.136.200",53,"domain","UDP",1,64,"Salt Lake City Utah US"
10067,"com.android.vending","155.99.169.255",35386,"","216.58.193.206",443,"https","TCP",16,3143,"Mountain View California US"
10022,"com.google.android.syncadapters.bookmarks","192.168.0.19",58818,"","216.58.217.42",443,"https","TCP",13,2312,"  "
0,"","192.168.0.19",2483,"ttc","192.168.0.1",53,"domain","UDP",1,72,"  "
10022,"com.google.android.syncadapters.bookmarks","216.58.217.42",443,"https","192.168.0.19",58825,"","TCP",10,4752,"  "
10144,"com.android.chrome","192.168.0.19",51089,"","199.96.57.6",443,"https","TCP",10,855,"  "
10022,"com.google.android.syncadapters.bookmarks","192.168.0.19",58798,"","216.58.217.42",443,"https","TCP",14,3545,"  "
10114,"com.google.android.videos","155.99.89.217",51782,"","140.197.248.101",443,"https","TCP",10,2444,"Salt Lake City Utah US"
10022,"com.google.android.syncadapters.bookmarks","216.58.195.78",443,"https","192.168.0.19",37360,"","TCP",10,5321,"  "
10144,"com.android.chrome","192.168.0.19",45699,"","151.101.69.140",443,"https","TCP",9,807,"  "
0,"","192.168.0.1",53,"domain","192.168.0.19",28525,"","UDP",1,118,"  "
10144,"com.android.chrome","155.99.89.217",37892,"","140.197.248.110",443,"https","TCP",21,1866,"Salt Lake City Utah US"
0,"","155.97.136.200",53,"domain","155.99.169.255",29695,"","UDP",1,483,"Salt Lake City Utah US"
0,"","192.168.0.19",52629,"","192.168.0.1",53,"domain","UDP",1,64,"  "
10022,"com.google.android.syncadapters.bookmarks","192.168.0.19",54270,"","216.58.217.46",443,"https","TCP",10,1631,"  "
0,"","192.168.0.1",53,"domain","192.168.0.19",39895,"","UDP",1,120,"  "
10022,"com.google.android.syncadapters.bookmarks","155.99.169.255",35388,"","216.58.193.206",443,"https","TCP",14,1992,"Mountain View California US"
0,"","192.168.0.19",46703,"","192.168.0.1",53,"domain","UDP",1,60,"  "
10144,"com.android.chrome","192.168.0.19",60105,"","72.21.91.70",443,"https","TCP",10,860,"  "
10045,"com.carrieriq.tmobile","192.168.0.1",53,"domain","192.168.0.19",63591,"","UDP",1,130,"  "
10144,"com.android.chrome","151.101.69.140",443,"https","192.168.0.19",45701,"","TCP",5,4130,"  "
10022,"com.google.android.syncadapters.bookmarks","216.58.217.202",443,"https","155.99.89.217",50578,"","TCP",11,9241,"Mountain View California US"
0,"","192.168.0.19",25254,"","192.168.0.1",53,"domain","UDP",1,64,"  "
10144,"com.android.chrome","155.99.89.217",53850,"","172.217.5.70",443,"https","TCP",20,2113,"Mountain View California US"
10144,"com.android.chrome","192.168.0.19",45716,"","151.101.69.140",443,"https","TCP",9,803,"  "
0,"","192.168.0.1",53,"domain","192.168.0.19",1638,"ismc","UDP",1,131,"  "
10114,"com.google.android.videos","155.99.169.255",39742,"","140.197.248.99",443,"https","TCP",7,1276,"Salt Lake City Utah US"
10144,"com.android.chrome","216.58.217.3",443,"https","192.168.0.19",41635,"","UDP",8,7564,"  "
1000,"","155.99.169.255",35730,"","140.197.248.101",80,"http","TCP",5,447,"Salt Lake City Utah US"
0,"","192.168.0.1",53,"domain","192.168.0.19",25254,"","UDP",1,130,"  "
10022,"com.google.android.syncadapters.bookmarks","192.168.0.19",58796,"","216.58.217.42",443,"https","TCP",13,2344,"  "
0,"","192.168.0.19",59841,"","192.168.0.1",53,"domain","UDP",1,65,"  "
10144,"com.android.chrome","155.99.89.217",38573,"","216.58.193.194",443,"https","TCP",11,1057,"Mountain View California US"
0,"","192.168.0.1",53,"domain","192.168.0.19",7867,"","UDP",1,118,"  "
1000,"","216.58.217.46",80,"http","192.168.0.19",44087,"","TCP",4,299,"  "
10152,"com.snapchat.android","192.168.0.19",36969,"","216.58.217.49",443,"https","TCP",16,1290,"  "
1014,"","155.99.89.217",68,"bootpc","10.72.2.152",67,"bootps","UDP",11,3707,"  "
0,"","192.168.0.1",53,"domain","192.168.0.19",46489,"","UDP",1,117,"  "
10144,"com.android.chrome","192.168.0.19",43350,"","192.168.0.1",53,"domain","UDP",1,56,"  "
0,"","155.97.136.200",53,"domain","155.99.89.217",52549,"","UDP",1,483,"Salt Lake City Utah US"
10022,"com.google.android.syncadapters.bookmarks","216.58.217.46",443,"https","192.168.0.19",54275,"","TCP",9,1361,"  "
0,"","155.97.136.200",53,"domain","155.99.89.217",28220,"","UDP",1,250,"Salt Lake City Utah US"
10114,"com.google.android.videos","216.58.217.46",443,"https","192.168.29.102",50101,"","TCP",9,1281,"  "
10144,"com.android.chrome","192.168.0.19",53975,"","216.58.217.34",443,"https","TCP",12,1085,"  "
10144,"com.android.chrome","172.217.3.195",443,"https","192.168.0.19",35683,"","TCP",47,44403,"  "
10114,"com.google.android.videos","155.99.89.217",58185,"","140.197.248.99",443,"https","TCP",20,2075,"Salt Lake City Utah US"
0,"","192.168.0.19",9651,"","192.168.0.1",53,"domain","UDP",1,63,"  "
10144,"com.android.chrome","151.101.69.140",443,"https","192.168.0.19",45703,"","TCP",5,4130,"  "
10001,"com.tmobile.pr.mytmobile","192.168.0.19",36767,"","65.52.232.150",443,"https","TCP",3,180,"  "
10045,"com.carrieriq.tmobile","192.168.0.1",53,"domain","192.168.0.19",56943,"","UDP",1,130,"  "
0,"","192.168.0.19",10856,"","192.168.0.1",53,"domain","UDP",1,60,"  "
0,"","192.168.0.19",46489,"","192.168.0.1",53,"domain","UDP",1,66,"  "
10022,"com.google.android.syncadapters.bookmarks","192.168.0.19",48286,"","216.58.217.10",443,"https","TCP",23,13425,"  "
0,"","192.168.0.19",62601,"","192.168.0.1",53,"domain","UDP",1,63,"  "
10144,"com.android.chrome","192.168.0.19",45671,"","151.101.69.140",443,"https","TCP",9,800,"  "
10144,"com.android.chrome","192.168.0.19",7550,"cloudsignaling","192.168.0.1",53,"domain","UDP",1,55,"  "
10001,"com.tmobile.pr.mytmobile","52.85.83.68",80,"http","192.168.0.19",38006,"","TCP",4,1623,"  "
0,"","192.168.0.19",32864,"","192.168.0.1",53,"domain","UDP",1,71,"  "
0,"","155.99.169.255",2186,"gtaua","155.97.136.200",53,"domain","UDP",1,65,"Salt Lake City Utah US"
10144,"com.android.chrome","151.101.69.140",443,"https","155.99.89.217",56271,"","TCP",115,136078,"San Francisco California US"
0,"","155.99.89.217",35310,"","155.97.136.200",53,"domain","UDP",1,57,"Salt Lake City Utah US"
0,"","155.97.136.200",53,"domain","155.99.89.217",33527,"","UDP",1,278,"Salt Lake City Utah US"
-1,"","192.168.0.7",57621,"","192.168.0.255",57621,"","UDP",13,936,"  "
10144,"com.android.chrome","151.101.69.140",443,"https","192.168.0.19",45672,"","TCP",6,4978,"  "
0,"","192.168.0.19",43421,"","192.168.0.1",53,"domain","UDP",1,73,"  "
10114,"com.google.android.videos","192.168.0.19",54261,"","216.58.217.46",443,"https","TCP",11,2150,"  "
0,"","155.97.136.200",53,"domain","155.99.89.217",60481,"","UDP",1,220,"Salt Lake City Utah US"
10144,"com.android.chrome","192.168.0.19",37230,"","23.73.156.235",443,"https","TCP",10,855,"  "
10022,"com.google.android.syncadapters.bookmarks","192.168.0.19",48290,"","216.58.217.10",443,"https","TCP",13,2312,"  "
10022,"com.google.android.syncadapters.bookmarks","155.99.89.217",34566,"","74.125.28.188",5228,"","TCP",27,2765,"Mountain View California US"
1000,"","216.58.217.46",80,"http","192.168.29.102",55599,"","TCP",5,351,"  "
10144,"com.android.chrome","155.99.89.217",50459,"","140.197.248.77",443,"https","TCP",12,2282,"Salt Lake City Utah US"
0,"","155.97.136.200",53,"domain","155.99.89.217",19487,"","UDP",1,131,"Salt Lake City Utah US"
10144,"com.android.chrome","192.168.0.19",45673,"","151.101.69.140",443,"https","TCP",9,803,"  "
10144,"com.android.chrome","216.58.217.194",443,"https","155.99.89.217",60787,"","TCP",11,4995,"Mountain View California US"
10067,"com.android.vending","216.58.193.206",443,"https","155.99.169.255",35386,"","TCP",13,7283,"Mountain View California US"
10045,"com.carrieriq.tmobile","192.168.0.19",4071,"aibkup","192.168.0.1",53,"domain","UDP",1,64,"  "
0,"","192.168.0.1",53,"domain","192.168.0.19",52629,"","UDP",1,130,"  "
1014,"","10.72.2.152",67,"bootps","155.99.89.217",68,"bootpc","UDP",11,3608,"  "
10144,"com.android.chrome","140.197.248.102",443,"https","155.99.89.217",44515,"","TCP",8,5026,"Salt Lake City Utah US"
0,"","155.99.89.217",50389,"","155.97.136.200",53,"domain","UDP",1,63,"Salt Lake City Utah US"
10022,"com.google.android.syncadapters.bookmarks","155.99.89.217",46445,"","216.58.193.202",443,"https","TCP",12,2249,"Mountain View California US"
0,"","192.168.0.1",53,"domain","192.168.0.19",15238,"","UDP",1,112,"  "
10144,"com.android.chrome","199.16.156.52",443,"https","192.168.0.19",36881,"","TCP",11,4517,"  "
0,"","155.97.136.200",53,"domain","155.99.89.217",45235,"","UDP",1,487,"Salt Lake City Utah US"
10001,"com.tmobile.pr.mytmobile","192.168.0.19",36647,"","65.52.232.150",443,"https","TCP",3,180,"  "
0,"","155.97.136.200",53,"domain","155.99.89.217",46414,"","UDP",1,248,"Salt Lake City Utah US"
0,"","192.168.0.1",53,"domain","192.168.0.19",15712,"","UDP",1,114,"  "
0,"","155.99.89.217",24798,"","155.97.136.200",53,"domain","UDP",1,63,"Salt Lake City Utah US"
10144,"com.android.chrome","192.168.0.19",45702,"","151.101.69.140",443,"https","TCP",9,807,"  "
10114,"com.google.android.videos","155.99.89.217",51841,"","140.197.248.101",443,"https","TCP",22,2865,"Salt Lake City Utah US"
0,"","192.168.0.1",53,"domain","192.168.0.19",14710,"","UDP",1,121,"  "
0,"","192.168.0.19",22716,"","192.168.0.1",53,"domain","UDP",1,62,"  "
0,"","192.168.0.1",53,"domain","192.168.0.19",4269,"vrml-multi-use","UDP",1,131,"  "
10001,"com.tmobile.pr.mytmobile","192.168.0.19",36768,"","65.52.232.150",443,"https","TCP",3,180,"  "
-1,"","192.168.29.102",9999,"distinct","192.168.29.1",9999,"distinct","ICMP",3,1704,"  "
0,"","192.168.0.1",53,"domain","192.168.0.19",10856,"","UDP",1,76,"  "
10114,"com.google.android.videos","216.58.217.46",443,"https","192.168.29.102",50098,"","TCP",23,8365,"  "
0,"","192.168.0.19",52393,"","192.168.0.1",53,"domain","UDP",1,65,"  "
0,"","155.99.89.217",30903,"","155.97.136.200",53,"domain","UDP",1,73,"Salt Lake City Utah US"
0,"","155.99.89.217",18059,"","155.97.136.200",53,"domain","UDP",1,70,"Salt Lake City Utah US"
10152,"com.snapchat.android","216.58.216.49",443,"https","155.99.89.217",53814,"","TCP",11,4877,"Mountain View California US"
0,"","192.168.0.1",53,"domain","192.168.0.19",59841,"","UDP",1,131,"  "
0,"","192.168.0.1",53,"domain","192.168.0.19",64421,"","UDP",1,112,"  "
0,"","192.168.0.1",53,"domain","192.168.0.19",9651,"","UDP",1,109,"  "
0,"","192.168.0.19",49676,"","192.168.0.1",53,"domain","UDP",1,60,"  "
10144,"com.android.chrome","216.58.193.100",443,"https","192.168.0.19",59393,"","UDP",4,1782,"  "
10144,"com.android.chrome","23.203.230.101",443,"https","155.99.89.217",42659,"","TCP",9,5309,"Cambridge Massachusetts US"
0,"","192.168.0.1",53,"domain","192.168.0.19",49129,"","UDP",1,117,"  "
10022,"com.google.android.syncadapters.bookmarks","192.168.0.19",51753,"","64.233.191.188",5228,"","TCP",11,1496,"  "
0,"","192.168.0.19",23247,"","192.168.0.1",53,"domain","UDP",1,65,"  "
0,"","192.168.0.19",11537,"","192.168.0.1",53,"domain","UDP",1,60,"  "
10144,"com.android.chrome","155.99.89.217",44515,"","140.197.248.102",443,"https","TCP",11,1026,"Salt Lake City Utah US"
0,"","192.168.0.1",53,"domain","192.168.0.19",35656,"","UDP",1,112,"  "
10144,"com.android.chrome","172.217.3.196",443,"https","192.168.0.19",57999,"","TCP",15,5158,"  "
0,"","192.168.0.1",53,"domain","192.168.0.19",63132,"","UDP",1,107,"  "
10144,"com.android.chrome","155.99.89.217",56279,"","151.101.69.140",443,"https","TCP",9,802,"San Francisco California US"
10144,"com.android.chrome","192.168.0.19",46188,"","172.217.3.195",443,"https","UDP",92,9854,"  "
0,"","155.97.136.200",53,"domain","155.99.89.217",14988,"","UDP",1,274,"Salt Lake City Utah US"
0,"","155.99.89.217",38226,"","155.97.136.200",53,"domain","UDP",1,57,"Salt Lake City Utah US"
0,"","155.99.89.217",37669,"","155.97.136.200",53,"domain","UDP",1,63,"Salt Lake City Utah US"
0,"","192.168.0.1",53,"domain","192.168.0.19",34543,"","UDP",1,114,"  "
0,"","155.97.136.200",53,"domain","155.99.89.217",48771,"","UDP",1,269,"Salt Lake City Utah US"
0,"","192.168.0.19",16967,"","192.168.0.1",53,"domain","UDP",1,63,"  "
10144,"com.android.chrome","104.82.45.95",443,"https","155.99.89.217",38514,"","TCP",13,6526,"Cambridge Massachusetts US"
0,"","155.99.169.255",10419,"","155.97.136.200",53,"domain","UDP",1,60,"Salt Lake City Utah US"
0,"","192.168.0.19",17234,"integrius-stp","192.168.0.1",53,"domain","UDP",1,63,"  "
10022,"com.google.android.syncadapters.bookmarks","155.99.89.217",41068,"","216.58.219.42",443,"https","TCP",13,3424,"Mountain View California US"
0,"","192.168.0.1",53,"domain","192.168.0.19",27762,"","UDP",1,112,"  "
10144,"com.android.chrome","216.58.217.33",443,"https","192.168.0.19",53559,"","TCP",9,4833,"  "
10022,"com.google.android.syncadapters.bookmarks","74.125.28.188",5228,"","155.99.89.217",34566,"","TCP",23,5801,"Mountain View California US"
10144,"com.android.chrome","155.99.89.217",41565,"","140.197.248.101",443,"https","UDP",7,3299,"Salt Lake City Utah US"
10022,"com.google.android.syncadapters.bookmarks","192.168.0.19",46047,"","172.217.4.170",443,"https","TCP",11,1863,"  "
0,"","192.168.0.1",53,"domain","192.168.0.19",8133,"","UDP",1,107,"  "
0,"","192.168.0.19",25176,"","192.168.0.1",53,"domain","UDP",1,64,"  "
10022,"com.google.android.syncadapters.bookmarks","216.58.217.42",443,"https","192.168.0.19",58794,"","TCP",44,52298,"  "
-1,"","0.0.0.0",68,"bootpc","255.255.255.255",67,"bootps","UDP",2,656,"  "
10022,"com.google.android.syncadapters.bookmarks","192.168.0.19",58826,"","216.58.217.42",443,"https","TCP",10,1980,"  "
0,"","192.168.0.1",53,"domain","192.168.0.19",19918,"","UDP",1,164,"  "
10114,"com.google.android.videos","192.168.0.19",54232,"","216.58.217.46",443,"https","TCP",22,4023,"  "
10144,"com.android.chrome","192.168.0.19",36850,"","199.16.156.52",443,"https","TCP",10,858,"  "
0,"","192.168.0.19",15165,"","192.168.0.1",53,"domain","UDP",1,72,"  "
0,"","192.168.0.19",5692,"","192.168.0.1",53,"domain","UDP",1,63,"  "
0,"","155.97.136.200",53,"domain","155.99.89.217",37774,"","UDP",1,257,"Salt Lake City Utah US"
0,"","192.168.29.102",1217,"hpss-ndapi","192.168.29.1",53,"domain","UDP",1,63,"  "
-1,"","192.168.29.164",57621,"","192.168.29.255",57621,"","UDP",1,72,"  "
0,"","192.168.0.19",54065,"","192.168.0.1",53,"domain","UDP",1,60,"  "
0,"","192.168.0.19",16004,"","192.168.0.1",53,"domain","UDP",1,60,"  "
10001,"com.tmobile.pr.mytmobile","52.85.83.68",80,"http","192.168.0.19",38007,"","TCP",5,1749,"  "
0,"","192.168.0.1",53,"domain","192.168.0.19",18752,"","UDP",1,84,"  "
10144,"com.android.chrome","155.99.89.217",59637,"","140.197.248.90",443,"https","TCP",12,1969,"Salt Lake City Utah US"
10144,"com.android.chrome","216.58.217.34",443,"https","192.168.0.19",53975,"","TCP",10,4909,"  "
0,"","155.99.89.217",21192,"","155.97.136.200",53,"domain","UDP",1,60,"Salt Lake City Utah US"
0,"","192.168.0.19",7867,"","192.168.0.1",53,"domain","UDP",1,66,"  "
10114,"com.google.android.videos","192.168.29.102",50103,"","216.58.217.46",443,"https","TCP",7,1276,"  "
0,"","155.97.136.200",53,"domain","155.99.169.255",45508,"","UDP",1,452,"Salt Lake City Utah US"
0,"","192.168.0.19",15712,"","192.168.0.1",53,"domain","UDP",1,63,"  "
10144,"com.android.chrome","216.58.217.34",443,"https","192.168.0.19",53946,"","TCP",8,4750,"  "
10022,"com.google.android.syncadapters.bookmarks","192.168.0.19",33669,"","74.125.202.188",5228,"","TCP",53,4752,"  "
0,"","192.168.0.1",53,"domain","192.168.0.19",39058,"","UDP",1,117,"  "
10022,"com.google.android.syncadapters.bookmarks","155.99.89.217",50576,"","216.58.217.202",443,"https","TCP",11,2115,"Mountain View California US"
10022,"com.google.android.syncadapters.bookmarks","216.58.216.42",443,"https","155.99.169.255",49320,"","TCP",7,912,"Mountain View California US"
10144,"com.android.chrome","151.101.69.140",443,"https","155.99.89.217",56269,"","TCP",79,85346,"San Francisco California US"
10045,"com.carrieriq.tmobile","192.168.0.19",56943,"","192.168.0.1",53,"domain","UDP",1,64,"  "
10144,"com.android.chrome","192.168.0.19",45658,"","151.101.69.140",443,"https","TCP",9,807,"  "
0,"","192.168.0.19",35656,"","192.168.0.1",53,"domain","UDP",1,72,"  "
10114,"com.google.android.videos","140.197.248.99",443,"https","155.99.89.217",58185,"","TCP",18,13764,"Salt Lake City Utah US"
10022,"com.google.android.syncadapters.bookmarks","216.58.217.10",443,"https","192.168.0.19",48297,"","TCP",10,4592,"  "
0,"","155.99.89.217",60481,"","155.97.136.200",53,"domain","UDP",1,60,"Salt Lake City Utah US"
0,"","192.168.0.1",53,"domain","192.168.0.19",49676,"","UDP",1,111,"  "
0,"","192.168.0.1",53,"domain","192.168.0.19",27644,"","UDP",1,130,"  "
10144,"com.android.chrome","192.168.0.19",45656,"","151.101.69.140",443,"https","TCP",9,807,"  "
0,"","155.99.89.217",1780,"dpkeyserv","155.97.136.200",53,"domain","UDP",1,57,"Salt Lake City Utah US"
0,"","192.168.0.19",53055,"","192.168.0.1",53,"domain","UDP",1,55,"  "
10022,"com.google.android.syncadapters.bookmarks","216.58.217.42",443,"https","192.168.0.19",58793,"","TCP",12,5309,"  "
0,"","155.99.89.217",30962,"","155.97.136.200",53,"domain","UDP",1,59,"Salt Lake City Utah US"
0,"","192.168.0.1",53,"domain","192.168.0.19",20767,"","UDP",1,109,"  "
10144,"com.android.chrome","151.101.69.140",443,"https","192.168.0.19",45714,"","TCP",5,4130,"  "
0,"","192.168.0.1",53,"domain","192.168.0.19",46286,"","UDP",1,111,"  "
10144,"com.android.chrome","151.101.69.140",443,"https","192.168.0.19",45712,"","TCP",5,4114,"  "
0,"","155.97.136.200",53,"domain","155.99.89.217",35310,"","UDP",1,481,"Salt Lake City Utah US"
10022,"com.google.android.syncadapters.bookmarks","216.58.217.46",443,"https","192.168.0.19",54243,"","TCP",9,1382,"  "
10112,"com.google.android.googlequicksearchbox","216.58.193.68",443,"https","192.168.0.19",48533,"","TCP",10,5271,"  "
0,"","192.168.0.19",29988,"","192.168.0.1",53,"domain","UDP",1,66,"  "
0,"","155.99.169.255",46510,"","155.97.136.200",53,"domain","UDP",1,72,"Salt Lake City Utah US"
10144,"com.android.chrome","192.168.0.19",60553,"","52.35.19.240",443,"https","TCP",11,1199,"  "
10144,"com.android.chrome","155.99.89.217",45729,"","140.197.248.80",443,"https","TCP",23,2813,"Salt Lake City Utah US"
10022,"com.google.android.syncadapters.bookmarks","172.217.4.170",443,"https","192.168.0.19",46047,"","TCP",10,5093,"  "
10144,"com.android.chrome","216.58.217.35",443,"https","192.168.0.19",49287,"","TCP",9,5132,"  "
10067,"com.android.vending","192.168.0.19",54234,"","216.58.217.46",443,"https","TCP",45,12024,"  "
0,"","192.168.0.19",44670,"","192.168.0.1",53,"domain","UDP",1,63,"  "
10022,"com.google.android.syncadapters.bookmarks","173.194.203.188",5228,"","155.99.169.255",55562,"","TCP",9,885,"Mountain View California US"
10152,"com.snapchat.android","192.168.0.19",36970,"","216.58.217.49",443,"https","TCP",20,4572,"  "
10144,"com.android.chrome","216.58.217.33",443,"https","192.168.0.19",53549,"","TCP",21,8165,"  "
10144,"com.android.chrome","192.168.0.19",53974,"","216.58.217.34",443,"https","TCP",10,976,"  "
10144,"com.android.chrome","140.197.248.77",443,"https","155.99.89.217",50458,"","TCP",9,6405,"Salt Lake City Utah US"
10144,"com.android.chrome","216.58.217.3",443,"https","192.168.0.19",33389,"","UDP",2,1433,"  "
-1,"","192.168.29.1",9999,"distinct","192.168.29.102",9999,"distinct","UDP",3,1620,"  "
0,"","155.97.136.200",53,"domain","155.99.89.217",57712,"","UDP",1,252,"Salt Lake City Utah US"
0,"","155.97.136.200",53,"domain","155.99.89.217",65363,"","UDP",1,248,"Salt Lake City Utah US"
0,"","192.168.0.19",31298,"","192.168.0.1",53,"domain","UDP",1,68,"  "
0,"","192.168.0.1",53,"domain","192.168.0.19",31732,"","UDP",1,75,"  "
10144,"com.android.chrome","192.168.0.1",53,"domain","192.168.0.19",43350,"","UDP",1,131,"  "
10144,"com.android.chrome","216.58.217.194",443,"https","155.99.89.217",60773,"","TCP",15,5199,"Mountain View California US"
0,"","155.99.89.217",63361,"","155.97.136.200",53,"domain","UDP",1,73,"Salt Lake City Utah US"
0,"","155.97.136.200",53,"domain","155.99.89.217",54645,"","UDP",1,347,"Salt Lake City Utah US"
10101,"com.nuance.swype.input","205.197.193.129",443,"https","192.168.0.19",48839,"","TCP",12,5772,"  "
0,"","192.168.0.1",53,"domain","192.168.0.19",12792,"","UDP",1,111,"  "
10022,"com.google.android.syncadapters.bookmarks","216.58.217.46",443,"https","192.168.0.19",54266,"","TCP",9,5272,"  "
0,"","192.168.0.19",46286,"","192.168.0.1",53,"domain","UDP",1,60,"  "
10144,"com.android.chrome","192.168.0.19",53588,"","216.58.217.33",443,"https","TCP",12,1080,"  "
10144,"com.android.chrome","155.99.89.217",55312,"","216.58.217.194",443,"https","UDP",9,3872,"Mountain View California US"
10144,"com.android.chrome","140.197.248.101",443,"https","155.99.89.217",51811,"","TCP",16,5486,"Salt Lake City Utah US"
10114,"com.google.android.videos","155.99.89.217",51872,"","140.197.248.101",443,"https","TCP",24,2925,"Salt Lake City Utah US"
0,"","192.168.0.19",60503,"","192.168.0.1",53,"domain","UDP",1,64,"  "
10144,"com.android.chrome","151.101.69.140",443,"https","192.168.0.19",45655,"","TCP",5,4114,"  "
10144,"com.android.chrome","155.99.89.217",56460,"","216.58.193.195",443,"https","TCP",22,2010,"Mountain View California US"
10144,"com.android.chrome","151.101.69.140",443,"https","192.168.0.19",45710,"","TCP",5,4114,"  "
10144,"com.android.chrome","216.58.217.35",443,"https","192.168.0.19",49294,"","TCP",27,10090,"  "
10144,"com.android.chrome","216.58.217.33",443,"https","192.168.0.19",39363,"","UDP",150,190998,"  "
0,"","155.99.169.255",43895,"","155.97.136.200",53,"domain","UDP",1,72,"Salt Lake City Utah US"
0,"","155.99.89.217",20399,"","155.97.136.200",53,"domain","UDP",1,65,"Salt Lake City Utah US"
10114,"com.google.android.videos","140.197.248.113",443,"https","155.99.89.217",46575,"","TCP",21,13884,"Salt Lake City Utah US"
10022,"com.google.android.syncadapters.bookmarks","192.168.0.19",48196,"","216.58.217.10",443,"https","TCP",9,1993,"  "
10144,"com.android.chrome","155.99.89.217",39473,"","216.58.193.193",443,"https","TCP",10,988,"Mountain View California US"
0,"","192.168.0.19",20767,"","192.168.0.1",53,"domain","UDP",1,63,"  "
0,"","192.168.0.1",53,"domain","192.168.0.19",7908,"","UDP",1,99,"  "
10022,"com.google.android.syncadapters.bookmarks","64.233.191.188",5228,"","192.168.0.19",51753,"","TCP",9,4949,"  "
10001,"com.tmobile.pr.mytmobile","192.168.0.19",36670,"","65.52.232.150",443,"https","TCP",3,180,"  "
0,"","155.99.89.217",44382,"","155.97.136.200",53,"domain","UDP",1,60,"Salt Lake City Utah US"
0,"","155.99.169.255",29695,"","155.97.136.200",53,"domain","UDP",1,63,"Salt Lake City Utah US"
0,"","192.168.0.19",31732,"","192.168.0.1",53,"domain","UDP",1,59,"  "
0,"","155.97.136.200",53,"domain","155.99.89.217",7041,"","UDP",1,365,"Salt Lake City Utah US"
10152,"com.snapchat.android","172.217.4.177",443,"https","155.99.89.217",49971,"","TCP",11,4765,"Mountain View California US"
10045,"com.carrieriq.tmobile","192.168.0.19",8643,"","192.168.0.1",53,"domain","UDP",1,64,"  "
10144,"com.android.chrome","192.168.0.19",45675,"","151.101.69.140",443,"https","TCP",9,803,"  "
0,"","155.97.136.200",53,"domain","155.99.89.217",53893,"","UDP",1,300,"Salt Lake City Utah US"
0,"","192.168.0.1",53,"domain","192.168.0.19",6462,"","UDP",1,130,"  "
10144,"com.android.chrome","155.99.89.217",56272,"","151.101.69.140",443,"https","TCP",9,819,"San Francisco California US"
0,"","155.99.89.217",61760,"","155.97.136.200",53,"domain","UDP",1,70,"Salt Lake City Utah US"
0,"","155.97.136.200",53,"domain","155.99.89.217",44382,"","UDP",1,247,"Salt Lake City Utah US"
0,"","192.168.0.19",24477,"","192.168.0.1",53,"domain","UDP",1,73,"  "
10144,"com.android.chrome","216.58.217.3",443,"https","192.168.0.19",39341,"","TCP",18,6026,"  "
10022,"com.google.android.syncadapters.bookmarks","192.168.0.19",58793,"","216.58.217.42",443,"https","TCP",17,9795,"  "
0,"","192.168.0.19",14908,"","192.168.0.1",53,"domain","UDP",1,71,"  "
10022,"com.google.android.syncadapters.bookmarks","192.168.0.19",58792,"","216.58.217.42",443,"https","TCP",26,2937,"  "
0,"","192.168.0.1",53,"domain","192.168.0.19",22261,"","UDP",1,128,"  "
10144,"com.android.chrome","192.168.0.19",45713,"","151.101.69.140",443,"https","TCP",9,802,"  "
10022,"com.google.android.syncadapters.bookmarks","172.217.4.170",443,"https","192.168.0.19",46048,"","TCP",10,5157,"  "
0,"","192.168.0.1",53,"domain","192.168.0.19",39943,"","UDP",1,76,"  "
10045,"com.carrieriq.tmobile","192.168.0.19",63591,"","192.168.0.1",53,"domain","UDP",1,64,"  "
0,"","192.168.0.1",53,"domain","192.168.0.19",14305,"","UDP",1,83,"  "
0,"","155.99.89.217",11288,"","155.97.136.200",53,"domain","UDP",1,66,"Salt Lake City Utah US"
10144,"com.android.chrome","216.58.217.34",443,"https","192.168.0.19",53947,"","TCP",8,4763,"  "
10001,"com.tmobile.pr.mytmobile","155.99.89.217",56263,"","65.52.232.150",443,"https","TCP",3,180,"Chicago Illinois US"
10144,"com.android.chrome","140.197.248.106",443,"https","155.99.89.217",34310,"","UDP",5,4263,"Salt Lake City Utah US"
10114,"com.google.android.videos","140.197.248.99",443,"https","155.99.169.255",39742,"","TCP",7,1189,"Salt Lake City Utah US"
0,"","192.168.0.19",7908,"","192.168.0.1",53,"domain","UDP",1,83,"  "
0,"","192.168.0.19",43572,"","192.168.0.1",53,"domain","UDP",1,67,"  "
-1,"","192.168.29.102",80,"http","192.168.29.1",41033,"","TCP",1,40,"  "
10022,"com.google.android.syncadapters.bookmarks","216.58.216.10",443,"https","155.99.89.217",35222,"","TCP",7,1024,"Mountain View California US"
10144,"com.android.chrome","72.21.91.70",443,"https","192.168.0.19",60105,"","TCP",7,5996,"  "
0,"","155.99.89.217",44793,"","155.97.136.200",53,"domain","UDP",1,64,"Salt Lake City Utah US"
10022,"com.google.android.syncadapters.bookmarks","192.168.0.19",48297,"","216.58.217.10",443,"https","TCP",11,1840,"  "
0,"","155.97.136.200",53,"domain","155.99.89.217",37715,"","UDP",1,134,"Salt Lake City Utah US"
10144,"com.android.chrome","192.168.0.19",45659,"","151.101.69.140",443,"https","TCP",9,807,"  "
10144,"com.android.chrome","199.96.57.6",443,"https","192.168.0.19",51121,"","TCP",5,409,"  "
10022,"com.google.android.syncadapters.bookmarks","192.168.0.19",54247,"","216.58.217.46",443,"https","TCP",10,1590,"  "
-1,"","155.99.89.217",443,"https","140.197.248.106",34310,"","ICMP",1,576,"Salt Lake City Utah US"
10001,"com.tmobile.pr.mytmobile","192.168.0.19",36669,"","65.52.232.150",443,"https","TCP",3,180,"  "
0,"","155.99.89.217",20209,"","155.97.136.200",53,"domain","UDP",1,67,"Salt Lake City Utah US"
10144,"com.android.chrome","216.58.217.42",443,"https","192.168.0.19",58807,"","TCP",17,7882,"  "
0,"","192.168.0.19",33559,"","192.168.0.1",53,"domain","UDP",1,70,"  "
10001,"com.tmobile.pr.mytmobile","192.168.0.19",36659,"","65.52.232.150",443,"https","TCP",3,180,"  "
10144,"com.android.chrome","192.168.0.19",45707,"","151.101.69.140",443,"https","TCP",9,819,"  "
10144,"com.android.chrome","192.168.0.19",37256,"","23.73.156.235",443,"https","TCP",12,971,"  "
0,"","192.168.0.1",53,"domain","192.168.0.19",2125,"lockstep","UDP",1,76,"  "
10022,"com.google.android.syncadapters.bookmarks","216.58.219.42",443,"https","155.99.89.217",41068,"","TCP",9,4865,"Mountain View California US"
10114,"com.google.android.videos","155.99.169.255",39732,"","140.197.248.99",443,"https","TCP",31,5132,"Salt Lake City Utah US"
10114,"com.google.android.videos","216.58.217.46",443,"https","192.168.0.19",54256,"","TCP",8,1229,"  "
0,"","192.168.0.19",63132,"","192.168.0.1",53,"domain","UDP",1,63,"  "
10144,"com.android.chrome","151.101.69.140",443,"https","192.168.0.19",45658,"","TCP",5,4130,"  "
10144,"com.android.chrome","151.101.69.140",443,"https","192.168.0.19",45674,"","TCP",5,4130,"  "
10144,"com.android.chrome","192.168.0.19",53945,"","216.58.217.34",443,"https","TCP",12,1092,"  "
10022,"com.google.android.syncadapters.bookmarks","192.168.0.19",58825,"","216.58.217.42",443,"https","TCP",13,2312,"  "
10144,"com.android.chrome","216.58.217.33",443,"https","192.168.0.19",53588,"","TCP",10,4906,"  "
10144,"com.android.chrome","155.99.89.217",56271,"","151.101.69.140",443,"https","TCP",116,9749,"San Francisco California US"
10144,"com.android.chrome","192.168.0.19",39341,"","216.58.217.3",443,"https","TCP",20,2154,"  "
10114,"com.google.android.videos","216.58.217.46",443,"https","192.168.29.102",50103,"","TCP",7,1189,"  "
0,"","155.99.89.217",62418,"","155.97.136.200",53,"domain","UDP",1,70,"Salt Lake City Utah US"
10144,"com.android.chrome","151.101.69.140",443,"https","155.99.89.217",56277,"","TCP",5,4130,"San Francisco California US"
10101,"com.nuance.swype.input","192.168.0.19",48839,"","205.197.193.129",443,"https","TCP",14,1733,"  "
10144,"com.android.chrome","155.99.89.217",49560,"","140.197.248.95",443,"https","TCP",11,1030,"Salt Lake City Utah US"
10114,"com.google.android.videos","192.168.0.19",54246,"","216.58.217.46",443,"https","TCP",11,2150,"  "
-1,"","192.168.29.1",45166,"","192.168.29.102",139,"netbios-ssn","TCP",1,60,"  "
10067,"com.android.vending","216.58.217.42",443,"https","192.168.0.19",58789,"","TCP",12,5245,"  "
10144,"com.android.chrome","192.168.0.19",45667,"","151.101.69.140",443,"https","TCP",9,802,"  "
10144,"com.android.chrome","192.168.0.19",33389,"","216.58.217.3",443,"https","UDP",2,1444,"  "
10144,"com.android.chrome","140.197.248.80",443,"https","155.99.89.217",45729,"","TCP",20,6681,"Salt Lake City Utah US"
0,"","192.168.0.1",53,"domain","192.168.0.19",45488,"","UDP",1,97,"  "
10144,"com.android.chrome","140.197.248.99",443,"https","155.99.89.217",58140,"","TCP",13,7028,"Salt Lake City Utah US"
10114,"com.google.android.videos","140.197.248.101",443,"https","155.99.89.217",51842,"","TCP",20,12384,"Salt Lake City Utah US"
10144,"com.android.chrome","23.73.156.235",443,"https","192.168.0.19",37256,"","TCP",10,5361,"  "
0,"","155.97.136.200",53,"domain","155.99.89.217",38542,"","UDP",1,314,"Salt Lake City Utah US"
10022,"com.google.android.syncadapters.bookmarks","192.168.0.19",54233,"","216.58.217.46",443,"https","TCP",18,12959,"  "
10144,"com.android.chrome","216.58.219.10",443,"https","155.99.89.217",37246,"","TCP",17,6761,"Mountain View California US"
0,"","155.99.89.217",38542,"","155.97.136.200",53,"domain","UDP",1,64,"Salt Lake City Utah US"
0,"","155.97.136.200",53,"domain","155.99.89.217",40145,"","UDP",1,410,"Salt Lake City Utah US"
0,"","192.168.0.19",45488,"","192.168.0.1",53,"domain","UDP",1,81,"  "
0,"","192.168.0.1",53,"domain","192.168.0.19",43421,"","UDP",1,139,"  "
0,"","155.99.89.217",48771,"","155.97.136.200",53,"domain","UDP",1,68,"Salt Lake City Utah US"
10144,"com.android.chrome","140.197.248.95",443,"https","155.99.89.217",49560,"","TCP",8,5026,"Salt Lake City Utah US"
10114,"com.google.android.videos","192.168.0.19",54245,"","216.58.217.46",443,"https","TCP",11,2150,"  "
10144,"com.android.chrome","192.168.0.19",45711,"","151.101.69.140",443,"https","TCP",9,800,"  "
0,"","192.168.0.1",53,"domain","192.168.0.19",7049,"","UDP",1,131,"  "
10022,"com.google.android.syncadapters.bookmarks","74.125.202.188",5228,"","192.168.0.19",33669,"","TCP",43,7255,"  "
10114,"com.google.android.videos","216.58.217.46",443,"https","192.168.0.19",54261,"","TCP",8,1229,"  "
10144,"com.android.chrome","155.99.89.217",59152,"","140.197.248.95",443,"https","UDP",20,8765,"Salt Lake City Utah US"
10144,"com.android.chrome","151.101.69.140",443,"https","192.168.0.19",45665,"","TCP",5,4130,"  "
0,"","155.97.136.200",53,"domain","155.99.89.217",20805,"","UDP",1,245,"Salt Lake City Utah US"
10144,"com.android.chrome","216.58.217.35",443,"https","192.168.0.19",48237,"","UDP",27,32135,"  "
10144,"com.android.chrome","151.101.69.140",443,"https","155.99.89.217",56273,"","TCP",5,4130,"San Francisco California US"
10067,"com.android.vending","216.58.217.10",443,"https","192.168.0.19",48288,"","TCP",12,5245,"  "
0,"","192.168.29.1",53,"domain","192.168.29.102",1851,"ctcd","UDP",1,105,"  "
0,"","155.99.89.217",45235,"","155.97.136.200",53,"domain","UDP",1,61,"Salt Lake City Utah US"
10144,"com.android.chrome","192.168.0.19",45666,"","151.101.69.140",443,"https","TCP",9,797,"  "
10144,"com.android.chrome","155.99.89.217",56274,"","151.101.69.140",443,"https","TCP",9,800,"San Francisco California US"
0,"","155.97.136.200",53,"domain","155.99.89.217",61760,"","UDP",1,229,"Salt Lake City Utah US"
0,"","192.168.0.1",53,"domain","192.168.0.19",33559,"","UDP",1,121,"  "
10022,"com.google.android.syncadapters.bookmarks","172.217.5.78",443,"https","155.99.89.217",34050,"","TCP",12,5493,"Mountain View California US"
0,"","192.168.0.1",53,"domain","192.168.0.19",61710,"","UDP",1,112,"  "
0,"","192.168.0.1",53,"domain","192.168.0.19",19039,"","UDP",1,85,"  "
10022,"com.google.android.syncadapters.bookmarks","192.168.0.19",58803,"","216.58.217.42",443,"https","TCP",13,2312,"  "
10022,"com.google.android.syncadapters.bookmarks","74.125.69.188",5228,"","192.168.29.102",47579,"","TCP",9,860,"  "
10022,"com.google.android.syncadapters.bookmarks","216.58.217.10",443,"https","192.168.0.19",48188,"","TCP",10,5120,"  "
0,"","192.168.0.1",53,"domain","192.168.0.19",6240,"","UDP",1,163,"  "
10144,"com.android.chrome","192.168.0.19",51207,"","172.217.3.196",443,"https","UDP",492,48077,"  "
10144,"com.android.chrome","155.99.89.217",43693,"","216.58.217.1",443,"https","UDP",6,3023,"Mountain View California US"
10067,"com.android.vending","155.99.169.255",35385,"","216.58.193.206",443,"https","TCP",39,9895,"Mountain View California US"
0,"","155.99.89.217",7423,"","155.97.136.200",53,"domain","UDP",1,63,"Salt Lake City Utah US"
-1,"","163.172.88.109",5115,"","155.99.89.217",5060,"sip","UDP",1,434,"  FR"
10001,"com.tmobile.pr.mytmobile","155.99.89.217",56304,"","65.52.232.150",443,"https","TCP",3,180,"Chicago Illinois US"
0,"","192.168.0.1",53,"domain","192.168.0.19",4546,"sf-lm","UDP",1,131,"  "
10022,"com.google.android.syncadapters.bookmarks","192.168.0.19",54227,"","216.58.217.46",443,"https","TCP",15,2044,"  "
0,"","192.168.0.19",27483,"","192.168.0.1",53,"domain","UDP",1,56,"  "
0,"","192.168.0.1",53,"domain","192.168.0.19",24477,"","UDP",1,114,"  "
10144,"com.android.chrome","155.97.136.200",53,"domain","155.99.89.217",9306,"","UDP",1,131,"Salt Lake City Utah US"
10144,"com.android.chrome","192.168.0.19",45660,"","151.101.69.140",443,"https","TCP",9,807,"  "
0,"","192.168.0.1",53,"domain","192.168.0.19",53055,"","UDP",1,130,"  "
10022,"com.google.android.syncadapters.bookmarks","192.168.0.19",58794,"","216.58.217.42",443,"https","TCP",28,3041,"  "
0,"","155.99.89.217",35457,"","155.97.136.200",53,"domain","UDP",1,66,"Salt Lake City Utah US"
10114,"com.google.android.videos","216.58.195.78",443,"https","192.168.0.19",37471,"","TCP",11,5705,"  "
10114,"com.google.android.videos","216.58.217.46",443,"https","192.168.0.19",54250,"","TCP",9,1281,"  "
0,"","155.97.136.200",53,"domain","155.99.89.217",50389,"","UDP",1,483,"Salt Lake City Utah US"
10144,"com.android.chrome","216.58.193.194",443,"https","155.99.89.217",38573,"","TCP",11,4995,"Mountain View California US"
0,"","155.99.89.217",56064,"","155.97.136.200",53,"domain","UDP",1,61,"Salt Lake City Utah US"
10144,"com.android.chrome","192.168.0.19",60934,"","52.40.110.82",443,"https","TCP",11,885,"  "
10152,"com.snapchat.android","155.99.89.217",49971,"","172.217.4.177",443,"https","TCP",13,1553,"Mountain View California US"
10114,"com.google.android.videos","140.197.248.101",443,"https","155.99.89.217",51872,"","TCP",22,13936,"Salt Lake City Utah US"
0,"","155.97.136.200",53,"domain","155.99.89.217",49625,"","UDP",1,251,"Salt Lake City Utah US"
0,"","192.168.0.19",17284,"","192.168.0.1",53,"domain","UDP",1,63,"  "
0,"","192.168.0.1",53,"domain","192.168.0.19",15165,"","UDP",1,112,"  "
0,"","192.168.0.1",53,"domain","192.168.0.19",39142,"","UDP",1,94,"  "
10114,"com.google.android.videos","140.197.248.101",443,"https","155.99.89.217",51841,"","TCP",20,13832,"Salt Lake City Utah US"
0,"","155.97.136.200",53,"domain","155.99.89.217",63850,"","UDP",1,506,"Salt Lake City Utah US"
0,"","155.99.89.217",28220,"","155.97.136.200",53,"domain","UDP",1,62,"Salt Lake City Utah US"
0,"","192.168.0.19",6291,"","192.168.0.1",53,"domain","UDP",1,65,"  "
10144,"com.android.chrome","192.168.0.1",53,"domain","192.168.0.19",7550,"cloudsignaling","UDP",1,130,"  "
10144,"com.android.chrome","52.40.110.82",443,"https","192.168.0.19",60934,"","TCP",8,3627,"  "
10144,"com.android.chrome","155.99.89.217",53598,"","216.58.217.8",443,"https","UDP",13,3676,"Mountain View California US"
-1,"","192.168.29.1",137,"netbios-ns","192.168.29.102",137,"netbios-ns","UDP",2,156,"  "
0,"","192.168.0.19",1638,"ismc","192.168.0.1",53,"domain","UDP",1,65,"  "
10022,"com.google.android.syncadapters.bookmarks","216.58.216.10",443,"https","155.99.89.217",35221,"","TCP",6,988,"Mountain View California US"
0,"","155.97.136.200",53,"domain","155.99.89.217",28191,"","UDP",1,270,"Salt Lake City Utah US"
0,"","155.97.136.200",53,"domain","155.99.89.217",60734,"","UDP",1,483,"Salt Lake City Utah US"
-1,"","181.174.61.131",55733,"","155.99.89.217",666,"doom","TCP",1,60,"Bucaramanga Departamento de Santander CO"
10144,"com.android.chrome","52.35.19.240",443,"https","192.168.0.19",60553,"","TCP",8,3627,"  "
0,"","155.97.136.200",53,"domain","155.99.169.255",2186,"gtaua","UDP",1,481,"Salt Lake City Utah US"
10114,"com.google.android.videos","155.99.89.217",45730,"","140.197.248.80",443,"https","TCP",22,2845,"Salt Lake City Utah US"
0,"","155.97.136.200",53,"domain","155.99.89.217",37669,"","UDP",1,465,"Salt Lake City Utah US"
10144,"com.android.chrome","192.168.0.19",45717,"","151.101.69.140",443,"https","TCP",9,803,"  "
10001,"com.tmobile.pr.mytmobile","52.84.246.245",80,"http","155.99.169.255",41793,"","TCP",4,1623,"Seattle Washington US"
0,"","192.168.0.1",53,"domain","192.168.0.19",29955,"","UDP",1,121,"  "
10114,"com.google.android.videos","216.58.217.46",443,"https","192.168.0.19",54368,"","TCP",19,8083,"  "
0,"","155.97.136.200",53,"domain","155.99.89.217",20399,"","UDP",1,481,"Salt Lake City Utah US"
10144,"com.android.chrome","155.99.89.217",60773,"","216.58.217.194",443,"https","TCP",16,1459,"Mountain View California US"
10144,"com.android.chrome","140.197.248.95",443,"https","155.99.89.217",49577,"","TCP",13,7044,"Salt Lake City Utah US"
0,"","192.168.0.19",10337,"","192.168.0.1",53,"domain","UDP",1,65,"  "
0,"","155.99.89.217",46438,"","155.97.136.200",53,"domain","UDP",1,59,"Salt Lake City Utah US"
10144,"com.android.chrome","52.40.110.82",443,"https","192.168.0.19",60935,"","TCP",8,3627,"  "
0,"","192.168.0.1",53,"domain","192.168.0.19",33871,"","UDP",1,107,"  "
10022,"com.google.android.syncadapters.bookmarks","192.168.0.19",46046,"","172.217.4.170",443,"https","TCP",11,1991,"  "
0,"","155.99.89.217",40145,"","155.97.136.200",53,"domain","UDP",1,69,"Salt Lake City Utah US"
1000,"","155.99.89.217",49549,"","140.197.248.112",80,"http","TCP",5,447,"Salt Lake City Utah US"
10114,"com.google.android.videos","140.197.248.101",443,"https","155.99.89.217",51782,"","TCP",10,1816,"Salt Lake City Utah US"
10144,"com.android.chrome","216.58.217.8",443,"https","155.99.89.217",53598,"","UDP",20,22899,"Mountain View California US"
0,"","192.168.0.1",53,"domain","192.168.0.19",62271,"","UDP",1,107,"  "
10144,"com.android.chrome","151.101.69.140",443,"https","192.168.0.19",45716,"","TCP",5,4130,"  "
10144,"com.android.chrome","192.168.0.19",45655,"","151.101.69.140",443,"https","TCP",9,795,"  "
10144,"com.android.chrome","155.99.89.217",42659,"","23.203.230.101",443,"https","TCP",11,919,"Cambridge Massachusetts US"
0,"","155.99.89.217",34716,"","155.97.136.200",53,"domain","UDP",1,60,"Salt Lake City Utah US"
0,"","192.168.0.1",53,"domain","192.168.0.19",35951,"","UDP",1,130,"  "
0,"","192.168.0.19",36225,"","192.168.0.1",53,"domain","UDP",1,65,"  "
0,"","155.99.89.217",49625,"","155.97.136.200",53,"domain","UDP",1,63,"Salt Lake City Utah US"
10144,"com.android.chrome","54.148.176.238",443,"https","155.99.89.217",36693,"","TCP",15,5647,"Boardman Oregon US"
10114,"com.google.android.videos","140.197.248.106",443,"https","155.99.89.217",39182,"","TCP",17,13712,"Salt Lake City Utah US"
10144,"com.android.chrome","216.58.217.1",443,"https","155.99.89.217",43693,"","UDP",9,9764,"Mountain View California US"
0,"","155.97.136.200",53,"domain","155.99.169.255",1525,"prospero-np","UDP",1,331,"Salt Lake City Utah US"
0,"","192.168.0.1",53,"domain","192.168.0.19",51190,"","UDP",1,76,"  "
10144,"com.android.chrome","192.168.0.19",45709,"","151.101.69.140",443,"https","TCP",9,800,"  "
0,"","155.99.89.217",3561,"bmc-onekey","155.97.136.200",53,"domain","UDP",1,59,"Salt Lake City Utah US"
-1,"","155.99.89.217",0,"","224.0.0.22",0,"","2",4,160,"  "
0,"","192.168.0.1",53,"domain","192.168.0.19",29728,"","UDP",1,79,"  "
0,"","155.99.169.255",45508,"","155.97.136.200",53,"domain","UDP",1,60,"Salt Lake City Utah US"
10022,"com.google.android.syncadapters.bookmarks","192.168.0.19",53863,"","216.58.217.34",443,"https","TCP",11,1250,"  "
10022,"com.google.android.syncadapters.bookmarks","216.58.217.42",443,"https","192.168.0.19",58798,"","TCP",12,5558,"  "
10114,"com.google.android.videos","216.58.217.46",443,"https","192.168.0.19",54269,"","TCP",10,1345,"  "
-1,"","192.168.29.1",41033,"","192.168.29.102",80,"http","TCP",1,60,"  "
0,"","155.99.89.217",20805,"","155.97.136.200",53,"domain","UDP",1,63,"Salt Lake City Utah US"
10144,"com.android.chrome","155.99.89.217",37246,"","216.58.219.10",443,"https","TCP",21,1858,"Mountain View California US"
10001,"com.tmobile.pr.mytmobile","192.168.0.19",36654,"","65.52.232.150",443,"https","TCP",3,180,"  "
0,"","192.168.0.19",19039,"","192.168.0.1",53,"domain","UDP",1,69,"  "
10022,"com.google.android.syncadapters.bookmarks","216.58.217.42",443,"https","192.168.0.19",58803,"","TCP",10,4608,"  "
10144,"com.android.chrome","192.168.0.19",60953,"","52.40.110.82",443,"https","TCP",14,3436,"  "
0,"","155.97.136.200",53,"domain","155.99.89.217",30962,"","UDP",1,486,"Salt Lake City Utah US"
10144,"com.android.chrome","192.168.0.19",60933,"","52.40.110.82",443,"https","TCP",11,885,"  "
10144,"com.android.chrome","140.197.248.95",443,"https","155.99.89.217",49559,"","TCP",31,19038,"Salt Lake City Utah US"
10144,"com.android.chrome","155.99.89.217",36718,"","54.148.176.238",443,"https","TCP",11,885,"Boardman Oregon US"
0,"","192.168.0.1",53,"domain","192.168.0.19",2483,"ttc","UDP",1,112,"  "
10144,"com.android.chrome","151.101.69.140",443,"https","192.168.0.19",45657,"","TCP",5,4130,"  "
0,"","192.168.0.1",53,"domain","192.168.0.19",48905,"","UDP",1,109,"  "
0,"","192.168.0.19",39895,"","192.168.0.1",53,"domain","UDP",1,66,"  "
-1,"","128.110.68.5",0,"","224.0.0.1",0,"","2",3,84,"  "
10144,"com.android.chrome","155.99.89.217",56276,"","151.101.69.140",443,"https","TCP",9,807,"San Francisco California US"
10022,"com.google.android.syncadapters.bookmarks","192.168.0.19",48188,"","216.58.217.10",443,"https","TCP",14,2433,"  "
0,"","155.97.136.200",53,"domain","155.99.89.217",49076,"","UDP",1,266,"Salt Lake City Utah US"
10112,"com.google.android.googlequicksearchbox","140.197.248.123",443,"https","155.99.169.255",45936,"","TCP",13,5716,"Salt Lake City Utah US"
10144,"com.android.chrome","54.148.176.238",443,"https","155.99.89.217",36717,"","TCP",8,3627,"Boardman Oregon US"
1000,"","192.168.29.102",55599,"","216.58.217.46",80,"http","TCP",6,511,"  "
0,"","192.168.0.19",18752,"","192.168.0.1",53,"domain","UDP",1,68,"  "
10001,"com.tmobile.pr.mytmobile","155.99.89.217",56275,"","65.52.232.150",443,"https","TCP",3,180,"Chicago Illinois US"
10144,"com.android.chrome","192.168.0.19",55572,"","216.58.217.35",443,"https","UDP",3,1507,"  "
10144,"com.android.chrome","216.58.193.193",443,"https","155.99.89.217",39473,"","TCP",11,4992,"Mountain View California US"
0,"","192.168.29.102",47663,"","192.168.29.1",53,"domain","UDP",1,63,"  "
0,"","155.99.89.217",35810,"","155.97.136.200",53,"domain","UDP",1,63,"Salt Lake City Utah US"
10144,"com.android.chrome","172.217.5.70",443,"https","155.99.89.217",53850,"","TCP",20,5844,"Mountain View California US"
10144,"com.android.chrome","151.101.69.140",443,"https","155.99.89.217",56279,"","TCP",5,4130,"San Francisco California US"
10045,"com.carrieriq.tmobile","192.168.0.19",58374,"","192.168.0.1",53,"domain","UDP",1,64,"  "
0,"","155.97.136.200",53,"domain","155.99.89.217",24753,"","UDP",1,220,"Salt Lake City Utah US"
0,"","192.168.0.19",48905,"","192.168.0.1",53,"domain","UDP",1,58,"  "
10144,"com.android.chrome","192.168.0.19",45715,"","151.101.69.140",443,"https","TCP",9,803,"  "
10022,"com.google.android.syncadapters.bookmarks","192.168.0.19",54275,"","216.58.217.46",443,"https","TCP",10,1668,"  "
0,"","155.99.89.217",25782,"","155.97.136.200",53,"domain","UDP",1,58,"Salt Lake City Utah US"
-1,"","192.168.29.102",137,"netbios-ns","192.168.29.1",137,"netbios-ns","ICMP",2,212,"  "
0,"","192.168.0.1",53,"domain","192.168.0.19",18811,"","UDP",1,123,"  "
0,"","155.99.89.217",24753,"","155.97.136.200",53,"domain","UDP",1,60,"Salt Lake City Utah US"
0,"","192.168.0.19",64372,"","192.168.0.1",53,"domain","UDP",1,64,"  "
10144,"com.android.chrome","192.168.0.19",45681,"","151.101.69.140",443,"https","TCP",19,2285,"  "
0,"","155.99.89.217",63463,"","155.97.136.200",53,"domain","UDP",1,76,"Salt Lake City Utah US"
10112,"com.google.android.googlequicksearchbox","192.168.0.19",48533,"","216.58.193.68",443,"https","TCP",13,1391,"  "
0,"","192.168.0.1",53,"domain","192.168.0.19",60145,"","UDP",1,117,"  "
10114,"com.google.android.videos","192.168.0.19",37471,"","216.58.195.78",443,"https","TCP",13,1663,"  "
0,"","155.99.89.217",46414,"","155.97.136.200",53,"domain","UDP",1,72,"Salt Lake City Utah US"
0,"","192.168.0.1",53,"domain","192.168.0.19",23247,"","UDP",1,105,"  "
10144,"com.android.chrome","192.168.0.19",54352,"","216.58.217.46",443,"https","TCP",14,1196,"  "
0,"","192.168.0.1",53,"domain","192.168.0.19",38246,"","UDP",1,112,"  "
0,"","192.168.0.1",53,"domain","192.168.0.19",47182,"","UDP",1,130,"  "
0,"","155.99.89.217",61501,"","155.97.136.200",53,"domain","UDP",1,63,"Salt Lake City Utah US"
0,"","155.97.136.200",53,"domain","155.99.89.217",56064,"","UDP",1,460,"Salt Lake City Utah US"
0,"","155.97.136.200",53,"domain","155.99.89.217",46438,"","UDP",1,336,"Salt Lake City Utah US"
10022,"com.google.android.syncadapters.bookmarks","216.58.217.42",443,"https","192.168.0.19",58826,"","TCP",7,908,"  "
10144,"com.android.chrome","23.73.156.235",443,"https","192.168.0.19",37230,"","TCP",7,5174,"  "
0,"","155.99.89.217",60734,"","155.97.136.200",53,"domain","UDP",1,63,"Salt Lake City Utah US"
10022,"com.google.android.syncadapters.bookmarks","216.58.217.46",443,"https","192.168.0.19",54241,"","TCP",12,1269,"  "
10144,"com.android.chrome","155.99.89.217",56278,"","151.101.69.140",443,"https","TCP",9,802,"San Francisco California US"
0,"","192.168.0.19",59639,"","192.168.0.1",53,"domain","UDP",1,70,"  "
10144,"com.android.chrome","155.99.89.217",56277,"","151.101.69.140",443,"https","TCP",9,807,"San Francisco California US"
0,"","192.168.0.19",39165,"","192.168.0.1",53,"domain","UDP",2,130,"  "
0,"","155.99.89.217",43870,"","155.97.136.200",53,"domain","UDP",1,65,"Salt Lake City Utah US"
10067,"com.android.vending","216.58.217.46",443,"https","192.168.0.19",54234,"","TCP",40,29629,"  "
0,"","192.168.0.19",16684,"","192.168.0.1",53,"domain","UDP",1,63,"  "
-1,"","155.99.89.217",443,"https","140.197.248.77",52757,"","UDP",3,1512,"Salt Lake City Utah US"
0,"","192.168.0.1",53,"domain","192.168.0.19",17284,"","UDP",1,114,"  "
10022,"com.google.android.syncadapters.bookmarks","155.99.89.217",59289,"","172.217.4.142",443,"https","TCP",13,1845,"Mountain View California US"
0,"","155.99.89.217",39248,"","155.97.136.200",53,"domain","UDP",1,83,"Salt Lake City Utah US"
10114,"com.google.android.videos","216.58.217.14",443,"https","192.168.0.19",41793,"","TCP",11,5705,"  "
10022,"com.google.android.syncadapters.bookmarks","155.99.89.217",35221,"","216.58.216.10",443,"https","TCP",10,3073,"Mountain View California US"
0,"","155.97.136.200",53,"domain","155.99.89.217",3561,"bmc-onekey","UDP",1,470,"Salt Lake City Utah US"
0,"","192.168.0.1",53,"domain","192.168.0.19",11537,"","UDP",1,76,"  "
10144,"com.android.chrome","216.58.217.34",443,"https","192.168.0.19",53974,"","TCP",10,4909,"  "
0,"","192.168.0.19",38246,"","192.168.0.1",53,"domain","UDP",1,72,"  "
10144,"com.android.chrome","155.99.89.217",34310,"","140.197.248.106",443,"https","UDP",5,4315,"Salt Lake City Utah US"
0,"","155.97.136.200",53,"domain","155.99.89.217",38226,"","UDP",1,132,"Salt Lake City Utah US"
10144,"com.android.chrome","192.168.0.19",45683,"","151.101.69.140",443,"https","TCP",52,5744,"  "
10144,"com.android.chrome","192.168.0.19",41635,"","216.58.217.3",443,"https","UDP",7,3578,"  "
10144,"com.android.chrome","172.217.3.195",443,"https","192.168.0.19",46188,"","UDP",168,222878,"  "
0,"","192.168.0.1",53,"domain","192.168.0.19",60608,"","UDP",1,76,"  "
10001,"com.tmobile.pr.mytmobile","155.99.89.217",56305,"","65.52.232.150",443,"https","TCP",3,180,"Chicago Illinois US"
10067,"com.android.vending","192.168.0.19",58789,"","216.58.217.42",443,"https","TCP",15,3457,"  "
0,"","155.97.136.200",53,"domain","155.99.89.217",42200,"","UDP",1,483,"Salt Lake City Utah US"
0,"","155.97.136.200",53,"domain","155.99.89.217",43870,"","UDP",1,481,"Salt Lake City Utah US"
10001,"com.tmobile.pr.mytmobile","192.168.0.19",36760,"","65.52.232.150",443,"https","TCP",3,180,"  "
0,"","155.99.89.217",65363,"","155.97.136.200",53,"domain","UDP",1,72,"Salt Lake City Utah US"
0,"","192.168.0.1",53,"domain","192.168.0.19",8505,"","UDP",1,107,"  "
0,"","155.97.136.200",53,"domain","155.99.89.217",38866,"","UDP",1,483,"Salt Lake City Utah US"
1000,"","140.197.248.101",80,"http","155.99.169.255",35730,"","TCP",4,299,"Salt Lake City Utah US"
0,"","155.99.89.217",28191,"","155.97.136.200",53,"domain","UDP",1,71,"Salt Lake City Utah US"
0,"","192.168.0.1",53,"domain","192.168.0.19",1729,"citynl","UDP",1,107,"  "
10112,"com.google.android.googlequicksearchbox","192.168.0.19",48535,"","216.58.193.68",443,"https","TCP",10,1372,"  "
0,"","192.168.0.1",53,"domain","192.168.0.19",36225,"","UDP",1,116,"  "
-1,"","155.99.89.217",27017,"","106.75.81.82",52616,"","TCP",1,40,"Shanghai Shanghai CN"
10144,"com.android.chrome","192.168.0.19",45700,"","151.101.69.140",443,"https","TCP",9,807,"  "
0,"","192.168.0.19",57867,"","192.168.0.1",53,"domain","UDP",2,126,"  "
10001,"com.tmobile.pr.mytmobile","155.99.89.217",56274,"","65.52.232.150",443,"https","TCP",3,180,"Chicago Illinois US"
0,"","155.97.136.200",53,"domain","155.99.89.217",24798,"","UDP",1,483,"Salt Lake City Utah US"
10022,"com.google.android.syncadapters.bookmarks","216.58.217.42",443,"https","192.168.0.19",58785,"","TCP",47,59602,"  "
10144,"com.android.chrome","155.99.89.217",49559,"","140.197.248.95",443,"https","TCP",34,3623,"Salt Lake City Utah US"
0,"","155.97.136.200",53,"domain","155.99.89.217",18603,"","UDP",1,481,"Salt Lake City Utah US"
0,"","192.168.0.19",64421,"","192.168.0.1",53,"domain","UDP",1,72,"  "
10022,"com.google.android.syncadapters.bookmarks","155.99.89.217",37732,"","216.58.193.206",443,"https","TCP",11,1698,"Mountain View California US"
10144,"com.android.chrome","192.168.0.19",49294,"","216.58.217.35",443,"https","TCP",21,2194,"  "
10114,"com.google.android.videos","192.168.0.19",54256,"","216.58.217.46",443,"https","TCP",11,2150,"  "
0,"","192.168.0.19",40317,"","192.168.0.1",53,"domain","UDP",1,61,"  "
10144,"com.android.chrome","155.99.89.217",56269,"","151.101.69.140",443,"https","TCP",83,6913,"San Francisco California US"
10144,"com.android.chrome","155.99.89.217",52757,"","140.197.248.77",443,"https","UDP",1380,100485,"Salt Lake City Utah US"
10022,"com.google.android.syncadapters.bookmarks","216.58.217.42",443,"https","192.168.0.19",58818,"","TCP",10,4784,"  "
10152,"com.snapchat.android","155.99.89.217",53814,"","216.58.216.49",443,"https","TCP",13,1565,"Mountain View California US"
0,"","192.168.29.102",40455,"","192.168.29.1",53,"domain","UDP",1,62,"  "
0,"","192.168.0.19",2125,"lockstep","192.168.0.1",53,"domain","UDP",1,60,"  "
10022,"com.google.android.syncadapters.bookmarks","216.58.193.206",443,"https","155.99.169.255",35388,"","TCP",11,5689,"Mountain View California US"
10114,"com.google.android.videos","192.168.0.19",54269,"","216.58.217.46",443,"https","TCP",12,2890,"  "
10144,"com.android.chrome","140.197.248.102",443,"https","155.99.89.217",44513,"","TCP",405,577801,"Salt Lake City Utah US"
10144,"com.android.chrome","192.168.0.19",48237,"","216.58.217.35",443,"https","UDP",17,4181,"  "
0,"","192.168.29.1",53,"domain","192.168.29.102",1217,"hpss-ndapi","UDP",1,107,"  "
10114,"com.google.android.videos","155.99.89.217",46575,"","140.197.248.113",443,"https","TCP",23,2909,"Salt Lake City Utah US"
10144,"com.android.chrome","192.168.0.19",45670,"","151.101.69.140",443,"https","TCP",9,800,"  "
0,"","192.168.0.19",15238,"","192.168.0.1",53,"domain","UDP",1,72,"  "
10022,"com.google.android.syncadapters.bookmarks","172.217.4.142",443,"https","155.99.89.217",59289,"","TCP",11,5355,"Mountain View California US"
0,"","155.97.136.200",53,"domain","155.99.89.217",35457,"","UDP",1,481,"Salt Lake City Utah US"
0,"","155.97.136.200",53,"domain","155.99.89.217",33625,"","UDP",1,266,"Salt Lake City Utah US"
0,"","192.168.0.1",53,"domain","192.168.0.19",10337,"","UDP",1,131,"  "
0,"","192.168.0.1",53,"domain","192.168.0.19",16004,"","UDP",1,76,"  "
10022,"com.google.android.syncadapters.bookmarks","155.99.89.217",34050,"","172.217.5.78",443,"https","TCP",12,1787,"Mountain View California US"
-1,"","155.99.89.217",5115,"","163.172.88.109",5060,"sip","ICMP",1,462,"  FR"
0,"","155.99.89.217",33166,"","155.97.136.200",53,"domain","UDP",1,66,"Salt Lake City Utah US"
10144,"com.android.chrome","216.58.193.195",443,"https","155.99.89.217",56460,"","TCP",27,19962,"Mountain View California US"
0,"","155.97.136.200",53,"domain","155.99.89.217",11288,"","UDP",1,253,"Salt Lake City Utah US"
0,"","192.168.29.1",53,"domain","192.168.29.102",40455,"","UDP",1,117,"  "
10022,"com.google.android.syncadapters.bookmarks","192.168.0.19",46048,"","172.217.4.170",443,"https","TCP",12,1691,"  "
0,"","155.97.136.200",53,"domain","155.99.89.217",62418,"","UDP",1,257,"Salt Lake City Utah US"
0,"","155.99.89.217",42200,"","155.97.136.200",53,"domain","UDP",1,63,"Salt Lake City Utah US"
10114,"com.google.android.videos","155.99.89.217",51842,"","140.197.248.101",443,"https","TCP",22,2797,"Salt Lake City Utah US"
10001,"com.tmobile.pr.mytmobile","192.168.0.19",36653,"","65.52.232.150",443,"https","TCP",3,180,"  "
0,"","155.97.136.200",53,"domain","155.99.89.217",4711,"","UDP",1,226,"Salt Lake City Utah US"
10144,"com.android.chrome","155.99.89.217",60787,"","216.58.217.194",443,"https","TCP",11,1040,"Mountain View California US"
-1,"","155.99.168.3",67,"bootps","155.99.169.255",68,"bootpc","UDP",1,328,"  "
0,"","155.99.89.217",19487,"","155.97.136.200",53,"domain","UDP",1,56,"Salt Lake City Utah US"
10144,"com.android.chrome","151.101.69.140",443,"https","192.168.0.19",45681,"","TCP",15,4884,"  "
1000,"","192.168.0.19",43939,"","216.58.217.46",80,"http","TCP",1,64,"  "
0,"","192.168.0.1",53,"domain","192.168.0.19",59639,"","UDP",1,121,"  "
10114,"com.google.android.videos","155.99.89.217",46418,"","140.197.248.112",443,"https","TCP",33,5340,"Salt Lake City Utah US"
0,"","155.99.89.217",37715,"","155.97.136.200",53,"domain","UDP",1,59,"Salt Lake City Utah US"
0,"","155.97.136.200",53,"domain","155.99.89.217",50986,"","UDP",1,247,"Salt Lake City Utah US"
10144,"com.android.chrome","192.168.0.19",59963,"","172.217.4.174",443,"https","TCP",13,1142,"  "
0,"","192.168.0.1",53,"domain","192.168.0.19",7493,"","UDP",1,131,"  "
0,"","155.97.136.200",53,"domain","155.99.169.255",33027,"","UDP",1,245,"Salt Lake City Utah US"
10144,"com.android.chrome","155.99.89.217",49577,"","140.197.248.95",443,"https","TCP",14,1220,"Salt Lake City Utah US"
10114,"com.google.android.videos","192.168.0.19",54248,"","216.58.217.46",443,"https","TCP",11,2150,"  "
10144,"com.android.chrome","151.101.69.140",443,"https","192.168.0.19",45715,"","TCP",5,4130,"  "
0,"","192.168.0.19",34543,"","192.168.0.1",53,"domain","UDP",1,63,"  "
10114,"com.google.android.videos","192.168.0.19",54368,"","216.58.217.46",443,"https","TCP",25,4808,"  "
0,"","192.168.0.1",53,"domain","192.168.0.19",16684,"","UDP",1,107,"  "
10144,"com.android.chrome","140.197.248.102",443,"https","155.99.89.217",36929,"","UDP",43,54009,"Salt Lake City Utah US"
0,"","155.99.169.255",58038,"","155.97.136.200",53,"domain","UDP",1,65,"Salt Lake City Utah US"
10022,"com.google.android.syncadapters.bookmarks","192.168.0.19",48164,"","216.58.217.10",443,"https","TCP",13,1657,"  "
10144,"com.android.chrome","192.168.0.19",51121,"","199.96.57.6",443,"https","TCP",6,888,"  "
10144,"com.android.chrome","151.101.69.140",443,"https","155.99.89.217",56268,"","TCP",450,654637,"San Francisco California US"
10144,"com.android.chrome","192.168.0.19",44311,"","216.58.193.100",443,"https","TCP",17,1486,"  "
10114,"com.google.android.videos","140.197.248.80",443,"https","155.99.89.217",45730,"","TCP",20,13832,"Salt Lake City Utah US"
10001,"com.tmobile.pr.mytmobile","155.99.169.255",41793,"","52.84.246.245",80,"http","TCP",6,468,"Seattle Washington US"
10022,"com.google.android.syncadapters.bookmarks","216.58.217.10",443,"https","192.168.0.19",48164,"","TCP",9,5075,"  "
10022,"com.google.android.syncadapters.bookmarks","216.58.193.206",443,"https","155.99.89.217",37732,"","TCP",11,1740,"Mountain View California US"
10144,"com.android.chrome","199.59.149.201",443,"https","155.99.89.217",51371,"","TCP",11,4517,"San Francisco California US"
0,"","192.168.0.1",53,"domain","192.168.0.19",62601,"","UDP",1,107,"  "
0,"","192.168.0.1",53,"domain","192.168.0.19",54065,"","UDP",1,76,"  "
10144,"com.android.chrome","151.101.69.140",443,"https","192.168.0.19",45671,"","TCP",5,4114,"  "
10144,"com.android.chrome","155.99.89.217",44513,"","140.197.248.102",443,"https","TCP",247,14303,"Salt Lake City Utah US"
10144,"com.android.chrome","216.58.217.46",443,"https","192.168.0.19",54347,"","TCP",13,7028,"  "
0,"","155.97.136.200",53,"domain","155.99.89.217",18059,"","UDP",1,509,"Salt Lake City Utah US"
10144,"com.android.chrome","151.101.69.140",443,"https","192.168.0.19",45713,"","TCP",5,4130,"  "
0,"","155.97.136.200",53,"domain","155.99.89.217",3391,"savant","UDP",1,483,"Salt Lake City Utah US"
10144,"com.android.chrome","216.58.217.46",443,"https","192.168.0.19",54316,"","TCP",10,6817,"  "
0,"","192.168.0.1",53,"domain","192.168.0.19",5692,"","UDP",1,79,"  "
1000,"","155.99.89.217",46948,"","140.197.248.84",80,"http","TCP",1,52,"Salt Lake City Utah US"
0,"","192.168.0.1",53,"domain","192.168.0.19",29988,"","UDP",1,146,"  "
10022,"com.google.android.syncadapters.bookmarks","192.168.0.19",48232,"","216.58.217.10",443,"https","TCP",13,1657,"  "
10144,"com.android.chrome","192.168.0.19",45672,"","151.101.69.140",443,"https","TCP",10,864,"  "
10022,"com.google.android.syncadapters.bookmarks","155.99.169.255",49319,"","216.58.216.42",443,"https","TCP",14,2364,"Mountain View California US"
0,"","192.168.0.19",33237,"","192.168.0.1",53,"domain","UDP",1,64,"  "
10144,"com.android.chrome","140.197.248.90",443,"https","155.99.89.217",59637,"","TCP",12,5613,"Salt Lake City Utah US"
10144,"com.android.chrome","72.21.91.70",443,"https","155.99.89.217",51510,"","TCP",8,4805,"  US"
10001,"com.tmobile.pr.mytmobile","192.168.0.19",36761,"","65.52.232.150",443,"https","TCP",3,180,"  "
0,"","192.168.0.1",53,"domain","192.168.0.19",18010,"","UDP",1,115,"  "
10144,"com.android.chrome","140.197.248.102",443,"https","155.99.89.217",44514,"","TCP",9,5078,"Salt Lake City Utah US"
10001,"com.tmobile.pr.mytmobile","52.84.246.245",80,"http","155.99.169.255",41794,"crestron-cip","TCP",5,1749,"Seattle Washington US"
10144,"com.android.chrome","151.101.69.140",443,"https","192.168.0.19",45711,"","TCP",5,4114,"  "
10022,"com.google.android.syncadapters.bookmarks","155.99.89.217",50578,"","216.58.217.202",443,"https","TCP",15,1773,"Mountain View California US"
10144,"com.android.chrome","52.35.19.240",443,"https","192.168.0.19",60552,"","TCP",8,3627,"  "
0,"","192.168.0.19",22261,"","192.168.0.1",53,"domain","UDP",1,53,"  "
0,"","192.168.0.19",58500,"","192.168.0.1",53,"domain","UDP",1,65,"  "
10144,"com.android.chrome","192.168.0.19",45708,"","151.101.69.140",443,"https","TCP",9,800,"  "
-1,"","216.58.217.46",80,"http","192.168.0.19",43939,"","TCP",2,104,"  "
10144,"com.android.chrome","151.101.69.140",443,"https","192.168.0.19",45707,"","TCP",5,4130,"  "
-1,"","155.99.89.217",666,"doom","181.174.61.131",55733,"","TCP",1,40,"Bucaramanga Departamento de Santander CO"
10001,"com.tmobile.pr.mytmobile","192.168.0.19",38007,"","52.85.83.68",80,"http","TCP",7,522,"  "
0,"","192.168.0.19",34759,"","192.168.0.1",53,"domain","UDP",1,58,"  "
10144,"com.android.chrome","172.217.3.196",443,"https","192.168.0.19",51207,"","UDP",841,989869,"  "
10001,"com.tmobile.pr.mytmobile","155.99.89.217",56264,"","65.52.232.150",443,"https","TCP",3,180,"Chicago Illinois US"
0,"","192.168.0.19",57449,"","192.168.0.1",53,"domain","UDP",1,63,"  "
10144,"com.android.chrome","151.101.69.140",443,"https","192.168.0.19",45673,"","TCP",5,4130,"  "
0,"","192.168.0.19",7493,"","192.168.0.1",53,"domain","UDP",1,65,"  "
10144,"com.android.chrome","155.99.89.217",27293,"","155.97.136.200",53,"domain","UDP",1,57,"Salt Lake City Utah US"
10045,"com.carrieriq.tmobile","192.168.0.19",49828,"","192.168.0.1",53,"domain","UDP",1,64,"  "
10022,"com.google.android.syncadapters.bookmarks","216.58.193.202",443,"https","155.99.89.217",46445,"","TCP",13,5757,"Mountain View California US"
10144,"com.android.chrome","54.148.176.238",443,"https","155.99.89.217",36718,"","TCP",8,3627,"Boardman Oregon US"
0,"","192.168.0.19",18797,"","192.168.0.1",53,"domain","UDP",1,61,"  "
0,"","192.168.0.19",12792,"","192.168.0.1",53,"domain","UDP",1,60,"  "
0,"","155.99.89.217",57712,"","155.97.136.200",53,"domain","UDP",1,65,"Salt Lake City Utah US"
0,"","155.99.169.255",60646,"","155.97.136.200",53,"domain","UDP",1,63,"Salt Lake City Utah US"
10114,"com.google.android.videos","140.197.248.112",443,"https","155.99.89.217",46418,"","TCP",31,17850,"Salt Lake City Utah US"
0,"","192.168.0.19",47182,"","192.168.0.1",53,"domain","UDP",1,70,"  "
0,"","192.168.0.1",53,"domain","192.168.0.19",22716,"","UDP",1,114,"  "
-1,"","155.99.169.255",67,"bootps","155.99.168.3",68,"bootpc","ICMP",1,356,"  "
10144,"com.android.chrome","192.168.0.1",53,"domain","192.168.0.19",42836,"","UDP",1,128,"  "
10144,"com.android.chrome","192.168.0.19",49287,"","216.58.217.35",443,"https","TCP",12,1933,"  "
0,"","192.168.0.1",53,"domain","192.168.0.19",14908,"","UDP",1,130,"  "
0,"","192.168.0.19",8505,"","192.168.0.1",53,"domain","UDP",1,63,"  "
10144,"com.android.chrome","192.168.0.19",59500,"","54.175.69.3",443,"https","TCP",12,932,"  "
10144,"com.android.chrome","155.99.89.217",38514,"","104.82.45.95",443,"https","TCP",17,2930,"Cambridge Massachusetts US"
0,"","192.168.0.19",18811,"","192.168.0.1",53,"domain","UDP",1,73,"  "
0,"","155.99.89.217",63850,"","155.97.136.200",53,"domain","UDP",1,70,"Salt Lake City Utah US"
0,"","192.168.0.1",53,"domain","192.168.0.19",32864,"","UDP",1,127,"  "
10112,"com.google.android.googlequicksearchbox","155.99.169.255",45938,"","140.197.248.123",443,"https","TCP",9,1320,"Salt Lake City Utah US"
0,"","155.97.136.200",53,"domain","155.99.89.217",30903,"","UDP",1,339,"Salt Lake City Utah US"
10144,"com.android.chrome","192.168.0.19",45704,"","151.101.69.140",443,"https","TCP",9,807,"  "
10144,"com.android.chrome","216.58.217.46",443,"https","192.168.0.19",54300,"","TCP",20,6485,"  "
10144,"com.android.chrome","192.168.0.19",45669,"","151.101.69.140",443,"https","TCP",9,800,"  "
10144,"com.android.chrome","216.58.217.194",443,"https","155.99.89.217",55312,"","UDP",9,5284,"Mountain View California US"
0,"","192.168.0.19",62271,"","192.168.0.1",53,"domain","UDP",1,63,"  "
0,"","192.168.0.1",53,"domain","192.168.0.19",64874,"","UDP",1,130,"  "
10114,"com.google.android.videos","192.168.0.19",54250,"","216.58.217.46",443,"https","TCP",11,2150,"  "
10022,"com.google.android.syncadapters.bookmarks","155.99.169.255",60642,"","216.58.219.46",443,"https","TCP",13,1853,"Mountain View California US"
0,"","192.168.0.1",53,"domain","192.168.0.19",58500,"","UDP",1,105,"  "
0,"","155.99.89.217",7041,"","155.97.136.200",53,"domain","UDP",1,68,"Salt Lake City Utah US"
0,"","155.99.89.217",18603,"","155.97.136.200",53,"domain","UDP",1,65,"Salt Lake City Utah US"
10144,"com.android.chrome","151.101.69.140",443,"https","192.168.0.19",45683,"","TCP",44,39395,"  "
0,"","192.168.0.1",53,"domain","192.168.0.19",48566,"","UDP",1,130,"  "
10045,"com.carrieriq.tmobile","192.168.0.1",53,"domain","192.168.0.19",58374,"","UDP",1,130,"  "
10144,"com.android.chrome","192.168.0.19",53549,"","216.58.217.33",443,"https","TCP",24,2257,"  "
10022,"com.google.android.syncadapters.bookmarks","192.168.0.19",48285,"","216.58.217.10",443,"https","TCP",59,4360,"  "
10144,"com.android.chrome","192.168.0.19",45701,"","151.101.69.140",443,"https","TCP",9,807,"  "
10144,"com.android.chrome","155.99.89.217",9306,"","155.97.136.200",53,"domain","UDP",1,56,"Salt Lake City Utah US"
10144,"com.android.chrome","192.168.0.19",36881,"","199.16.156.52",443,"https","TCP",13,1026,"  "
10144,"com.android.chrome","140.197.248.113",443,"https","155.99.89.217",58193,"","UDP",8,7085,"Salt Lake City Utah US"
10022,"com.google.android.syncadapters.bookmarks","192.168.0.19",54266,"","216.58.217.46",443,"https","TCP",12,1793,"  "
0,"","192.168.0.1",53,"domain","192.168.0.19",40317,"","UDP",1,77,"  "
0,"","192.168.29.102",1851,"ctcd","192.168.29.1",53,"domain","UDP",1,65,"  "
