uID,"AppName","OriginIP",OriginPort,"OriginPortName","DestinationIP",DestinationPort,"DestPortName","Protocol",TotalPackets,TotalBytes,"RemoteCity","RemoteRegion","RemoteCountry",Latitude,Longitude
0,"root","155.97.136.200",53,"domain","128.110.65.254",45024,"","UDP",1,314,"Salt Lake City","Utah","US",40.7855,-111.7367
10162,"com.testbot","128.110.65.254",54127,"","192.168.0.1",42,"nameserver","TCP",1,60,"","","",,
10161,"com.kingouser.com","149.56.19.76",8090,"","128.110.65.254",37205,"","TCP",2,84,"Montreal","Quebec","CA",45.5000,-73.5833
10161,"com.kingouser.com","128.110.65.254",37227,"","149.56.19.76",8090,"","TCP",4,240,"Montreal","Quebec","CA",45.5000,-73.5833
10161,"com.kingouser.com","128.110.65.254",37225,"","149.56.19.76",8090,"","TCP",8,558,"Montreal","Quebec","CA",45.5000,-73.5833
10161,"com.kingouser.com","149.56.19.76",8090,"","128.110.65.254",37207,"","TCP",1,40,"Montreal","Quebec","CA",45.5000,-73.5833
10018,"com.google.android.syncadapters.bookmarks","128.110.65.254",42460,"","216.58.193.202",443,"https","TCP",5,5304,"Mountain View","California","US",37.4192,-122.0574
10018,"com.google.android.syncadapters.bookmarks","216.58.217.202",443,"https","128.110.65.254",53228,"","TCP",11,5065,"Mountain View","California","US",37.4192,-122.0574
10137,"com.instagram.android","128.110.65.254",55240,"","31.13.70.3",443,"https","TCP",4,346,"Los Angeles","California","US",34.0544,-118.2440
10018,"com.google.android.syncadapters.bookmarks","128.110.65.254",34484,"","216.58.217.8",443,"https","TCP",7,1440,"Mountain View","California","US",37.4192,-122.0574
10162,"com.testbot","128.110.65.254",60096,"","192.168.0.1",5000,"commplex-main","TCP",1,60,"","","",,
0,"root","128.110.65.254",16013,"","155.97.136.200",53,"domain","UDP",1,64,"Salt Lake City","Utah","US",40.7855,-111.7367
10161,"com.kingouser.com","104.20.26.56",80,"http","128.110.65.254",38848,"","TCP",8,6912,"San Francisco","California","US",37.7697,-122.3933
10162,"com.testbot","128.110.65.254",38920,"","192.168.0.1",3306,"mysql","TCP",1,60,"","","",,
10162,"com.testbot","128.110.65.254",41627,"","192.168.0.1",80,"http","TCP",1,60,"","","",,
10162,"com.testbot","128.110.65.254",47271,"","192.168.0.1",1433,"ms-sql-s","TCP",1,60,"","","",,
10162,"com.testbot","128.110.65.254",8979,"","155.97.136.200",53,"domain","UDP",1,64,"Salt Lake City","Utah","US",40.7855,-111.7367
0,"root","155.97.136.200",53,"domain","128.110.65.254",16013,"","UDP",1,139,"Salt Lake City","Utah","US",40.7855,-111.7367
10162,"com.testbot","128.110.65.254",58586,"","192.168.0.1",443,"https","TCP",1,60,"","","",,
10161,"com.kingouser.com","149.56.19.76",8090,"","128.110.65.254",37206,"","TCP",2,84,"Montreal","Quebec","CA",45.5000,-73.5833
0,"root","155.97.136.200",53,"domain","128.110.65.254",48999,"","UDP",1,266,"Salt Lake City","Utah","US",40.7855,-111.7367
10162,"com.testbot","128.110.65.254",57325,"","192.168.0.1",6129,"","TCP",1,60,"","","",,
10162,"com.testbot","128.110.65.254",60945,"","140.197.248.110",80,"http","TCP",24,1466,"Salt Lake City","Utah","US",40.6247,-111.7123
10018,"com.google.android.syncadapters.bookmarks","216.58.217.8",443,"https","128.110.65.254",34484,"","TCP",6,869,"Mountain View","California","US",37.4192,-122.0574
0,"root","128.110.65.254",45024,"","155.97.136.200",53,"domain","UDP",1,64,"Salt Lake City","Utah","US",40.7855,-111.7367
0,"root","128.110.65.254",48361,"","155.97.136.200",53,"domain","UDP",1,62,"Salt Lake City","Utah","US",40.7855,-111.7367
10018,"com.google.android.syncadapters.bookmarks","128.110.65.254",33708,"","216.58.217.8",443,"https","TCP",9,4716,"Mountain View","California","US",37.4192,-122.0574
10162,"com.testbot","140.197.248.110",80,"http","128.110.65.254",60945,"","TCP",23,28342,"Salt Lake City","Utah","US",40.6247,-111.7123
10094,"com.accuweather.android","104.126.136.12",80,"http","128.110.65.254",56409,"","TCP",15,13160,"Cambridge","Massachusetts","US",42.3626,-71.0843
10162,"com.testbot","128.110.65.254",52207,"","192.168.0.1",3410,"networklenss","TCP",1,60,"","","",,
10162,"com.testbot","128.110.65.254",60340,"","192.168.0.1",81,"","TCP",1,60,"","","",,
10018,"com.google.android.syncadapters.bookmarks","173.194.203.188",5228,"","128.110.65.254",53361,"","TCP",2,116,"Mountain View","California","US",37.4192,-122.0574
10162,"com.testbot","128.110.65.254",38188,"","192.168.0.1",1025,"blackjack","TCP",1,60,"","","",,
10018,"com.google.android.syncadapters.bookmarks","128.110.65.254",53228,"","216.58.217.202",443,"https","TCP",13,6041,"Mountain View","California","US",37.4192,-122.0574
0,"root","128.110.65.254",44993,"","155.97.136.200",53,"domain","UDP",1,60,"Salt Lake City","Utah","US",40.7855,-111.7367
10162,"com.testbot","128.110.65.254",41630,"","192.168.0.1",80,"http","TCP",1,60,"","","",,
10161,"com.kingouser.com","149.56.19.76",8090,"","128.110.65.254",37225,"","TCP",2,84,"Montreal","Quebec","CA",45.5000,-73.5833
-1,"kernel","128.110.65.254",48110,"","119.147.146.168",80,"http","TCP",4,160,"Guangzhou","Guangdong","CN",23.1167,113.2500
10162,"com.testbot","128.110.65.254",59355,"","192.168.0.1",2745,"urbisnet","TCP",1,60,"","","",,
0,"root","155.97.136.200",53,"domain","128.110.65.254",48361,"","UDP",1,217,"Salt Lake City","Utah","US",40.7855,-111.7367
10161,"com.kingouser.com","128.110.65.254",37207,"","149.56.19.76",8090,"","TCP",1,60,"Montreal","Quebec","CA",45.5000,-73.5833
10094,"com.accuweather.android","128.110.65.254",56409,"","104.126.136.12",80,"http","TCP",15,2266,"Cambridge","Massachusetts","US",42.3626,-71.0843
0,"root","155.97.136.200",53,"domain","128.110.65.254",18425,"","UDP",1,233,"Salt Lake City","Utah","US",40.7855,-111.7367
10161,"com.kingouser.com","128.110.65.254",37206,"","149.56.19.76",8090,"","TCP",8,653,"Montreal","Quebec","CA",45.5000,-73.5833
10018,"com.google.android.syncadapters.bookmarks","128.110.65.254",53361,"","173.194.203.188",5228,"","TCP",2,290,"Mountain View","California","US",37.4192,-122.0574
0,"root","155.97.136.200",53,"domain","128.110.65.254",44993,"","UDP",1,452,"Salt Lake City","Utah","US",40.7855,-111.7367
0,"root","128.110.65.254",18425,"","155.97.136.200",53,"domain","UDP",1,62,"Salt Lake City","Utah","US",40.7855,-111.7367
10161,"com.kingouser.com","128.110.65.254",37205,"","149.56.19.76",8090,"","TCP",3,353,"Montreal","Quebec","CA",45.5000,-73.5833
0,"root","128.110.65.254",48999,"","155.97.136.200",53,"domain","UDP",1,70,"Salt Lake City","Utah","US",40.7855,-111.7367
10162,"com.testbot","128.110.65.254",52730,"","192.168.0.1",903,"ideafarm-panic","TCP",1,60,"","","",,
10162,"com.testbot","128.110.65.254",49795,"","192.168.0.1",3127,"ctx-bridge","TCP",1,60,"","","",,
10018,"com.google.android.syncadapters.bookmarks","216.58.193.202",443,"https","128.110.65.254",42460,"","TCP",3,120,"Mountain View","California","US",37.4192,-122.0574
10161,"com.kingouser.com","128.110.65.254",38848,"","104.20.26.56",80,"http","TCP",10,667,"San Francisco","California","US",37.7697,-122.3933
10137,"com.instagram.android","31.13.70.3",443,"https","128.110.65.254",55240,"","TCP",2,178,"Los Angeles","California","US",34.0544,-118.2440
10162,"com.testbot","155.97.136.200",53,"domain","128.110.65.254",8979,"","UDP",1,139,"Salt Lake City","Utah","US",40.7855,-111.7367
