uID,"OriginIP",OriginPort,"OriginPortName","DestinationIP",DestinationPort,"DestPortName","Protocol",TotalPackets,TotalBytes,"RemoteCity","RemoteRegion","RemoteCountry"
10144,"216.58.217.46",443,"tba","192.168.0.19",54352,"tba","TCP",12,6992,"Mountain View","California","US"
10144,"216.58.192.14",443,"tba","192.168.0.19",57233,"tba","TCP",20,6780,"Mountain View","California","US"
10144,"192.168.0.19",45674,"tba","151.101.69.140",443,"tba","TCP",9,803,"San Francisco","California","US"
0,"192.168.0.19",8133,"tba","192.168.0.1",53,"tba","UDP",1,63,"","",""
10144,"54.175.69.3",443,"tba","192.168.0.19",59500,"tba","TCP",9,5401,"Ashburn","Virginia","US"
0,"192.168.0.19",29955,"tba","192.168.0.1",53,"tba","UDP",1,70,"","",""
10022,"192.168.0.19",54230,"tba","216.58.217.46",443,"tba","TCP",15,1877,"Mountain View","California","US"
0,"192.168.0.1",53,"tba","192.168.0.19",64372,"tba","UDP",1,130,"","",""
10022,"192.168.0.19",48195,"tba","216.58.217.10",443,"tba","TCP",12,2192,"Mountain View","California","US"
10152,"216.58.217.49",443,"tba","192.168.0.19",36971,"tba","TCP",10,4547,"Mountain View","California","US"
10022,"216.58.217.10",443,"tba","192.168.0.19",48196,"tba","TCP",8,2537,"Mountain View","California","US"
10144,"192.168.0.19",45661,"tba","151.101.69.140",443,"tba","TCP",9,807,"San Francisco","California","US"
10144,"192.168.0.19",60135,"tba","72.21.91.70",443,"tba","TCP",9,796,"","","US"
10022,"216.58.217.46",443,"tba","192.168.0.19",54356,"tba","TCP",10,1333,"Mountain View","California","US"
10144,"151.101.69.140",443,"tba","192.168.0.19",45718,"tba","TCP",3,172,"San Francisco","California","US"
0,"192.168.0.1",53,"tba","192.168.0.19",27483,"tba","UDP",1,131,"","",""
10067,"192.168.0.19",48288,"tba","216.58.217.10",443,"tba","TCP",16,2960,"Mountain View","California","US"
10144,"151.101.69.140",443,"tba","192.168.0.19",45661,"tba","TCP",5,4130,"San Francisco","California","US"
10144,"192.168.0.19",45668,"tba","151.101.69.140",443,"tba","TCP",9,802,"San Francisco","California","US"
0,"192.168.0.19",64874,"tba","192.168.0.1",53,"tba","UDP",1,64,"","",""
10144,"192.168.0.19",45703,"tba","151.101.69.140",443,"tba","TCP",9,807,"San Francisco","California","US"
10152,"216.58.217.49",443,"tba","192.168.0.19",36970,"tba","TCP",18,7512,"Mountain View","California","US"
10152,"216.58.217.49",443,"tba","192.168.0.19",24716,"tba","UDP",9,9436,"Mountain View","California","US"
10001,"192.168.0.19",38006,"tba","52.85.83.68",80,"tba","TCP",6,468,"Seattle","Washington","US"
10144,"199.96.57.6",443,"tba","192.168.0.19",51089,"tba","TCP",9,4772,"San Francisco","California","US"
10144,"192.168.0.19",54300,"tba","216.58.217.46",443,"tba","TCP",19,1738,"Mountain View","California","US"
10114,"216.58.217.46",443,"tba","192.168.0.19",54248,"tba","TCP",9,1281,"Mountain View","California","US"
0,"192.168.0.1",53,"tba","192.168.0.19",52393,"tba","UDP",1,105,"","",""
10144,"151.101.69.140",443,"tba","192.168.0.19",45704,"tba","TCP",5,4130,"San Francisco","California","US"
10144,"192.168.0.19",45665,"tba","151.101.69.140",443,"tba","TCP",9,807,"San Francisco","California","US"
10022,"192.168.0.19",58819,"tba","216.58.217.42",443,"tba","TCP",10,1761,"Mountain View","California","US"
10144,"192.168.0.19",45712,"tba","151.101.69.140",443,"tba","TCP",9,797,"San Francisco","California","US"
0,"192.168.0.19",1729,"tba","192.168.0.1",53,"tba","UDP",1,63,"","",""
0,"192.168.0.1",53,"tba","192.168.0.19",46703,"tba","UDP",1,76,"","",""
10144,"151.101.69.140",443,"tba","192.168.0.19",45666,"tba","TCP",5,4114,"San Francisco","California","US"
10144,"52.40.110.82",443,"tba","192.168.0.19",60933,"tba","TCP",8,3627,"Boardman","Oregon","US"
10144,"192.168.0.19",60935,"tba","52.40.110.82",443,"tba","TCP",11,885,"Boardman","Oregon","US"
10022,"192.168.0.19",37360,"tba","216.58.195.78",443,"tba","TCP",12,1745,"Mountain View","California","US"
10152,"192.168.0.19",36975,"tba","216.58.217.49",443,"tba","TCP",11,1718,"Mountain View","California","US"
10144,"151.101.69.140",443,"tba","192.168.0.19",45659,"tba","TCP",5,4130,"San Francisco","California","US"
0,"192.168.0.1",53,"tba","192.168.0.19",56368,"tba","UDP",1,108,"","",""
10144,"192.168.0.19",58807,"tba","216.58.217.42",443,"tba","TCP",22,1898,"Mountain View","California","US"
10144,"151.101.69.140",443,"tba","192.168.0.19",45669,"tba","TCP",5,4114,"San Francisco","California","US"
10022,"216.58.217.46",443,"tba","192.168.0.19",54230,"tba","TCP",11,5518,"Mountain View","California","US"
0,"192.168.0.19",27644,"tba","192.168.0.1",53,"tba","UDP",1,64,"","",""
0,"192.168.0.19",41040,"tba","192.168.0.1",53,"tba","UDP",1,59,"","",""
10114,"216.58.217.46",443,"tba","192.168.0.19",54232,"tba","TCP",17,7313,"Mountain View","California","US"
10022,"216.58.217.46",443,"tba","192.168.0.19",54227,"tba","TCP",11,5689,"Mountain View","California","US"
10022,"216.58.217.10",443,"tba","192.168.0.19",48232,"tba","TCP",10,6761,"Mountain View","California","US"
10144,"192.168.0.19",39363,"tba","216.58.217.33",443,"tba","UDP",91,9897,"Mountain View","California","US"
10144,"192.168.0.19",59393,"tba","216.58.193.100",443,"tba","UDP",4,1897,"Mountain View","California","US"
0,"192.168.0.19",6462,"tba","192.168.0.1",53,"tba","UDP",1,64,"","",""
0,"192.168.0.19",56368,"tba","192.168.0.1",53,"tba","UDP",1,66,"","",""
10144,"192.168.0.19",35683,"tba","172.217.3.195",443,"tba","TCP",46,3387,"Mountain View","California","US"
10022,"216.58.217.42",443,"tba","192.168.0.19",58819,"tba","TCP",8,980,"Mountain View","California","US"
10144,"192.168.0.19",45718,"tba","151.101.69.140",443,"tba","TCP",5,280,"San Francisco","California","US"
0,"192.168.0.1",53,"tba","192.168.0.19",34759,"tba","UDP",1,109,"","",""
10144,"192.168.0.19",60552,"tba","52.35.19.240",443,"tba","TCP",11,1199,"Boardman","Oregon","US"
0,"192.168.0.19",29685,"tba","192.168.0.1",53,"tba","UDP",1,65,"","",""
10144,"216.58.193.100",443,"tba","192.168.0.19",44311,"tba","TCP",14,5106,"Mountain View","California","US"
-1,"192.168.0.1",0,"tba","224.0.0.1",0,"tba","2",140,5040,"","",""
10022,"216.58.217.10",443,"tba","192.168.0.19",48286,"tba","TCP",17,9584,"Mountain View","California","US"
10022,"216.58.217.42",443,"tba","192.168.0.19",58796,"tba","TCP",10,5072,"Mountain View","California","US"
10114,"216.58.217.46",443,"tba","192.168.0.19",54245,"tba","TCP",8,1229,"Mountain View","California","US"
10022,"192.168.0.19",54356,"tba","216.58.217.46",443,"tba","TCP",10,1355,"Mountain View","California","US"
0,"192.168.0.1",53,"tba","192.168.0.19",29685,"tba","UDP",1,131,"","",""
10001,"192.168.0.19",36658,"tba","65.52.232.150",443,"tba","TCP",3,180,"Chicago","Illinois","US"
10144,"216.58.217.34",443,"tba","192.168.0.19",53945,"tba","TCP",9,4836,"Mountain View","California","US"
10022,"216.58.217.42",443,"tba","192.168.0.19",58792,"tba","TCP",40,47620,"Mountain View","California","US"
0,"192.168.0.19",39058,"tba","192.168.0.1",53,"tba","UDP",1,66,"","",""
10144,"192.168.0.19",42836,"tba","192.168.0.1",53,"tba","UDP",1,53,"","",""
10114,"216.58.217.46",443,"tba","192.168.0.19",54246,"tba","TCP",9,1281,"Mountain View","California","US"
0,"192.168.0.19",49129,"tba","192.168.0.1",53,"tba","UDP",1,70,"","",""
0,"192.168.0.19",61710,"tba","192.168.0.1",53,"tba","UDP",1,72,"","",""
10144,"151.101.69.140",443,"tba","192.168.0.19",45670,"tba","TCP",5,4114,"San Francisco","California","US"
10144,"151.101.69.140",443,"tba","192.168.0.19",45700,"tba","TCP",5,4130,"San Francisco","California","US"
10144,"52.40.110.82",443,"tba","192.168.0.19",60953,"tba","TCP",11,4433,"Boardman","Oregon","US"
10022,"216.58.217.34",443,"tba","192.168.0.19",53863,"tba","TCP",8,5233,"Mountain View","California","US"
0,"192.168.0.19",14710,"tba","192.168.0.1",53,"tba","UDP",1,70,"","",""
10144,"172.217.4.174",443,"tba","192.168.0.19",59963,"tba","TCP",10,6833,"Mountain View","California","US"
10144,"151.101.69.140",443,"tba","192.168.0.19",45717,"tba","TCP",5,4130,"San Francisco","California","US"
10144,"151.101.69.140",443,"tba","192.168.0.19",45675,"tba","TCP",5,4130,"San Francisco","California","US"
10144,"151.101.69.140",443,"tba","192.168.0.19",45702,"tba","TCP",5,4130,"San Francisco","California","US"
10144,"192.168.0.19",53559,"tba","216.58.217.33",443,"tba","TCP",10,988,"Mountain View","California","US"
0,"192.168.0.19",4269,"tba","192.168.0.1",53,"tba","UDP",1,65,"","",""
0,"192.168.0.1",53,"tba","192.168.0.19",42205,"tba","UDP",1,86,"","",""
10152,"216.58.217.49",443,"tba","192.168.0.19",36969,"tba","TCP",13,4524,"Mountain View","California","US"
10114,"216.58.217.46",443,"tba","192.168.0.19",54223,"tba","TCP",11,5742,"Mountain View","California","US"
0,"192.168.0.1",53,"tba","192.168.0.19",20000,"tba","UDP",1,178,"","",""
0,"192.168.0.1",53,"tba","192.168.0.19",38333,"tba","UDP",1,231,"","",""
10114,"192.168.0.19",54223,"tba","216.58.217.46",443,"tba","TCP",15,1747,"Mountain View","California","US"
0,"192.168.0.1",53,"tba","192.168.0.19",6291,"tba","UDP",1,116,"","",""
0,"192.168.0.19",60145,"tba","192.168.0.1",53,"tba","UDP",1,66,"","",""
0,"192.168.0.19",35951,"tba","192.168.0.1",53,"tba","UDP",1,64,"","",""
0,"192.168.0.1",53,"tba","192.168.0.19",41040,"tba","UDP",1,212,"","",""
0,"192.168.0.19",39142,"tba","192.168.0.1",53,"tba","UDP",1,59,"","",""
0,"192.168.0.19",20000,"tba","192.168.0.1",53,"tba","UDP",1,64,"","",""
10001,"192.168.0.19",36648,"tba","65.52.232.150",443,"tba","TCP",3,180,"Chicago","Illinois","US"
0,"192.168.0.1",53,"tba","192.168.0.19",44670,"tba","UDP",1,107,"","",""
0,"192.168.0.19",27762,"tba","192.168.0.1",53,"tba","UDP",1,72,"","",""
10022,"192.168.0.19",58785,"tba","216.58.217.42",443,"tba","TCP",31,2905,"Mountain View","California","US"
0,"192.168.0.19",63241,"tba","192.168.0.1",53,"tba","UDP",1,70,"","",""
10152,"192.168.0.19",36971,"tba","216.58.217.49",443,"tba","TCP",15,3021,"Mountain View","California","US"
10144,"151.101.69.140",443,"tba","192.168.0.19",45709,"tba","TCP",5,4114,"San Francisco","California","US"
0,"192.168.0.19",6240,"tba","192.168.0.1",53,"tba","UDP",1,66,"","",""
10022,"192.168.0.19",54241,"tba","216.58.217.46",443,"tba","TCP",14,10041,"Mountain View","California","US"
10144,"216.58.217.34",443,"tba","192.168.0.19",53976,"tba","TCP",10,4922,"Mountain View","California","US"
0,"192.168.0.19",39943,"tba","192.168.0.1",53,"tba","UDP",1,60,"","",""
10112,"216.58.193.68",443,"tba","192.168.0.19",48535,"tba","TCP",9,1521,"Mountain View","California","US"
10045,"192.168.0.1",53,"tba","192.168.0.19",18909,"tba","UDP",1,130,"","",""
0,"192.168.0.1",53,"tba","192.168.0.19",57449,"tba","UDP",1,107,"","",""
10144,"192.168.0.19",53976,"tba","216.58.217.34",443,"tba","TCP",10,979,"Mountain View","California","US"
0,"192.168.0.1",53,"tba","192.168.0.19",63241,"tba","UDP",1,121,"","",""
0,"192.168.0.19",28525,"tba","192.168.0.1",53,"tba","UDP",1,76,"","",""
10045,"192.168.0.19",18909,"tba","192.168.0.1",53,"tba","UDP",1,64,"","",""
10144,"151.101.69.140",443,"tba","192.168.0.19",45660,"tba","TCP",5,4130,"San Francisco","California","US"
0,"192.168.0.19",38333,"tba","192.168.0.1",53,"tba","UDP",1,60,"","",""
10144,"192.168.0.19",57999,"tba","172.217.3.196",443,"tba","TCP",16,1446,"Mountain View","California","US"
10022,"216.58.217.10",443,"tba","192.168.0.19",48195,"tba","TCP",9,5761,"Mountain View","California","US"
10022,"216.58.217.46",443,"tba","192.168.0.19",54247,"tba","TCP",9,1470,"Mountain View","California","US"
0,"192.168.0.19",14305,"tba","192.168.0.1",53,"tba","UDP",1,67,"","",""
0,"192.168.0.1",53,"tba","192.168.0.19",17234,"tba","UDP",1,115,"","",""
0,"192.168.0.19",42205,"tba","192.168.0.1",53,"tba","UDP",1,70,"","",""
10144,"151.101.69.140",443,"tba","192.168.0.19",45667,"tba","TCP",5,4130,"San Francisco","California","US"
10144,"151.101.69.140",443,"tba","192.168.0.19",45699,"tba","TCP",5,4130,"San Francisco","California","US"
10144,"151.101.69.140",443,"tba","192.168.0.19",45668,"tba","TCP",5,4130,"San Francisco","California","US"
0,"192.168.0.1",53,"tba","192.168.0.19",31298,"tba","UDP",1,164,"","",""
10144,"192.168.0.19",53946,"tba","216.58.217.34",443,"tba","TCP",9,929,"Mountain View","California","US"
10022,"192.168.0.19",54243,"tba","216.58.217.46",443,"tba","TCP",10,1668,"Mountain View","California","US"
10144,"192.168.0.19",45710,"tba","151.101.69.140",443,"tba","TCP",9,800,"San Francisco","California","US"
10144,"72.21.91.70",443,"tba","192.168.0.19",60135,"tba","TCP",7,4753,"","","US"
10144,"192.168.0.19",57233,"tba","216.58.192.14",443,"tba","TCP",21,2673,"Mountain View","California","US"
0,"192.168.0.19",19918,"tba","192.168.0.1",53,"tba","UDP",1,68,"","",""
10144,"151.101.69.140",443,"tba","192.168.0.19",45708,"tba","TCP",5,4114,"San Francisco","California","US"
10045,"192.168.0.1",53,"tba","192.168.0.19",49828,"tba","UDP",1,130,"","",""
10022,"172.217.4.170",443,"tba","192.168.0.19",46046,"tba","TCP",10,5253,"Mountain View","California","US"
0,"192.168.0.1",53,"tba","192.168.0.19",25176,"tba","UDP",1,130,"","",""
0,"192.168.0.19",29728,"tba","192.168.0.1",53,"tba","UDP",1,63,"","",""
10144,"192.168.0.19",54347,"tba","216.58.217.46",443,"tba","TCP",14,1188,"Mountain View","California","US"
10144,"216.58.217.35",443,"tba","192.168.0.19",55572,"tba","UDP",3,2811,"Mountain View","California","US"
10144,"192.168.0.19",53947,"tba","216.58.217.34",443,"tba","TCP",9,927,"Mountain View","California","US"
10152,"216.58.217.49",443,"tba","192.168.0.19",36975,"tba","TCP",9,936,"Mountain View","California","US"
0,"192.168.0.1",53,"tba","192.168.0.19",33237,"tba","UDP",1,80,"","",""
0,"192.168.0.19",7049,"tba","192.168.0.1",53,"tba","UDP",1,74,"","",""
0,"192.168.0.1",53,"tba","192.168.0.19",18797,"tba","UDP",1,77,"","",""
10152,"192.168.0.19",24716,"tba","216.58.217.49",443,"tba","UDP",7,3248,"Mountain View","California","US"
10022,"216.58.217.10",443,"tba","192.168.0.19",48285,"tba","TCP",103,139268,"Mountain View","California","US"
0,"192.168.0.1",53,"tba","192.168.0.19",43572,"tba","UDP",1,99,"","",""
0,"192.168.0.19",60608,"tba","192.168.0.1",53,"tba","UDP",1,60,"","",""
10144,"151.101.69.140",443,"tba","192.168.0.19",45656,"tba","TCP",5,4130,"San Francisco","California","US"
10144,"199.16.156.52",443,"tba","192.168.0.19",36850,"tba","TCP",7,4232,"San Francisco","California","US"
10022,"216.58.217.46",443,"tba","192.168.0.19",54233,"tba","TCP",18,1890,"Mountain View","California","US"
10144,"192.168.0.19",45657,"tba","151.101.69.140",443,"tba","TCP",9,807,"San Francisco","California","US"
10144,"192.168.0.19",45714,"tba","151.101.69.140",443,"tba","TCP",9,802,"San Francisco","California","US"
10022,"216.58.217.46",443,"tba","192.168.0.19",54270,"tba","TCP",9,1417,"Mountain View","California","US"
10144,"192.168.0.19",54316,"tba","216.58.217.46",443,"tba","TCP",13,1124,"Mountain View","California","US"
10022,"192.168.0.19",58818,"tba","216.58.217.42",443,"tba","TCP",13,2312,"Mountain View","California","US"
0,"192.168.0.19",2483,"tba","192.168.0.1",53,"tba","UDP",1,72,"","",""
10022,"216.58.217.42",443,"tba","192.168.0.19",58825,"tba","TCP",10,4752,"Mountain View","California","US"
10144,"192.168.0.19",51089,"tba","199.96.57.6",443,"tba","TCP",10,855,"San Francisco","California","US"
10022,"192.168.0.19",58798,"tba","216.58.217.42",443,"tba","TCP",14,3545,"Mountain View","California","US"
10022,"216.58.195.78",443,"tba","192.168.0.19",37360,"tba","TCP",10,5321,"Mountain View","California","US"
10144,"192.168.0.19",45699,"tba","151.101.69.140",443,"tba","TCP",9,807,"San Francisco","California","US"
0,"192.168.0.1",53,"tba","192.168.0.19",28525,"tba","UDP",1,118,"","",""
0,"192.168.0.19",52629,"tba","192.168.0.1",53,"tba","UDP",1,64,"","",""
10022,"192.168.0.19",54270,"tba","216.58.217.46",443,"tba","TCP",10,1631,"Mountain View","California","US"
0,"192.168.0.1",53,"tba","192.168.0.19",39895,"tba","UDP",1,120,"","",""
0,"192.168.0.19",46703,"tba","192.168.0.1",53,"tba","UDP",1,60,"","",""
10144,"192.168.0.19",60105,"tba","72.21.91.70",443,"tba","TCP",10,860,"","","US"
10045,"192.168.0.1",53,"tba","192.168.0.19",63591,"tba","UDP",1,130,"","",""
10144,"151.101.69.140",443,"tba","192.168.0.19",45701,"tba","TCP",5,4130,"San Francisco","California","US"
0,"192.168.0.19",25254,"tba","192.168.0.1",53,"tba","UDP",1,64,"","",""
10144,"192.168.0.19",45716,"tba","151.101.69.140",443,"tba","TCP",9,803,"San Francisco","California","US"
0,"192.168.0.1",53,"tba","192.168.0.19",1638,"tba","UDP",1,131,"","",""
10144,"216.58.217.3",443,"tba","192.168.0.19",41635,"tba","UDP",8,7564,"Mountain View","California","US"
0,"192.168.0.1",53,"tba","192.168.0.19",25254,"tba","UDP",1,130,"","",""
10022,"192.168.0.19",58796,"tba","216.58.217.42",443,"tba","TCP",13,2344,"Mountain View","California","US"
0,"192.168.0.19",59841,"tba","192.168.0.1",53,"tba","UDP",1,65,"","",""
0,"192.168.0.1",53,"tba","192.168.0.19",7867,"tba","UDP",1,118,"","",""
10152,"192.168.0.19",36969,"tba","216.58.217.49",443,"tba","TCP",16,1290,"Mountain View","California","US"
0,"192.168.0.1",53,"tba","192.168.0.19",46489,"tba","UDP",1,117,"","",""
10144,"192.168.0.19",43350,"tba","192.168.0.1",53,"tba","UDP",1,56,"","",""
10022,"216.58.217.46",443,"tba","192.168.0.19",54275,"tba","TCP",9,1361,"Mountain View","California","US"
10144,"192.168.0.19",53975,"tba","216.58.217.34",443,"tba","TCP",12,1085,"Mountain View","California","US"
10144,"172.217.3.195",443,"tba","192.168.0.19",35683,"tba","TCP",47,44403,"Mountain View","California","US"
0,"192.168.0.19",9651,"tba","192.168.0.1",53,"tba","UDP",1,63,"","",""
10144,"151.101.69.140",443,"tba","192.168.0.19",45703,"tba","TCP",5,4130,"San Francisco","California","US"
10045,"192.168.0.1",53,"tba","192.168.0.19",56943,"tba","UDP",1,130,"","",""
0,"192.168.0.19",46489,"tba","192.168.0.1",53,"tba","UDP",1,66,"","",""
10022,"192.168.0.19",48286,"tba","216.58.217.10",443,"tba","TCP",23,13425,"Mountain View","California","US"
0,"192.168.0.19",62601,"tba","192.168.0.1",53,"tba","UDP",1,63,"","",""
10144,"192.168.0.19",45671,"tba","151.101.69.140",443,"tba","TCP",9,800,"San Francisco","California","US"
10144,"192.168.0.19",7550,"tba","192.168.0.1",53,"tba","UDP",1,55,"","",""
10001,"52.85.83.68",80,"tba","192.168.0.19",38006,"tba","TCP",4,1623,"Seattle","Washington","US"
0,"192.168.0.19",32864,"tba","192.168.0.1",53,"tba","UDP",1,71,"","",""
-1,"192.168.0.7",57621,"tba","192.168.0.255",57621,"tba","UDP",11,792,"","",""
10144,"151.101.69.140",443,"tba","192.168.0.19",45672,"tba","TCP",6,4978,"San Francisco","California","US"
0,"192.168.0.19",43421,"tba","192.168.0.1",53,"tba","UDP",1,73,"","",""
10114,"192.168.0.19",54261,"tba","216.58.217.46",443,"tba","TCP",11,2150,"Mountain View","California","US"
10144,"192.168.0.19",37230,"tba","23.73.156.235",443,"tba","TCP",10,855,"Cambridge","Massachusetts","US"
10144,"192.168.0.19",45673,"tba","151.101.69.140",443,"tba","TCP",9,803,"San Francisco","California","US"
0,"192.168.0.1",53,"tba","192.168.0.19",52629,"tba","UDP",1,130,"","",""
0,"192.168.0.1",53,"tba","192.168.0.19",15238,"tba","UDP",1,112,"","",""
10144,"199.16.156.52",443,"tba","192.168.0.19",36881,"tba","TCP",11,4517,"San Francisco","California","US"
10001,"192.168.0.19",36647,"tba","65.52.232.150",443,"tba","TCP",3,180,"Chicago","Illinois","US"
0,"192.168.0.1",53,"tba","192.168.0.19",15712,"tba","UDP",1,114,"","",""
10144,"192.168.0.19",45702,"tba","151.101.69.140",443,"tba","TCP",9,807,"San Francisco","California","US"
0,"192.168.0.1",53,"tba","192.168.0.19",14710,"tba","UDP",1,121,"","",""
0,"192.168.0.19",22716,"tba","192.168.0.1",53,"tba","UDP",1,62,"","",""
0,"192.168.0.1",53,"tba","192.168.0.19",4269,"tba","UDP",1,131,"","",""
0,"192.168.0.19",52393,"tba","192.168.0.1",53,"tba","UDP",1,65,"","",""
0,"192.168.0.1",53,"tba","192.168.0.19",59841,"tba","UDP",1,131,"","",""
0,"192.168.0.1",53,"tba","192.168.0.19",64421,"tba","UDP",1,112,"","",""
0,"192.168.0.1",53,"tba","192.168.0.19",9651,"tba","UDP",1,109,"","",""
0,"192.168.0.19",49676,"tba","192.168.0.1",53,"tba","UDP",1,60,"","",""
10144,"216.58.193.100",443,"tba","192.168.0.19",59393,"tba","UDP",4,1782,"Mountain View","California","US"
0,"192.168.0.1",53,"tba","192.168.0.19",49129,"tba","UDP",1,117,"","",""
0,"192.168.0.19",11537,"tba","192.168.0.1",53,"tba","UDP",1,60,"","",""
0,"192.168.0.1",53,"tba","192.168.0.19",35656,"tba","UDP",1,112,"","",""
10144,"172.217.3.196",443,"tba","192.168.0.19",57999,"tba","TCP",15,5158,"Mountain View","California","US"
0,"192.168.0.1",53,"tba","192.168.0.19",63132,"tba","UDP",1,107,"","",""
10144,"192.168.0.19",46188,"tba","172.217.3.195",443,"tba","UDP",92,9854,"Mountain View","California","US"
0,"192.168.0.1",53,"tba","192.168.0.19",34543,"tba","UDP",1,114,"","",""
0,"192.168.0.19",17234,"tba","192.168.0.1",53,"tba","UDP",1,63,"","",""
0,"192.168.0.1",53,"tba","192.168.0.19",27762,"tba","UDP",1,112,"","",""
10144,"216.58.217.33",443,"tba","192.168.0.19",53559,"tba","TCP",9,4833,"Mountain View","California","US"
10022,"192.168.0.19",46047,"tba","172.217.4.170",443,"tba","TCP",11,1863,"Mountain View","California","US"
0,"192.168.0.1",53,"tba","192.168.0.19",8133,"tba","UDP",1,107,"","",""
0,"192.168.0.19",25176,"tba","192.168.0.1",53,"tba","UDP",1,64,"","",""
10022,"216.58.217.42",443,"tba","192.168.0.19",58794,"tba","TCP",44,52298,"Mountain View","California","US"
10022,"192.168.0.19",58826,"tba","216.58.217.42",443,"tba","TCP",10,1980,"Mountain View","California","US"
0,"192.168.0.1",53,"tba","192.168.0.19",19918,"tba","UDP",1,164,"","",""
10114,"192.168.0.19",54232,"tba","216.58.217.46",443,"tba","TCP",22,4023,"Mountain View","California","US"
10144,"192.168.0.19",36850,"tba","199.16.156.52",443,"tba","TCP",10,858,"San Francisco","California","US"
0,"192.168.0.19",15165,"tba","192.168.0.1",53,"tba","UDP",1,72,"","",""
0,"192.168.0.19",5692,"tba","192.168.0.1",53,"tba","UDP",1,63,"","",""
0,"192.168.0.19",54065,"tba","192.168.0.1",53,"tba","UDP",1,60,"","",""
0,"192.168.0.19",16004,"tba","192.168.0.1",53,"tba","UDP",1,60,"","",""
10001,"52.85.83.68",80,"tba","192.168.0.19",38007,"tba","TCP",5,1749,"Seattle","Washington","US"
0,"192.168.0.1",53,"tba","192.168.0.19",18752,"tba","UDP",1,84,"","",""
10144,"216.58.217.34",443,"tba","192.168.0.19",53975,"tba","TCP",10,4909,"Mountain View","California","US"
0,"192.168.0.19",7867,"tba","192.168.0.1",53,"tba","UDP",1,66,"","",""
0,"192.168.0.19",15712,"tba","192.168.0.1",53,"tba","UDP",1,63,"","",""
10144,"216.58.217.34",443,"tba","192.168.0.19",53946,"tba","TCP",8,4750,"Mountain View","California","US"
10022,"192.168.0.19",33669,"tba","74.125.202.188",5228,"tba","TCP",45,3918,"Mountain View","California","US"
0,"192.168.0.1",53,"tba","192.168.0.19",39058,"tba","UDP",1,117,"","",""
10045,"192.168.0.19",56943,"tba","192.168.0.1",53,"tba","UDP",1,64,"","",""
10144,"192.168.0.19",45658,"tba","151.101.69.140",443,"tba","TCP",9,807,"San Francisco","California","US"
0,"192.168.0.19",35656,"tba","192.168.0.1",53,"tba","UDP",1,72,"","",""
0,"192.168.0.1",53,"tba","192.168.0.19",49676,"tba","UDP",1,111,"","",""
0,"192.168.0.1",53,"tba","192.168.0.19",27644,"tba","UDP",1,130,"","",""
10144,"192.168.0.19",45656,"tba","151.101.69.140",443,"tba","TCP",9,807,"San Francisco","California","US"
0,"192.168.0.19",53055,"tba","192.168.0.1",53,"tba","UDP",1,55,"","",""
10022,"216.58.217.42",443,"tba","192.168.0.19",58793,"tba","TCP",12,5309,"Mountain View","California","US"
10144,"151.101.69.140",443,"tba","192.168.0.19",45714,"tba","TCP",5,4130,"San Francisco","California","US"
0,"192.168.0.1",53,"tba","192.168.0.19",46286,"tba","UDP",1,111,"","",""
10144,"151.101.69.140",443,"tba","192.168.0.19",45712,"tba","TCP",5,4114,"San Francisco","California","US"
10022,"216.58.217.46",443,"tba","192.168.0.19",54243,"tba","TCP",9,1382,"Mountain View","California","US"
10112,"216.58.193.68",443,"tba","192.168.0.19",48533,"tba","TCP",10,5271,"Mountain View","California","US"
0,"192.168.0.19",29988,"tba","192.168.0.1",53,"tba","UDP",1,66,"","",""
10144,"192.168.0.19",60553,"tba","52.35.19.240",443,"tba","TCP",11,1199,"Boardman","Oregon","US"
10022,"172.217.4.170",443,"tba","192.168.0.19",46047,"tba","TCP",10,5093,"Mountain View","California","US"
10144,"216.58.217.35",443,"tba","192.168.0.19",49287,"tba","TCP",9,5132,"Mountain View","California","US"
10067,"192.168.0.19",54234,"tba","216.58.217.46",443,"tba","TCP",45,12024,"Mountain View","California","US"
0,"192.168.0.19",44670,"tba","192.168.0.1",53,"tba","UDP",1,63,"","",""
10152,"192.168.0.19",36970,"tba","216.58.217.49",443,"tba","TCP",20,4572,"Mountain View","California","US"
10144,"216.58.217.33",443,"tba","192.168.0.19",53549,"tba","TCP",21,8165,"Mountain View","California","US"
10144,"192.168.0.19",53974,"tba","216.58.217.34",443,"tba","TCP",10,976,"Mountain View","California","US"
10144,"216.58.217.3",443,"tba","192.168.0.19",33389,"tba","UDP",2,1433,"Mountain View","California","US"
0,"192.168.0.19",31298,"tba","192.168.0.1",53,"tba","UDP",1,68,"","",""
0,"192.168.0.1",53,"tba","192.168.0.19",31732,"tba","UDP",1,75,"","",""
10144,"192.168.0.1",53,"tba","192.168.0.19",43350,"tba","UDP",1,131,"","",""
10101,"205.197.193.129",443,"tba","192.168.0.19",48839,"tba","TCP",12,5772,"Burlington","Massachusetts","US"
0,"192.168.0.1",53,"tba","192.168.0.19",12792,"tba","UDP",1,111,"","",""
10022,"216.58.217.46",443,"tba","192.168.0.19",54266,"tba","TCP",9,5272,"Mountain View","California","US"
0,"192.168.0.19",46286,"tba","192.168.0.1",53,"tba","UDP",1,60,"","",""
10144,"192.168.0.19",53588,"tba","216.58.217.33",443,"tba","TCP",12,1080,"Mountain View","California","US"
10144,"151.101.69.140",443,"tba","192.168.0.19",45655,"tba","TCP",5,4114,"San Francisco","California","US"
10144,"151.101.69.140",443,"tba","192.168.0.19",45710,"tba","TCP",5,4114,"San Francisco","California","US"
10144,"216.58.217.35",443,"tba","192.168.0.19",49294,"tba","TCP",27,10090,"Mountain View","California","US"
10144,"216.58.217.33",443,"tba","192.168.0.19",39363,"tba","UDP",150,190998,"Mountain View","California","US"
10022,"192.168.0.19",48196,"tba","216.58.217.10",443,"tba","TCP",9,1993,"Mountain View","California","US"
0,"192.168.0.1",53,"tba","192.168.0.19",7908,"tba","UDP",1,99,"","",""
10001,"192.168.0.19",36670,"tba","65.52.232.150",443,"tba","TCP",3,180,"Chicago","Illinois","US"
0,"192.168.0.19",31732,"tba","192.168.0.1",53,"tba","UDP",1,59,"","",""
10144,"192.168.0.19",45675,"tba","151.101.69.140",443,"tba","TCP",9,803,"San Francisco","California","US"
0,"192.168.0.1",53,"tba","192.168.0.19",6462,"tba","UDP",1,130,"","",""
0,"192.168.0.19",24477,"tba","192.168.0.1",53,"tba","UDP",1,73,"","",""
10144,"216.58.217.3",443,"tba","192.168.0.19",39341,"tba","TCP",18,6026,"Mountain View","California","US"
10022,"192.168.0.19",58793,"tba","216.58.217.42",443,"tba","TCP",17,9795,"Mountain View","California","US"
0,"192.168.0.19",14908,"tba","192.168.0.1",53,"tba","UDP",1,71,"","",""
10022,"192.168.0.19",58792,"tba","216.58.217.42",443,"tba","TCP",26,2937,"Mountain View","California","US"
0,"192.168.0.1",53,"tba","192.168.0.19",22261,"tba","UDP",1,128,"","",""
10144,"192.168.0.19",45713,"tba","151.101.69.140",443,"tba","TCP",9,802,"San Francisco","California","US"
10022,"172.217.4.170",443,"tba","192.168.0.19",46048,"tba","TCP",10,5157,"Mountain View","California","US"
0,"192.168.0.1",53,"tba","192.168.0.19",39943,"tba","UDP",1,76,"","",""
10045,"192.168.0.19",63591,"tba","192.168.0.1",53,"tba","UDP",1,64,"","",""
0,"192.168.0.1",53,"tba","192.168.0.19",14305,"tba","UDP",1,83,"","",""
10144,"216.58.217.34",443,"tba","192.168.0.19",53947,"tba","TCP",8,4763,"Mountain View","California","US"
0,"192.168.0.19",7908,"tba","192.168.0.1",53,"tba","UDP",1,83,"","",""
0,"192.168.0.19",43572,"tba","192.168.0.1",53,"tba","UDP",1,67,"","",""
10144,"72.21.91.70",443,"tba","192.168.0.19",60105,"tba","TCP",7,5996,"","","US"
10144,"192.168.0.19",45659,"tba","151.101.69.140",443,"tba","TCP",9,807,"San Francisco","California","US"
10144,"199.96.57.6",443,"tba","192.168.0.19",51121,"tba","TCP",5,409,"San Francisco","California","US"
10022,"192.168.0.19",54247,"tba","216.58.217.46",443,"tba","TCP",10,1590,"Mountain View","California","US"
10001,"192.168.0.19",36669,"tba","65.52.232.150",443,"tba","TCP",3,180,"Chicago","Illinois","US"
10144,"216.58.217.42",443,"tba","192.168.0.19",58807,"tba","TCP",17,7882,"Mountain View","California","US"
0,"192.168.0.19",33559,"tba","192.168.0.1",53,"tba","UDP",1,70,"","",""
10001,"192.168.0.19",36659,"tba","65.52.232.150",443,"tba","TCP",3,180,"Chicago","Illinois","US"
10144,"192.168.0.19",45707,"tba","151.101.69.140",443,"tba","TCP",9,819,"San Francisco","California","US"
10144,"192.168.0.19",37256,"tba","23.73.156.235",443,"tba","TCP",12,971,"Cambridge","Massachusetts","US"
0,"192.168.0.1",53,"tba","192.168.0.19",2125,"tba","UDP",1,76,"","",""
10114,"216.58.217.46",443,"tba","192.168.0.19",54256,"tba","TCP",8,1229,"Mountain View","California","US"
0,"192.168.0.19",63132,"tba","192.168.0.1",53,"tba","UDP",1,63,"","",""
10144,"151.101.69.140",443,"tba","192.168.0.19",45658,"tba","TCP",5,4130,"San Francisco","California","US"
10144,"151.101.69.140",443,"tba","192.168.0.19",45674,"tba","TCP",5,4130,"San Francisco","California","US"
10144,"192.168.0.19",53945,"tba","216.58.217.34",443,"tba","TCP",12,1092,"Mountain View","California","US"
10022,"192.168.0.19",58825,"tba","216.58.217.42",443,"tba","TCP",13,2312,"Mountain View","California","US"
10144,"216.58.217.33",443,"tba","192.168.0.19",53588,"tba","TCP",10,4906,"Mountain View","California","US"
10144,"192.168.0.19",39341,"tba","216.58.217.3",443,"tba","TCP",20,2154,"Mountain View","California","US"
10101,"192.168.0.19",48839,"tba","205.197.193.129",443,"tba","TCP",14,1733,"Burlington","Massachusetts","US"
10114,"192.168.0.19",54246,"tba","216.58.217.46",443,"tba","TCP",11,2150,"Mountain View","California","US"
10067,"216.58.217.42",443,"tba","192.168.0.19",58789,"tba","TCP",12,5245,"Mountain View","California","US"
10144,"192.168.0.19",45667,"tba","151.101.69.140",443,"tba","TCP",9,802,"San Francisco","California","US"
10144,"192.168.0.19",33389,"tba","216.58.217.3",443,"tba","UDP",2,1444,"Mountain View","California","US"
0,"192.168.0.1",53,"tba","192.168.0.19",45488,"tba","UDP",1,97,"","",""
10144,"23.73.156.235",443,"tba","192.168.0.19",37256,"tba","TCP",10,5361,"Cambridge","Massachusetts","US"
10022,"192.168.0.19",54233,"tba","216.58.217.46",443,"tba","TCP",18,12959,"Mountain View","California","US"
0,"192.168.0.19",45488,"tba","192.168.0.1",53,"tba","UDP",1,81,"","",""
0,"192.168.0.1",53,"tba","192.168.0.19",43421,"tba","UDP",1,139,"","",""
10114,"192.168.0.19",54245,"tba","216.58.217.46",443,"tba","TCP",11,2150,"Mountain View","California","US"
10144,"192.168.0.19",45711,"tba","151.101.69.140",443,"tba","TCP",9,800,"San Francisco","California","US"
0,"192.168.0.1",53,"tba","192.168.0.19",7049,"tba","UDP",1,131,"","",""
10022,"74.125.202.188",5228,"tba","192.168.0.19",33669,"tba","TCP",35,6789,"Mountain View","California","US"
10114,"216.58.217.46",443,"tba","192.168.0.19",54261,"tba","TCP",8,1229,"Mountain View","California","US"
10144,"151.101.69.140",443,"tba","192.168.0.19",45665,"tba","TCP",5,4130,"San Francisco","California","US"
10144,"216.58.217.35",443,"tba","192.168.0.19",48237,"tba","UDP",27,32135,"Mountain View","California","US"
10067,"216.58.217.10",443,"tba","192.168.0.19",48288,"tba","TCP",12,5245,"Mountain View","California","US"
10144,"192.168.0.19",45666,"tba","151.101.69.140",443,"tba","TCP",9,797,"San Francisco","California","US"
0,"192.168.0.1",53,"tba","192.168.0.19",33559,"tba","UDP",1,121,"","",""
0,"192.168.0.1",53,"tba","192.168.0.19",61710,"tba","UDP",1,112,"","",""
0,"192.168.0.1",53,"tba","192.168.0.19",19039,"tba","UDP",1,85,"","",""
10022,"192.168.0.19",58803,"tba","216.58.217.42",443,"tba","TCP",13,2312,"Mountain View","California","US"
10022,"216.58.217.10",443,"tba","192.168.0.19",48188,"tba","TCP",10,5120,"Mountain View","California","US"
0,"192.168.0.1",53,"tba","192.168.0.19",6240,"tba","UDP",1,163,"","",""
10144,"192.168.0.19",51207,"tba","172.217.3.196",443,"tba","UDP",492,48077,"Mountain View","California","US"
10022,"192.168.0.19",54227,"tba","216.58.217.46",443,"tba","TCP",15,2044,"Mountain View","California","US"
0,"192.168.0.19",27483,"tba","192.168.0.1",53,"tba","UDP",1,56,"","",""
0,"192.168.0.1",53,"tba","192.168.0.19",24477,"tba","UDP",1,114,"","",""
10144,"192.168.0.19",45660,"tba","151.101.69.140",443,"tba","TCP",9,807,"San Francisco","California","US"
0,"192.168.0.1",53,"tba","192.168.0.19",53055,"tba","UDP",1,130,"","",""
10022,"192.168.0.19",58794,"tba","216.58.217.42",443,"tba","TCP",28,3041,"Mountain View","California","US"
10114,"216.58.217.46",443,"tba","192.168.0.19",54250,"tba","TCP",9,1281,"Mountain View","California","US"
10144,"192.168.0.19",60934,"tba","52.40.110.82",443,"tba","TCP",11,885,"Boardman","Oregon","US"
0,"192.168.0.19",17284,"tba","192.168.0.1",53,"tba","UDP",1,63,"","",""
0,"192.168.0.1",53,"tba","192.168.0.19",15165,"tba","UDP",1,112,"","",""
0,"192.168.0.1",53,"tba","192.168.0.19",39142,"tba","UDP",1,94,"","",""
0,"192.168.0.19",6291,"tba","192.168.0.1",53,"tba","UDP",1,65,"","",""
10144,"192.168.0.1",53,"tba","192.168.0.19",7550,"tba","UDP",1,130,"","",""
10144,"52.40.110.82",443,"tba","192.168.0.19",60934,"tba","TCP",8,3627,"Boardman","Oregon","US"
0,"192.168.0.19",1638,"tba","192.168.0.1",53,"tba","UDP",1,65,"","",""
10144,"52.35.19.240",443,"tba","192.168.0.19",60553,"tba","TCP",8,3627,"Boardman","Oregon","US"
10144,"192.168.0.19",45717,"tba","151.101.69.140",443,"tba","TCP",9,803,"San Francisco","California","US"
0,"192.168.0.1",53,"tba","192.168.0.19",29955,"tba","UDP",1,121,"","",""
0,"192.168.0.19",10337,"tba","192.168.0.1",53,"tba","UDP",1,65,"","",""
10144,"52.40.110.82",443,"tba","192.168.0.19",60935,"tba","TCP",8,3627,"Boardman","Oregon","US"
10022,"192.168.0.19",46046,"tba","172.217.4.170",443,"tba","TCP",11,1991,"Mountain View","California","US"
0,"192.168.0.1",53,"tba","192.168.0.19",62271,"tba","UDP",1,107,"","",""
10144,"151.101.69.140",443,"tba","192.168.0.19",45716,"tba","TCP",5,4130,"San Francisco","California","US"
10144,"192.168.0.19",45655,"tba","151.101.69.140",443,"tba","TCP",9,795,"San Francisco","California","US"
0,"192.168.0.1",53,"tba","192.168.0.19",35951,"tba","UDP",1,130,"","",""
0,"192.168.0.19",36225,"tba","192.168.0.1",53,"tba","UDP",1,65,"","",""
10144,"192.168.0.19",45709,"tba","151.101.69.140",443,"tba","TCP",9,800,"San Francisco","California","US"
0,"192.168.0.1",53,"tba","192.168.0.19",29728,"tba","UDP",1,79,"","",""
10022,"192.168.0.19",53863,"tba","216.58.217.34",443,"tba","TCP",11,1250,"Mountain View","California","US"
10022,"216.58.217.42",443,"tba","192.168.0.19",58798,"tba","TCP",12,5558,"Mountain View","California","US"
10114,"216.58.217.46",443,"tba","192.168.0.19",54269,"tba","TCP",9,1305,"Mountain View","California","US"
10001,"192.168.0.19",36654,"tba","65.52.232.150",443,"tba","TCP",3,180,"Chicago","Illinois","US"
0,"192.168.0.19",19039,"tba","192.168.0.1",53,"tba","UDP",1,69,"","",""
10022,"216.58.217.42",443,"tba","192.168.0.19",58803,"tba","TCP",10,4608,"Mountain View","California","US"
10144,"192.168.0.19",60953,"tba","52.40.110.82",443,"tba","TCP",14,3436,"Boardman","Oregon","US"
10144,"192.168.0.19",60933,"tba","52.40.110.82",443,"tba","TCP",11,885,"Boardman","Oregon","US"
0,"192.168.0.1",53,"tba","192.168.0.19",2483,"tba","UDP",1,112,"","",""
10144,"151.101.69.140",443,"tba","192.168.0.19",45657,"tba","TCP",5,4130,"San Francisco","California","US"
0,"192.168.0.1",53,"tba","192.168.0.19",48905,"tba","UDP",1,109,"","",""
0,"192.168.0.19",39895,"tba","192.168.0.1",53,"tba","UDP",1,66,"","",""
10022,"192.168.0.19",48188,"tba","216.58.217.10",443,"tba","TCP",14,2433,"Mountain View","California","US"
0,"192.168.0.19",18752,"tba","192.168.0.1",53,"tba","UDP",1,68,"","",""
10144,"192.168.0.19",55572,"tba","216.58.217.35",443,"tba","UDP",3,1507,"Mountain View","California","US"
10045,"192.168.0.19",58374,"tba","192.168.0.1",53,"tba","UDP",1,64,"","",""
0,"192.168.0.19",48905,"tba","192.168.0.1",53,"tba","UDP",1,58,"","",""
10144,"192.168.0.19",45715,"tba","151.101.69.140",443,"tba","TCP",9,803,"San Francisco","California","US"
10022,"192.168.0.19",54275,"tba","216.58.217.46",443,"tba","TCP",10,1668,"Mountain View","California","US"
0,"192.168.0.1",53,"tba","192.168.0.19",18811,"tba","UDP",1,123,"","",""
0,"192.168.0.19",64372,"tba","192.168.0.1",53,"tba","UDP",1,64,"","",""
10144,"192.168.0.19",45681,"tba","151.101.69.140",443,"tba","TCP",19,2285,"San Francisco","California","US"
10112,"192.168.0.19",48533,"tba","216.58.193.68",443,"tba","TCP",13,1391,"Mountain View","California","US"
0,"192.168.0.1",53,"tba","192.168.0.19",60145,"tba","UDP",1,117,"","",""
10144,"192.168.0.19",54352,"tba","216.58.217.46",443,"tba","TCP",14,1196,"Mountain View","California","US"
0,"192.168.0.1",53,"tba","192.168.0.19",38246,"tba","UDP",1,112,"","",""
0,"192.168.0.1",53,"tba","192.168.0.19",47182,"tba","UDP",1,130,"","",""
10022,"216.58.217.42",443,"tba","192.168.0.19",58826,"tba","TCP",7,908,"Mountain View","California","US"
10144,"23.73.156.235",443,"tba","192.168.0.19",37230,"tba","TCP",7,5174,"Cambridge","Massachusetts","US"
10022,"216.58.217.46",443,"tba","192.168.0.19",54241,"tba","TCP",12,1269,"Mountain View","California","US"
0,"192.168.0.19",59639,"tba","192.168.0.1",53,"tba","UDP",1,70,"","",""
10067,"216.58.217.46",443,"tba","192.168.0.19",54234,"tba","TCP",40,29629,"Mountain View","California","US"
0,"192.168.0.19",16684,"tba","192.168.0.1",53,"tba","UDP",1,63,"","",""
0,"192.168.0.1",53,"tba","192.168.0.19",17284,"tba","UDP",1,114,"","",""
0,"192.168.0.1",53,"tba","192.168.0.19",11537,"tba","UDP",1,76,"","",""
10144,"216.58.217.34",443,"tba","192.168.0.19",53974,"tba","TCP",10,4909,"Mountain View","California","US"
0,"192.168.0.19",38246,"tba","192.168.0.1",53,"tba","UDP",1,72,"","",""
10144,"192.168.0.19",45683,"tba","151.101.69.140",443,"tba","TCP",52,5744,"San Francisco","California","US"
10144,"192.168.0.19",41635,"tba","216.58.217.3",443,"tba","UDP",7,3578,"Mountain View","California","US"
10144,"172.217.3.195",443,"tba","192.168.0.19",46188,"tba","UDP",168,222878,"Mountain View","California","US"
0,"192.168.0.1",53,"tba","192.168.0.19",60608,"tba","UDP",1,76,"","",""
10067,"192.168.0.19",58789,"tba","216.58.217.42",443,"tba","TCP",15,3457,"Mountain View","California","US"
0,"192.168.0.1",53,"tba","192.168.0.19",1729,"tba","UDP",1,107,"","",""
10112,"192.168.0.19",48535,"tba","216.58.193.68",443,"tba","TCP",10,1372,"Mountain View","California","US"
0,"192.168.0.1",53,"tba","192.168.0.19",36225,"tba","UDP",1,116,"","",""
10144,"192.168.0.19",45700,"tba","151.101.69.140",443,"tba","TCP",9,807,"San Francisco","California","US"
10022,"216.58.217.42",443,"tba","192.168.0.19",58785,"tba","TCP",47,59602,"Mountain View","California","US"
0,"192.168.0.19",64421,"tba","192.168.0.1",53,"tba","UDP",1,72,"","",""
10144,"192.168.0.19",49294,"tba","216.58.217.35",443,"tba","TCP",21,2194,"Mountain View","California","US"
10114,"192.168.0.19",54256,"tba","216.58.217.46",443,"tba","TCP",11,2150,"Mountain View","California","US"
0,"192.168.0.19",40317,"tba","192.168.0.1",53,"tba","UDP",1,61,"","",""
10022,"216.58.217.42",443,"tba","192.168.0.19",58818,"tba","TCP",10,4784,"Mountain View","California","US"
0,"192.168.0.19",2125,"tba","192.168.0.1",53,"tba","UDP",1,60,"","",""
10114,"192.168.0.19",54269,"tba","216.58.217.46",443,"tba","TCP",9,2068,"Mountain View","California","US"
10144,"192.168.0.19",48237,"tba","216.58.217.35",443,"tba","UDP",17,4181,"Mountain View","California","US"
10144,"192.168.0.19",45670,"tba","151.101.69.140",443,"tba","TCP",9,800,"San Francisco","California","US"
0,"192.168.0.19",15238,"tba","192.168.0.1",53,"tba","UDP",1,72,"","",""
0,"192.168.0.1",53,"tba","192.168.0.19",10337,"tba","UDP",1,131,"","",""
0,"192.168.0.1",53,"tba","192.168.0.19",16004,"tba","UDP",1,76,"","",""
10022,"192.168.0.19",46048,"tba","172.217.4.170",443,"tba","TCP",12,1691,"Mountain View","California","US"
10001,"192.168.0.19",36653,"tba","65.52.232.150",443,"tba","TCP",3,180,"Chicago","Illinois","US"
10144,"151.101.69.140",443,"tba","192.168.0.19",45681,"tba","TCP",15,4884,"San Francisco","California","US"
1000,"192.168.0.19",43939,"tba","216.58.217.46",80,"tba","TCP",1,64,"Mountain View","California","US"
0,"192.168.0.1",53,"tba","192.168.0.19",59639,"tba","UDP",1,121,"","",""
10144,"192.168.0.19",59963,"tba","172.217.4.174",443,"tba","TCP",13,1142,"Mountain View","California","US"
0,"192.168.0.1",53,"tba","192.168.0.19",7493,"tba","UDP",1,131,"","",""
10114,"192.168.0.19",54248,"tba","216.58.217.46",443,"tba","TCP",11,2150,"Mountain View","California","US"
10144,"151.101.69.140",443,"tba","192.168.0.19",45715,"tba","TCP",5,4130,"San Francisco","California","US"
0,"192.168.0.19",34543,"tba","192.168.0.1",53,"tba","UDP",1,63,"","",""
0,"192.168.0.1",53,"tba","192.168.0.19",16684,"tba","UDP",1,107,"","",""
10022,"192.168.0.19",48164,"tba","216.58.217.10",443,"tba","TCP",13,1657,"Mountain View","California","US"
10144,"192.168.0.19",51121,"tba","199.96.57.6",443,"tba","TCP",6,888,"San Francisco","California","US"
10144,"192.168.0.19",44311,"tba","216.58.193.100",443,"tba","TCP",17,1486,"Mountain View","California","US"
10022,"216.58.217.10",443,"tba","192.168.0.19",48164,"tba","TCP",9,5075,"Mountain View","California","US"
0,"192.168.0.1",53,"tba","192.168.0.19",62601,"tba","UDP",1,107,"","",""
0,"192.168.0.1",53,"tba","192.168.0.19",54065,"tba","UDP",1,76,"","",""
10144,"151.101.69.140",443,"tba","192.168.0.19",45671,"tba","TCP",5,4114,"San Francisco","California","US"
10144,"216.58.217.46",443,"tba","192.168.0.19",54347,"tba","TCP",13,7028,"Mountain View","California","US"
10144,"151.101.69.140",443,"tba","192.168.0.19",45713,"tba","TCP",5,4130,"San Francisco","California","US"
10144,"216.58.217.46",443,"tba","192.168.0.19",54316,"tba","TCP",10,6817,"Mountain View","California","US"
0,"192.168.0.1",53,"tba","192.168.0.19",5692,"tba","UDP",1,79,"","",""
0,"192.168.0.1",53,"tba","192.168.0.19",29988,"tba","UDP",1,146,"","",""
10022,"192.168.0.19",48232,"tba","216.58.217.10",443,"tba","TCP",13,1657,"Mountain View","California","US"
10144,"192.168.0.19",45672,"tba","151.101.69.140",443,"tba","TCP",10,864,"San Francisco","California","US"
0,"192.168.0.19",33237,"tba","192.168.0.1",53,"tba","UDP",1,64,"","",""
10144,"151.101.69.140",443,"tba","192.168.0.19",45711,"tba","TCP",5,4114,"San Francisco","California","US"
10144,"52.35.19.240",443,"tba","192.168.0.19",60552,"tba","TCP",8,3627,"Boardman","Oregon","US"
0,"192.168.0.19",22261,"tba","192.168.0.1",53,"tba","UDP",1,53,"","",""
0,"192.168.0.19",58500,"tba","192.168.0.1",53,"tba","UDP",1,65,"","",""
10144,"192.168.0.19",45708,"tba","151.101.69.140",443,"tba","TCP",9,800,"San Francisco","California","US"
-1,"216.58.217.46",80,"tba","192.168.0.19",43939,"tba","TCP",2,104,"Mountain View","California","US"
10144,"151.101.69.140",443,"tba","192.168.0.19",45707,"tba","TCP",5,4130,"San Francisco","California","US"
10001,"192.168.0.19",38007,"tba","52.85.83.68",80,"tba","TCP",7,522,"Seattle","Washington","US"
0,"192.168.0.19",34759,"tba","192.168.0.1",53,"tba","UDP",1,58,"","",""
10144,"172.217.3.196",443,"tba","192.168.0.19",51207,"tba","UDP",841,989869,"Mountain View","California","US"
0,"192.168.0.19",57449,"tba","192.168.0.1",53,"tba","UDP",1,63,"","",""
10144,"151.101.69.140",443,"tba","192.168.0.19",45673,"tba","TCP",5,4130,"San Francisco","California","US"
0,"192.168.0.19",7493,"tba","192.168.0.1",53,"tba","UDP",1,65,"","",""
10045,"192.168.0.19",49828,"tba","192.168.0.1",53,"tba","UDP",1,64,"","",""
0,"192.168.0.19",18797,"tba","192.168.0.1",53,"tba","UDP",1,61,"","",""
0,"192.168.0.19",12792,"tba","192.168.0.1",53,"tba","UDP",1,60,"","",""
0,"192.168.0.19",47182,"tba","192.168.0.1",53,"tba","UDP",1,70,"","",""
0,"192.168.0.1",53,"tba","192.168.0.19",22716,"tba","UDP",1,114,"","",""
10144,"192.168.0.1",53,"tba","192.168.0.19",42836,"tba","UDP",1,128,"","",""
10144,"192.168.0.19",49287,"tba","216.58.217.35",443,"tba","TCP",12,1933,"Mountain View","California","US"
0,"192.168.0.1",53,"tba","192.168.0.19",14908,"tba","UDP",1,130,"","",""
10144,"192.168.0.19",59500,"tba","54.175.69.3",443,"tba","TCP",12,932,"Ashburn","Virginia","US"
0,"192.168.0.19",18811,"tba","192.168.0.1",53,"tba","UDP",1,73,"","",""
0,"192.168.0.1",53,"tba","192.168.0.19",32864,"tba","UDP",1,127,"","",""
10144,"192.168.0.19",45704,"tba","151.101.69.140",443,"tba","TCP",9,807,"San Francisco","California","US"
10144,"216.58.217.46",443,"tba","192.168.0.19",54300,"tba","TCP",20,6485,"Mountain View","California","US"
10144,"192.168.0.19",45669,"tba","151.101.69.140",443,"tba","TCP",9,800,"San Francisco","California","US"
0,"192.168.0.19",62271,"tba","192.168.0.1",53,"tba","UDP",1,63,"","",""
0,"192.168.0.1",53,"tba","192.168.0.19",64874,"tba","UDP",1,130,"","",""
10114,"192.168.0.19",54250,"tba","216.58.217.46",443,"tba","TCP",11,2150,"Mountain View","California","US"
0,"192.168.0.1",53,"tba","192.168.0.19",58500,"tba","UDP",1,105,"","",""
10144,"151.101.69.140",443,"tba","192.168.0.19",45683,"tba","TCP",44,39395,"San Francisco","California","US"
10045,"192.168.0.1",53,"tba","192.168.0.19",58374,"tba","UDP",1,130,"","",""
10144,"192.168.0.19",53549,"tba","216.58.217.33",443,"tba","TCP",24,2257,"Mountain View","California","US"
10022,"192.168.0.19",48285,"tba","216.58.217.10",443,"tba","TCP",59,4360,"Mountain View","California","US"
10144,"192.168.0.19",45701,"tba","151.101.69.140",443,"tba","TCP",9,807,"San Francisco","California","US"
10144,"192.168.0.19",36881,"tba","199.16.156.52",443,"tba","TCP",13,1026,"San Francisco","California","US"
10022,"192.168.0.19",54266,"tba","216.58.217.46",443,"tba","TCP",12,1793,"Mountain View","California","US"
0,"192.168.0.1",53,"tba","192.168.0.19",40317,"tba","UDP",1,77,"","",""
