uID,"AppName","OriginIP",OriginPort,"OriginPortName","DestinationIP",DestinationPort,"DestPortName","Protocol",TotalPackets,TotalBytes,"RemoteCity","RemoteRegion","RemoteCountry",Latitude,Longitude
10162,"com.testbot","128.110.65.254",47328,"","192.168.0.1",1433,"ms-sql-s","TCP",1,60,"","","",,
10162,"com.testbot","128.110.65.254",54127,"","192.168.0.1",42,"nameserver","TCP",1,60,"","","",,
10161,"com.kingouser.com","149.56.19.76",8090,"","128.110.65.254",37205,"","TCP",2,84,"Montreal","Quebec","CA",45.5000,-73.5833
0,"root","155.97.136.200",53,"domain","128.110.65.254",59201,"","UDP",1,390,"Salt Lake City","Utah","US",40.7855,-111.7367
10161,"com.kingouser.com","128.110.65.254",37225,"","149.56.19.76",8090,"","TCP",8,558,"Montreal","Quebec","CA",45.5000,-73.5833
-1,"kernel","31.13.70.1",443,"https","128.110.65.254",60405,"","TCP",1,89,"Los Angeles","California","US",34.0544,-118.2440
0,"root","128.110.65.254",2436,"topx","155.97.136.200",53,"domain","UDP",1,61,"Salt Lake City","Utah","US",40.7855,-111.7367
0,"root","128.110.65.254",23591,"","155.97.136.200",53,"domain","UDP",1,62,"Salt Lake City","Utah","US",40.7855,-111.7367
10162,"com.testbot","128.110.65.254",59412,"","192.168.0.1",2745,"urbisnet","TCP",1,60,"","","",,
0,"root","128.110.65.254",55559,"","155.97.136.200",53,"domain","UDP",1,64,"Salt Lake City","Utah","US",40.7855,-111.7367
10162,"com.testbot","128.110.65.254",47271,"","192.168.0.1",1433,"ms-sql-s","TCP",1,60,"","","",,
0,"root","155.97.136.200",53,"domain","128.110.65.254",12404,"","UDP",1,452,"Salt Lake City","Utah","US",40.7855,-111.7367
10137,"com.instagram.android","31.13.70.52",443,"https","128.110.65.254",55107,"","TCP",10,4794,"Los Angeles","California","US",34.0544,-118.2440
10137,"com.instagram.android","128.110.65.254",60324,"","31.13.70.1",443,"https","TCP",1,52,"Los Angeles","California","US",34.0544,-118.2440
10162,"com.testbot","128.110.65.254",60368,"","192.168.0.1",81,"","TCP",1,60,"","","",,
0,"root","155.97.136.200",53,"domain","128.110.65.254",55559,"","UDP",1,245,"Salt Lake City","Utah","US",40.7855,-111.7367
0,"root","128.110.65.254",45024,"","155.97.136.200",53,"domain","UDP",1,64,"Salt Lake City","Utah","US",40.7855,-111.7367
10162,"com.testbot","155.97.136.200",53,"domain","128.110.65.254",8979,"","UDP",1,139,"Salt Lake City","Utah","US",40.7855,-111.7367
10018,"com.google.android.syncadapters.bookmarks","128.110.65.254",33708,"","216.58.217.8",443,"https","TCP",9,4716,"Mountain View","California","US",37.4192,-122.0574
10137,"com.instagram.android","128.110.65.254",55025,"","31.13.70.52",443,"https","TCP",1,52,"Los Angeles","California","US",34.0544,-118.2440
0,"root","128.110.65.254",12404,"","155.97.136.200",53,"domain","UDP",1,60,"Salt Lake City","Utah","US",40.7855,-111.7367
10018,"com.google.android.syncadapters.bookmarks","128.110.65.254",53228,"","216.58.217.202",443,"https","TCP",14,6093,"Mountain View","California","US",37.4192,-122.0574
10162,"com.testbot","128.110.65.254",58642,"","192.168.0.1",443,"https","TCP",1,60,"","","",,
10162,"com.testbot","128.110.65.254",40906,"","192.168.0.1",23,"telnet","TCP",1,60,"","","",,
-1,"kernel","31.13.70.52",443,"https","128.110.65.254",55107,"","TCP",1,89,"Los Angeles","California","US",34.0544,-118.2440
10162,"com.testbot","128.110.65.254",59355,"","192.168.0.1",2745,"urbisnet","TCP",1,60,"","","",,
10162,"com.testbot","128.110.65.254",38216,"","192.168.0.1",1025,"blackjack","TCP",1,60,"","","",,
10162,"com.testbot","128.110.65.254",40882,"","192.168.0.1",23,"telnet","TCP",1,60,"","","",,
0,"root","155.97.136.200",53,"domain","128.110.65.254",48361,"","UDP",1,217,"Salt Lake City","Utah","US",40.7855,-111.7367
10094,"com.accuweather.android","128.110.65.254",56409,"","104.126.136.12",80,"http","TCP",16,2318,"Cambridge","Massachusetts","US",42.3626,-71.0843
0,"root","155.97.136.200",53,"domain","128.110.65.254",18425,"","UDP",1,233,"Salt Lake City","Utah","US",40.7855,-111.7367
10152,"com.cleanmaster.mguard","52.41.229.61",80,"http","128.110.65.254",53582,"","TCP",3,422,"Boardman","Oregon","US",45.8696,-119.6880
10112,"com.google.android.googlequicksearchbox","216.58.216.42",443,"https","128.110.65.254",44984,"","TCP",32,27162,"Mountain View","California","US",37.4192,-122.0574
0,"root","128.110.65.254",17526,"","155.97.136.200",53,"domain","UDP",1,61,"Salt Lake City","Utah","US",40.7855,-111.7367
0,"root","128.110.65.254",48999,"","155.97.136.200",53,"domain","UDP",1,70,"Salt Lake City","Utah","US",40.7855,-111.7367
10162,"com.testbot","128.110.65.254",60153,"","192.168.0.1",5000,"commplex-main","TCP",1,60,"","","",,
10162,"com.testbot","128.110.65.254",49795,"","192.168.0.1",3127,"ctx-bridge","TCP",1,60,"","","",,
10161,"com.kingouser.com","128.110.65.254",37205,"","149.56.19.76",8090,"","TCP",3,353,"Montreal","Quebec","CA",45.5000,-73.5833
10112,"com.google.android.googlequicksearchbox","128.110.65.254",38009,"","140.197.248.80",443,"https","TCP",17,2513,"Salt Lake City","Utah","US",40.6247,-111.7123
10162,"com.testbot","128.110.65.254",41658,"","192.168.0.1",80,"http","TCP",1,60,"","","",,
10162,"com.testbot","128.110.65.254",60396,"","192.168.0.1",81,"","TCP",1,60,"","","",,
10161,"com.kingouser.com","149.56.19.76",8090,"","128.110.65.254",37207,"","TCP",1,40,"Montreal","Quebec","CA",45.5000,-73.5833
0,"root","155.97.136.200",53,"domain","128.110.65.254",2436,"topx","UDP",1,485,"Salt Lake City","Utah","US",40.7855,-111.7367
10162,"com.testbot","128.110.65.254",57357,"","192.168.0.1",6129,"","TCP",1,60,"","","",,
10162,"com.testbot","128.110.65.254",60126,"","192.168.0.1",5000,"commplex-main","TCP",1,60,"","","",,
0,"root","155.97.136.200",53,"domain","128.110.65.254",17526,"","UDP",1,262,"Salt Lake City","Utah","US",40.7855,-111.7367
10161,"com.kingouser.com","128.110.65.254",37229,"","149.56.19.76",8090,"","TCP",3,180,"Montreal","Quebec","CA",45.5000,-73.5833
10018,"com.google.android.syncadapters.bookmarks","216.58.217.202",443,"https","128.110.65.254",53228,"","TCP",12,5117,"Mountain View","California","US",37.4192,-122.0574
10162,"com.testbot","128.110.65.254",38920,"","192.168.0.1",3306,"mysql","TCP",1,60,"","","",,
10162,"com.testbot","128.110.65.254",38244,"","192.168.0.1",1025,"blackjack","TCP",1,60,"","","",,
10112,"com.google.android.googlequicksearchbox","140.197.248.80",443,"https","128.110.65.254",38009,"","TCP",14,6232,"Salt Lake City","Utah","US",40.6247,-111.7123
10162,"com.testbot","128.110.65.254",8979,"","155.97.136.200",53,"domain","UDP",1,64,"Salt Lake City","Utah","US",40.7855,-111.7367
10152,"com.cleanmaster.mguard","128.110.65.254",48167,"","119.147.146.168",80,"http","TCP",4,690,"Guangzhou","Guangdong","CN",23.1167,113.2500
10161,"com.kingouser.com","149.56.19.76",8090,"","128.110.65.254",37206,"","TCP",2,84,"Montreal","Quebec","CA",45.5000,-73.5833
0,"root","155.97.136.200",53,"domain","128.110.65.254",48999,"","UDP",1,266,"Salt Lake City","Utah","US",40.7855,-111.7367
10161,"com.kingouser.com","149.56.19.76",8090,"","128.110.65.254",37227,"","TCP",2,84,"Montreal","Quebec","CA",45.5000,-73.5833
10137,"com.instagram.android","128.110.65.254",52030,"","54.173.152.112",443,"https","TCP",1,52,"Ashburn","Virginia","US",39.0481,-77.4728
10161,"com.kingouser.com","128.110.65.254",37234,"","149.56.19.76",8090,"","TCP",3,180,"Montreal","Quebec","CA",45.5000,-73.5833
10162,"com.testbot","128.110.65.254",51898,"","192.168.0.1",1080,"socks","TCP",1,60,"","","",,
10161,"com.kingouser.com","128.110.65.254",37237,"","149.56.19.76",8090,"","TCP",3,180,"Montreal","Quebec","CA",45.5000,-73.5833
10162,"com.testbot","128.110.65.254",52758,"","192.168.0.1",903,"ideafarm-panic","TCP",1,60,"","","",,
10162,"com.testbot","128.110.65.254",54178,"","192.168.0.1",42,"nameserver","TCP",1,60,"","","",,
10018,"com.google.android.syncadapters.bookmarks","173.194.203.188",5228,"","128.110.65.254",53361,"","TCP",7,376,"Mountain View","California","US",37.4192,-122.0574
10161,"com.kingouser.com","149.56.19.76",8090,"","128.110.65.254",37266,"","TCP",2,84,"Montreal","Quebec","CA",45.5000,-73.5833
10161,"com.kingouser.com","128.110.65.254",43110,"","104.20.27.56",80,"http","TCP",3,363,"San Francisco","California","US",37.7697,-122.3933
0,"root","128.110.65.254",44993,"","155.97.136.200",53,"domain","UDP",1,60,"Salt Lake City","Utah","US",40.7855,-111.7367
10161,"com.kingouser.com","149.56.19.76",8090,"","128.110.65.254",37225,"","TCP",2,84,"Montreal","Quebec","CA",45.5000,-73.5833
10162,"com.testbot","128.110.65.254",56021,"","192.168.0.1",6667,"","TCP",1,60,"","","",,
10161,"com.kingouser.com","128.110.65.254",37207,"","149.56.19.76",8090,"","TCP",1,60,"Montreal","Quebec","CA",45.5000,-73.5833
10162,"com.testbot","128.110.65.254",55996,"","192.168.0.1",6667,"","TCP",1,60,"","","",,
10162,"com.testbot","128.110.65.254",58614,"","192.168.0.1",443,"https","TCP",1,60,"","","",,
10152,"com.cleanmaster.mguard","54.210.80.108",443,"https","128.110.65.254",47255,"","TCP",8,5535,"Ashburn","Virginia","US",39.0481,-77.4728
10161,"com.kingouser.com","128.110.65.254",37231,"","149.56.19.76",8090,"","TCP",3,180,"Montreal","Quebec","CA",45.5000,-73.5833
-1,"kernel","128.110.65.254",48167,"","119.147.146.168",80,"http","TCP",1,40,"Guangzhou","Guangdong","CN",23.1167,113.2500
10162,"com.testbot","128.110.65.254",54154,"","192.168.0.1",42,"nameserver","TCP",1,60,"","","",,
10018,"com.google.android.syncadapters.bookmarks","128.110.65.254",42460,"","216.58.193.202",443,"https","TCP",5,5304,"Mountain View","California","US",37.4192,-122.0574
0,"root","155.97.136.200",53,"domain","128.110.65.254",23591,"","UDP",1,233,"Salt Lake City","Utah","US",40.7855,-111.7367
10018,"com.google.android.syncadapters.bookmarks","216.58.193.202",443,"https","128.110.65.254",42460,"","TCP",3,120,"Mountain View","California","US",37.4192,-122.0574
10161,"com.kingouser.com","128.110.65.254",37228,"","149.56.19.76",8090,"","TCP",3,180,"Montreal","Quebec","CA",45.5000,-73.5833
10161,"com.kingouser.com","128.110.65.254",37267,"","149.56.19.76",8090,"","TCP",4,240,"Montreal","Quebec","CA",45.5000,-73.5833
10162,"com.testbot","128.110.65.254",60815,"","192.168.0.1",53,"domain","TCP",1,60,"","","",,
10137,"com.instagram.android","128.110.65.254",60405,"","31.13.70.1",443,"https","TCP",12,2246,"Los Angeles","California","US",34.0544,-118.2440
10162,"com.testbot","128.110.65.254",58586,"","192.168.0.1",443,"https","TCP",1,60,"","","",,
10112,"com.google.android.googlequicksearchbox","128.110.65.254",54779,"","239.255.255.250",1900,"ssdp","UDP",2,314,"","","",,
10018,"com.google.android.syncadapters.bookmarks","128.110.65.254",5353,"mdns","224.0.0.251",5353,"mdns","UDP",8,544,"","","",,
10018,"com.google.android.syncadapters.bookmarks","128.110.65.254",53361,"","173.194.203.188",5228,"","TCP",7,1008,"Mountain View","California","US",37.4192,-122.0574
-1,"kernel","128.110.65.254",0,"","224.0.0.22",0,"","2",4,160,"","","",,
10162,"com.testbot","128.110.65.254",52264,"","192.168.0.1",3410,"networklenss","TCP",1,60,"","","",,
10137,"com.instagram.android","31.13.70.1",443,"https","128.110.65.254",60405,"","TCP",9,4421,"Los Angeles","California","US",34.0544,-118.2440
10162,"com.testbot","128.110.65.254",60096,"","192.168.0.1",5000,"commplex-main","TCP",1,60,"","","",,
0,"root","128.110.65.254",16013,"","155.97.136.200",53,"domain","UDP",1,64,"Salt Lake City","Utah","US",40.7855,-111.7367
10162,"com.testbot","128.110.65.254",57325,"","192.168.0.1",6129,"","TCP",1,60,"","","",,
10162,"com.testbot","128.110.65.254",41627,"","192.168.0.1",80,"http","TCP",1,60,"","","",,
10162,"com.testbot","128.110.65.254",60839,"","192.168.0.1",53,"domain","TCP",1,60,"","","",,
10161,"com.kingouser.com","128.110.65.254",38848,"","104.20.26.56",80,"http","TCP",10,667,"San Francisco","California","US",37.7697,-122.3933
10162,"com.testbot","128.110.65.254",60945,"","140.197.248.110",80,"http","TCP",26,1570,"Salt Lake City","Utah","US",40.6247,-111.7123
10152,"com.cleanmaster.mguard","128.110.65.254",47255,"","54.210.80.108",443,"https","TCP",11,1366,"Ashburn","Virginia","US",39.0481,-77.4728
10162,"com.testbot","128.110.65.254",38950,"","192.168.0.1",3306,"mysql","TCP",1,60,"","","",,
10162,"com.testbot","128.110.65.254",41682,"","192.168.0.1",80,"http","TCP",1,60,"","","",,
10137,"com.instagram.android","128.110.65.254",55107,"","31.13.70.52",443,"https","TCP",12,1775,"Los Angeles","California","US",34.0544,-118.2440
0,"root","155.97.136.200",53,"domain","128.110.65.254",44993,"","UDP",1,452,"Salt Lake City","Utah","US",40.7855,-111.7367
10162,"com.testbot","128.110.65.254",57382,"","192.168.0.1",6129,"","TCP",1,60,"","","",,
-1,"kernel","128.110.65.254",48110,"","119.147.146.168",80,"http","TCP",4,160,"Guangzhou","Guangdong","CN",23.1167,113.2500
10162,"com.testbot","128.110.65.254",47301,"","192.168.0.1",1433,"ms-sql-s","TCP",1,60,"","","",,
10162,"com.testbot","128.110.65.254",52207,"","192.168.0.1",3410,"networklenss","TCP",1,60,"","","",,
10162,"com.testbot","128.110.65.254",41630,"","192.168.0.1",80,"http","TCP",1,60,"","","",,
10161,"com.kingouser.com","128.110.65.254",37206,"","149.56.19.76",8090,"","TCP",8,653,"Montreal","Quebec","CA",45.5000,-73.5833
0,"root","128.110.65.254",16199,"","155.97.136.200",53,"domain","UDP",1,64,"Salt Lake City","Utah","US",40.7855,-111.7367
0,"root","128.110.65.254",60193,"","155.97.136.200",53,"domain","UDP",1,68,"Salt Lake City","Utah","US",40.7855,-111.7367
10162,"com.testbot","128.110.65.254",38977,"","192.168.0.1",3306,"mysql","TCP",1,60,"","","",,
10152,"com.cleanmaster.mguard","119.147.146.168",80,"http","128.110.65.254",48167,"","TCP",2,100,"Guangzhou","Guangdong","CN",23.1167,113.2500
0,"root","155.97.136.200",53,"domain","128.110.65.254",60193,"","UDP",1,366,"Salt Lake City","Utah","US",40.7855,-111.7367
10162,"com.testbot","128.110.65.254",49825,"","192.168.0.1",3127,"ctx-bridge","TCP",1,60,"","","",,
10162,"com.testbot","128.110.65.254",38188,"","192.168.0.1",1025,"blackjack","TCP",1,60,"","","",,
10161,"com.kingouser.com","128.110.65.254",37232,"","149.56.19.76",8090,"","TCP",3,180,"Montreal","Quebec","CA",45.5000,-73.5833
0,"root","155.97.136.200",53,"domain","128.110.65.254",45024,"","UDP",1,314,"Salt Lake City","Utah","US",40.7855,-111.7367
0,"root","155.97.136.200",53,"domain","128.110.65.254",16199,"","UDP",1,450,"Salt Lake City","Utah","US",40.7855,-111.7367
10162,"com.testbot","128.110.65.254",51870,"","192.168.0.1",1080,"socks","TCP",1,60,"","","",,
10161,"com.kingouser.com","128.110.65.254",37227,"","149.56.19.76",8090,"","TCP",8,653,"Montreal","Quebec","CA",45.5000,-73.5833
10162,"com.testbot","128.110.65.254",52237,"","192.168.0.1",3410,"networklenss","TCP",1,60,"","","",,
0,"root","128.110.65.254",59201,"","155.97.136.200",53,"domain","UDP",1,67,"Salt Lake City","Utah","US",40.7855,-111.7367
10137,"com.instagram.android","128.110.65.254",55240,"","31.13.70.3",443,"https","TCP",20,1794,"Los Angeles","California","US",34.0544,-118.2440
10018,"com.google.android.syncadapters.bookmarks","128.110.65.254",34484,"","216.58.217.8",443,"https","TCP",10,2138,"Mountain View","California","US",37.4192,-122.0574
10152,"com.cleanmaster.mguard","128.110.65.254",53582,"","52.41.229.61",80,"http","TCP",4,576,"Boardman","Oregon","US",45.8696,-119.6880
10161,"com.kingouser.com","104.20.26.56",80,"http","128.110.65.254",38848,"","TCP",8,6912,"San Francisco","California","US",37.7697,-122.3933
0,"root","155.97.136.200",53,"domain","128.110.65.254",16013,"","UDP",1,139,"Salt Lake City","Utah","US",40.7855,-111.7367
0,"root","155.97.136.200",53,"domain","128.110.65.254",32046,"","UDP",1,217,"Salt Lake City","Utah","US",40.7855,-111.7367
10112,"com.google.android.googlequicksearchbox","128.110.65.254",44984,"","216.58.216.42",443,"https","TCP",34,4072,"Mountain View","California","US",37.4192,-122.0574
10161,"com.kingouser.com","128.110.65.254",37268,"","149.56.19.76",8090,"","TCP",3,180,"Montreal","Quebec","CA",45.5000,-73.5833
10162,"com.testbot","128.110.65.254",60340,"","192.168.0.1",81,"","TCP",1,60,"","","",,
10162,"com.testbot","140.197.248.110",80,"http","128.110.65.254",60945,"","TCP",24,28394,"Salt Lake City","Utah","US",40.6247,-111.7123
10094,"com.accuweather.android","104.126.136.12",80,"http","128.110.65.254",56409,"","TCP",16,13212,"Cambridge","Massachusetts","US",42.3626,-71.0843
10161,"com.kingouser.com","128.110.65.254",37266,"","149.56.19.76",8090,"","TCP",3,353,"Montreal","Quebec","CA",45.5000,-73.5833
10161,"com.kingouser.com","149.56.19.76",8090,"","128.110.65.254",37230,"","TCP",2,84,"Montreal","Quebec","CA",45.5000,-73.5833
10018,"com.google.android.syncadapters.bookmarks","216.58.217.8",443,"https","128.110.65.254",34484,"","TCP",10,1053,"Mountain View","California","US",37.4192,-122.0574
-1,"kernel","128.110.65.254",48168,"","119.147.146.168",80,"http","TCP",3,156,"Guangzhou","Guangdong","CN",23.1167,113.2500
10137,"com.instagram.android","54.173.152.112",443,"https","128.110.65.254",52030,"","TCP",1,40,"Ashburn","Virginia","US",39.0481,-77.4728
10161,"com.kingouser.com","104.20.27.56",80,"http","128.110.65.254",43110,"","TCP",2,92,"San Francisco","California","US",37.7697,-122.3933
0,"root","128.110.65.254",32046,"","155.97.136.200",53,"domain","UDP",1,62,"Salt Lake City","Utah","US",40.7855,-111.7367
0,"root","128.110.65.254",48361,"","155.97.136.200",53,"domain","UDP",1,62,"Salt Lake City","Utah","US",40.7855,-111.7367
10161,"com.kingouser.com","128.110.65.254",37230,"","149.56.19.76",8090,"","TCP",8,558,"Montreal","Quebec","CA",45.5000,-73.5833
10162,"com.testbot","128.110.65.254",59385,"","192.168.0.1",2745,"urbisnet","TCP",1,60,"","","",,
0,"root","128.110.65.254",18425,"","155.97.136.200",53,"domain","UDP",1,62,"Salt Lake City","Utah","US",40.7855,-111.7367
10162,"com.testbot","128.110.65.254",49852,"","192.168.0.1",3127,"ctx-bridge","TCP",1,60,"","","",,
10162,"com.testbot","128.110.65.254",52730,"","192.168.0.1",903,"ideafarm-panic","TCP",1,60,"","","",,
10162,"com.testbot","128.110.65.254",52786,"","192.168.0.1",903,"ideafarm-panic","TCP",1,60,"","","",,
10137,"com.instagram.android","31.13.70.3",443,"https","128.110.65.254",55240,"","TCP",12,994,"Los Angeles","California","US",34.0544,-118.2440
10161,"com.kingouser.com","128.110.65.254",37233,"","149.56.19.76",8090,"","TCP",5,300,"Montreal","Quebec","CA",45.5000,-73.5833
