1481077757022,,wlan0,-1,128.110.65.254,48110,119.147.146.168,80,40,TCP
1481077766115,,wlan0,-1,128.110.65.254,48110,119.147.146.168,80,40,TCP
1481077784235,,wlan0,-1,128.110.65.254,48110,119.147.146.168,80,40,TCP
1481077785739,,wlan0,10161,128.110.65.254,37205,149.56.19.76,8090,60,TCP
1481077785743,,wlan0,10161,128.110.65.254,37206,149.56.19.76,8090,60,TCP
1481077785749,wlan0,,10161,149.56.19.76,8090,128.110.65.254,37205,44,TCP
1481077785755,,wlan0,10161,128.110.65.254,37205,149.56.19.76,8090,40,TCP
1481077785761,,wlan0,10161,128.110.65.254,37205,149.56.19.76,8090,253,TCP
1481077785765,wlan0,,10161,149.56.19.76,8090,128.110.65.254,37205,40,TCP
1481077785769,,wlan0,10161,128.110.65.254,37207,149.56.19.76,8090,60,TCP
1481077785774,wlan0,,10161,149.56.19.76,8090,128.110.65.254,37207,40,TCP
1481077786276,,wlan0,0,128.110.65.254,18425,155.97.136.200,53,62,UDP
1481077786278,wlan0,,0,155.97.136.200,53,128.110.65.254,18425,233,UDP
1481077786280,,wlan0,10161,128.110.65.254,38848,104.20.26.56,80,60,TCP
1481077786282,wlan0,,10161,104.20.26.56,80,128.110.65.254,38848,52,TCP
1481077786284,,wlan0,10161,128.110.65.254,38848,104.20.26.56,80,40,TCP
1481077786286,,wlan0,10161,128.110.65.254,38848,104.20.26.56,80,263,TCP
1481077786288,wlan0,,10161,104.20.26.56,80,128.110.65.254,38848,40,TCP
1481077788791,,wlan0,10161,128.110.65.254,37206,149.56.19.76,8090,60,TCP
1481077791796,,wlan0,10018,128.110.65.254,33708,216.58.217.8,443,560,TCP
1481077791797,,wlan0,10018,128.110.65.254,33708,216.58.217.8,443,75,TCP
1481077791798,,wlan0,0,128.110.65.254,16013,155.97.136.200,53,64,UDP
1481077791799,wlan0,,0,155.97.136.200,53,128.110.65.254,16013,139,UDP
1481077791800,,wlan0,10162,128.110.65.254,8979,155.97.136.200,53,64,UDP
1481077791802,wlan0,,10162,155.97.136.200,53,128.110.65.254,8979,139,UDP
1481077792304,,wlan0,10018,128.110.65.254,33708,216.58.217.8,443,583,TCP
1481077793307,,wlan0,10018,128.110.65.254,33708,216.58.217.8,443,583,TCP
1481077794814,,wlan0,10161,128.110.65.254,37206,149.56.19.76,8090,60,TCP
1481077794815,,wlan0,10018,128.110.65.254,33708,216.58.217.8,443,583,TCP
1481077798318,,wlan0,10018,128.110.65.254,33708,216.58.217.8,443,583,TCP
1481077805833,,wlan0,10018,128.110.65.254,33708,216.58.217.8,443,583,TCP
1481077806835,,wlan0,10161,128.110.65.254,37206,149.56.19.76,8090,60,TCP
1481077809342,,wlan0,10018,128.110.65.254,42460,216.58.193.202,443,1470,TCP
1481077809343,,wlan0,10018,128.110.65.254,42460,216.58.193.202,443,719,TCP
1481077809344,,wlan0,10018,128.110.65.254,42460,216.58.193.202,443,1470,TCP
1481077809344,,wlan0,10018,128.110.65.254,42460,216.58.193.202,443,1470,TCP
1481077809347,,wlan0,10018,128.110.65.254,42460,216.58.193.202,443,175,TCP
1481077809348,,wlan0,0,128.110.65.254,45024,155.97.136.200,53,64,UDP
1481077809349,wlan0,,0,155.97.136.200,53,128.110.65.254,45024,314,UDP
1481077809350,,wlan0,10018,128.110.65.254,53228,216.58.217.202,443,60,TCP
1481077809352,wlan0,,10018,216.58.193.202,443,128.110.65.254,42460,40,TCP
1481077809353,wlan0,,10018,216.58.193.202,443,128.110.65.254,42460,40,TCP
1481077809354,wlan0,,10018,216.58.193.202,443,128.110.65.254,42460,40,TCP
1481077809355,wlan0,,10018,216.58.217.202,443,128.110.65.254,53228,60,TCP
1481077809357,,wlan0,10018,128.110.65.254,53228,216.58.217.202,443,52,TCP
1481077809359,,wlan0,10018,128.110.65.254,53228,216.58.217.202,443,268,TCP
1481077809361,wlan0,,10018,216.58.217.202,443,128.110.65.254,53228,52,TCP
1481077809366,wlan0,,10018,216.58.217.202,443,128.110.65.254,53228,1470,TCP
1481077809369,,wlan0,10018,128.110.65.254,53228,216.58.217.202,443,52,TCP
1481077809370,wlan0,,10018,216.58.217.202,443,128.110.65.254,53228,1470,TCP
1481077809372,,wlan0,10018,128.110.65.254,53228,216.58.217.202,443,52,TCP
1481077809373,wlan0,,10018,216.58.217.202,443,128.110.65.254,53228,832,TCP
1481077809374,,wlan0,10018,128.110.65.254,53228,216.58.217.202,443,52,TCP
1481077809376,,wlan0,10018,128.110.65.254,53228,216.58.217.202,443,186,TCP
1481077809378,wlan0,,10018,216.58.217.202,443,128.110.65.254,53228,111,TCP
1481077809382,,wlan0,10018,128.110.65.254,53228,216.58.217.202,443,1470,TCP
1481077809383,,wlan0,10018,128.110.65.254,53228,216.58.217.202,443,719,TCP
1481077809384,,wlan0,10018,128.110.65.254,53228,216.58.217.202,443,1470,TCP
1481077809386,,wlan0,10018,128.110.65.254,53228,216.58.217.202,443,1470,TCP
1481077809387,wlan0,,10018,216.58.217.202,443,128.110.65.254,53228,52,TCP
1481077809388,,wlan0,10018,128.110.65.254,53228,216.58.217.202,443,138,TCP
1481077809389,wlan0,,10018,216.58.217.202,443,128.110.65.254,53228,52,TCP
1481077809389,wlan0,,10018,216.58.217.202,443,128.110.65.254,53228,52,TCP
1481077809390,wlan0,,10018,216.58.217.202,443,128.110.65.254,53228,553,TCP
1481077809391,wlan0,,10018,216.58.217.202,443,128.110.65.254,53228,361,TCP
1481077809393,,wlan0,10018,128.110.65.254,53228,216.58.217.202,443,52,TCP
1481077819416,,wlan0,10094,128.110.65.254,56409,104.126.136.12,80,365,TCP
1481077819918,wlan0,,10094,104.126.136.12,80,128.110.65.254,56409,52,TCP
1481077819920,wlan0,,10094,104.126.136.12,80,128.110.65.254,56409,1337,TCP
1481077819923,,wlan0,10094,128.110.65.254,56409,104.126.136.12,80,52,TCP
1481077819929,,wlan0,10094,128.110.65.254,56409,104.126.136.12,80,336,TCP
1481077819931,wlan0,,10094,104.126.136.12,80,128.110.65.254,56409,1317,TCP
1481077819936,,wlan0,10094,128.110.65.254,56409,104.126.136.12,80,325,TCP
1481077819938,wlan0,,10094,104.126.136.12,80,128.110.65.254,56409,52,TCP
1481077819941,wlan0,,10094,104.126.136.12,80,128.110.65.254,56409,602,TCP
1481077819946,,wlan0,10094,128.110.65.254,56409,104.126.136.12,80,52,TCP
1481077819949,,wlan0,10018,128.110.65.254,33708,216.58.217.8,443,583,TCP
1481077821002,,wlan0,-1,128.110.65.254,48110,119.147.146.168,80,40,TCP
1481077821504,,wlan0,10094,128.110.65.254,56409,104.126.136.12,80,355,TCP
1481077822005,wlan0,,10094,104.126.136.12,80,128.110.65.254,56409,52,TCP
1481077822006,wlan0,,10094,104.126.136.12,80,128.110.65.254,56409,1500,TCP
1481077822008,,wlan0,10094,128.110.65.254,56409,104.126.136.12,80,52,TCP
1481077822009,wlan0,,10094,104.126.136.12,80,128.110.65.254,56409,616,TCP
1481077822010,,wlan0,10094,128.110.65.254,56409,104.126.136.12,80,52,TCP
1481077822011,wlan0,,10094,104.126.136.12,80,128.110.65.254,56409,1312,TCP
1481077822012,,wlan0,10094,128.110.65.254,56409,104.126.136.12,80,64,TCP
1481077822013,wlan0,,10094,104.126.136.12,80,128.110.65.254,56409,1500,TCP
1481077822013,,wlan0,10094,128.110.65.254,56409,104.126.136.12,80,52,TCP
1481077822014,,wlan0,10094,128.110.65.254,56409,104.126.136.12,80,353,TCP
1481077822015,wlan0,,10094,104.126.136.12,80,128.110.65.254,56409,52,TCP
1481077822016,wlan0,,10094,104.126.136.12,80,128.110.65.254,56409,1500,TCP
1481077822016,,wlan0,10094,128.110.65.254,56409,104.126.136.12,80,52,TCP
1481077822017,wlan0,,10094,104.126.136.12,80,128.110.65.254,56409,613,TCP
1481077822018,,wlan0,10094,128.110.65.254,56409,104.126.136.12,80,52,TCP
1481077822019,wlan0,,10094,104.126.136.12,80,128.110.65.254,56409,1500,TCP
1481077822019,,wlan0,10094,128.110.65.254,56409,104.126.136.12,80,52,TCP
1481077822020,wlan0,,10094,104.126.136.12,80,128.110.65.254,56409,1155,TCP
1481077822020,,wlan0,10094,128.110.65.254,56409,104.126.136.12,80,52,TCP
1481077823023,,wlan0,10162,128.110.65.254,41627,192.168.0.1,80,60,TCP
1481077827029,,wlan0,0,128.110.65.254,44993,155.97.136.200,53,60,UDP
1481077827030,wlan0,,0,155.97.136.200,53,128.110.65.254,44993,452,UDP
1481077827031,,wlan0,10162,128.110.65.254,60945,140.197.248.110,80,60,TCP
1481077827032,wlan0,,10162,140.197.248.110,80,128.110.65.254,60945,60,TCP
1481077827033,,wlan0,10162,128.110.65.254,60945,140.197.248.110,80,52,TCP
1481077827034,,wlan0,10162,128.110.65.254,60945,140.197.248.110,80,214,TCP
1481077827035,wlan0,,10162,140.197.248.110,80,128.110.65.254,60945,52,TCP
1481077827537,wlan0,,10162,140.197.248.110,80,128.110.65.254,60945,1345,TCP
1481077827541,,wlan0,10162,128.110.65.254,60945,140.197.248.110,80,52,TCP
1481077827543,wlan0,,10162,140.197.248.110,80,128.110.65.254,60945,1500,TCP
1481077827545,wlan0,,10162,140.197.248.110,80,128.110.65.254,60945,1350,TCP
1481077827549,wlan0,,10162,140.197.248.110,80,128.110.65.254,60945,1500,TCP
1481077827552,wlan0,,10162,140.197.248.110,80,128.110.65.254,60945,1500,TCP
1481077827558,wlan0,,10162,140.197.248.110,80,128.110.65.254,60945,1500,TCP
1481077827560,wlan0,,10162,140.197.248.110,80,128.110.65.254,60945,1470,TCP
1481077827561,wlan0,,10162,140.197.248.110,80,128.110.65.254,60945,1470,TCP
1481077827563,wlan0,,10162,140.197.248.110,80,128.110.65.254,60945,1470,TCP
1481077827564,wlan0,,10162,140.197.248.110,80,128.110.65.254,60945,90,TCP
1481077827565,,wlan0,10162,128.110.65.254,60945,140.197.248.110,80,52,TCP
1481077827569,,wlan0,10162,128.110.65.254,60945,140.197.248.110,80,64,TCP
1481077827570,,wlan0,10162,128.110.65.254,60945,140.197.248.110,80,64,TCP
1481077827571,,wlan0,10162,128.110.65.254,60945,140.197.248.110,80,64,TCP
1481077827575,,wlan0,10162,128.110.65.254,60945,140.197.248.110,80,52,TCP
1481077827576,,wlan0,10162,128.110.65.254,60945,140.197.248.110,80,52,TCP
1481077827577,,wlan0,10162,128.110.65.254,60945,140.197.248.110,80,52,TCP
1481077827579,,wlan0,10162,128.110.65.254,60945,140.197.248.110,80,52,TCP
1481077827581,,wlan0,10162,128.110.65.254,60945,140.197.248.110,80,52,TCP
1481077827582,wlan0,,10162,140.197.248.110,80,128.110.65.254,60945,1461,TCP
1481077827583,,wlan0,10162,128.110.65.254,60945,140.197.248.110,80,52,TCP
1481077827585,wlan0,,10162,140.197.248.110,80,128.110.65.254,60945,1500,TCP
1481077827586,,wlan0,10162,128.110.65.254,60945,140.197.248.110,80,52,TCP
1481077827588,wlan0,,10162,140.197.248.110,80,128.110.65.254,60945,1500,TCP
1481077827590,,wlan0,10162,128.110.65.254,60945,140.197.248.110,80,52,TCP
1481077827591,wlan0,,10162,140.197.248.110,80,128.110.65.254,60945,1500,TCP
1481077827592,,wlan0,10162,128.110.65.254,60945,140.197.248.110,80,52,TCP
1481077827594,wlan0,,10162,140.197.248.110,80,128.110.65.254,60945,1500,TCP
1481077827596,,wlan0,10162,128.110.65.254,60945,140.197.248.110,80,64,TCP
1481077827598,wlan0,,10162,140.197.248.110,80,128.110.65.254,60945,1500,TCP
1481077827599,,wlan0,10162,128.110.65.254,60945,140.197.248.110,80,52,TCP
1481077827600,wlan0,,10162,140.197.248.110,80,128.110.65.254,60945,1500,TCP
1481077827602,,wlan0,10162,128.110.65.254,60945,140.197.248.110,80,52,TCP
1481077827603,wlan0,,10162,140.197.248.110,80,128.110.65.254,60945,1500,TCP
1481077827604,,wlan0,10162,128.110.65.254,60945,140.197.248.110,80,52,TCP
1481077827606,wlan0,,10162,140.197.248.110,80,128.110.65.254,60945,1500,TCP
1481077827609,,wlan0,10162,128.110.65.254,60945,140.197.248.110,80,52,TCP
1481077827610,wlan0,,10162,140.197.248.110,80,128.110.65.254,60945,1500,TCP
1481077827611,,wlan0,10162,128.110.65.254,60945,140.197.248.110,80,52,TCP
1481077827612,wlan0,,10162,140.197.248.110,80,128.110.65.254,60945,74,TCP
1481077827613,,wlan0,10162,128.110.65.254,60945,140.197.248.110,80,52,TCP
1481077829121,,wlan0,10162,128.110.65.254,54127,192.168.0.1,42,60,TCP
1481077830639,,wlan0,10161,128.110.65.254,37206,149.56.19.76,8090,60,TCP
1481077831142,,wlan0,10162,128.110.65.254,41630,192.168.0.1,80,60,TCP
1481077833146,,wlan0,10162,128.110.65.254,60340,192.168.0.1,81,60,TCP
1481077835150,,wlan0,10162,128.110.65.254,58586,192.168.0.1,443,60,TCP
1481077837153,,wlan0,10162,128.110.65.254,52730,192.168.0.1,903,60,TCP
1481077839159,,wlan0,10162,128.110.65.254,38188,192.168.0.1,1025,60,TCP
1481077841163,,wlan0,10162,128.110.65.254,47271,192.168.0.1,1433,60,TCP
1481077843170,,wlan0,10162,128.110.65.254,59355,192.168.0.1,2745,60,TCP
1481077845174,,wlan0,10162,128.110.65.254,49795,192.168.0.1,3127,60,TCP
1481077847178,,wlan0,10162,128.110.65.254,38920,192.168.0.1,3306,60,TCP
1481077849180,,wlan0,10018,128.110.65.254,33708,216.58.217.8,443,583,TCP
1481077849182,,wlan0,10162,128.110.65.254,52207,192.168.0.1,3410,60,TCP
1481077851196,,wlan0,10162,128.110.65.254,60096,192.168.0.1,5000,60,TCP
1481077853198,,wlan0,10162,128.110.65.254,57325,192.168.0.1,6129,60,TCP
1481077854703,,wlan0,10137,128.110.65.254,55240,31.13.70.3,443,89,TCP
1481077854705,wlan0,,10137,31.13.70.3,443,128.110.65.254,55240,89,TCP
1481077854707,,wlan0,10137,128.110.65.254,55240,31.13.70.3,443,52,TCP
1481077854709,wlan0,,10161,104.20.26.56,80,128.110.65.254,38848,1500,TCP
1481077854711,wlan0,,10161,104.20.26.56,80,128.110.65.254,38848,1500,TCP
1481077854719,,wlan0,10161,128.110.65.254,38848,104.20.26.56,80,40,TCP
1481077854720,,wlan0,10161,128.110.65.254,38848,104.20.26.56,80,40,TCP
1481077854721,wlan0,,10161,104.20.26.56,80,128.110.65.254,38848,1500,TCP
1481077854726,,wlan0,10161,128.110.65.254,38848,104.20.26.56,80,40,TCP
1481077854728,wlan0,,10161,104.20.26.56,80,128.110.65.254,38848,775,TCP
1481077854729,,wlan0,10161,128.110.65.254,38848,104.20.26.56,80,52,TCP
1481077854731,wlan0,,10161,104.20.26.56,80,128.110.65.254,38848,45,TCP
1481077854733,,wlan0,10161,128.110.65.254,38848,104.20.26.56,80,52,TCP
1481077854734,wlan0,,10161,104.20.26.56,80,128.110.65.254,38848,1500,TCP
1481077854735,,wlan0,10161,128.110.65.254,38848,104.20.26.56,80,40,TCP
1481077854737,,wlan0,10161,128.110.65.254,38848,104.20.26.56,80,40,TCP
1481077878762,,wlan0,10161,128.110.65.254,37206,149.56.19.76,8090,60,TCP
1481077879266,wlan0,,10161,149.56.19.76,8090,128.110.65.254,37206,44,TCP
1481077879270,,wlan0,10161,128.110.65.254,37206,149.56.19.76,8090,40,TCP
1481077879272,,wlan0,10161,128.110.65.254,37206,149.56.19.76,8090,253,TCP
1481077879274,wlan0,,10161,149.56.19.76,8090,128.110.65.254,37206,40,TCP
1481077879278,,wlan0,0,128.110.65.254,48361,155.97.136.200,53,62,UDP
1481077879281,wlan0,,0,155.97.136.200,53,128.110.65.254,48361,217,UDP
1481077879284,,wlan0,10161,128.110.65.254,37225,149.56.19.76,8090,60,TCP
1481077882291,,wlan0,10161,128.110.65.254,37225,149.56.19.76,8090,60,TCP
1481077888303,,wlan0,10161,128.110.65.254,37225,149.56.19.76,8090,60,TCP
1481077894336,,wlan0,10137,128.110.65.254,55240,31.13.70.3,443,153,TCP
1481077894340,wlan0,,10137,31.13.70.3,443,128.110.65.254,55240,89,TCP
1481077894342,,wlan0,10137,128.110.65.254,55240,31.13.70.3,443,52,TCP
1481077900348,,wlan0,10161,128.110.65.254,37225,149.56.19.76,8090,60,TCP
1481077911862,,wlan0,0,128.110.65.254,48999,155.97.136.200,53,70,UDP
1481077911865,wlan0,,0,155.97.136.200,53,128.110.65.254,48999,266,UDP
1481077911868,,wlan0,10018,128.110.65.254,34484,216.58.217.8,443,60,TCP
1481077911871,wlan0,,10018,216.58.217.8,443,128.110.65.254,34484,60,TCP
1481077911875,,wlan0,10018,128.110.65.254,34484,216.58.217.8,443,52,TCP
1481077911878,,wlan0,10018,128.110.65.254,34484,216.58.217.8,443,569,TCP
1481077911880,wlan0,,10018,216.58.217.8,443,128.110.65.254,34484,52,TCP
1481077911921,wlan0,,10018,216.58.217.8,443,128.110.65.254,34484,191,TCP
1481077911927,,wlan0,10018,128.110.65.254,34484,216.58.217.8,443,52,TCP
1481077911939,,wlan0,10018,128.110.65.254,34484,216.58.217.8,443,95,TCP
1481077911943,wlan0,,10018,216.58.217.8,443,128.110.65.254,34484,52,TCP
1481077911948,,wlan0,10018,128.110.65.254,34484,216.58.217.8,443,560,TCP
1481077911951,wlan0,,10018,216.58.217.8,443,128.110.65.254,34484,52,TCP
1481077911958,wlan0,,10018,216.58.217.8,443,128.110.65.254,34484,462,TCP
1481077911963,,wlan0,10018,128.110.65.254,34484,216.58.217.8,443,52,TCP
1481077923983,,wlan0,10161,128.110.65.254,37225,149.56.19.76,8090,60,TCP
1481077924991,,wlan0,10018,128.110.65.254,53361,173.194.203.188,5228,145,TCP
1481077924995,,wlan0,10018,128.110.65.254,53361,173.194.203.188,5228,145,TCP
1481077925031,wlan0,,10018,173.194.203.188,5228,128.110.65.254,53361,52,TCP
1481077925047,wlan0,,10018,173.194.203.188,5228,128.110.65.254,53361,64,TCP
1481077972595,,wlan0,10161,128.110.65.254,37225,149.56.19.76,8090,60,TCP
1481077972601,wlan0,,10161,149.56.19.76,8090,128.110.65.254,37225,44,TCP
1481077972604,,wlan0,10161,128.110.65.254,37225,149.56.19.76,8090,40,TCP
1481077972606,,wlan0,10161,128.110.65.254,37225,149.56.19.76,8090,158,TCP
1481077972608,wlan0,,10161,149.56.19.76,8090,128.110.65.254,37225,40,TCP
1481077972611,,wlan0,10161,128.110.65.254,37227,149.56.19.76,8090,60,TCP
1481077975617,,wlan0,10161,128.110.65.254,37227,149.56.19.76,8090,60,TCP
1481077981626,,wlan0,10161,128.110.65.254,37227,149.56.19.76,8090,60,TCP
1481077993642,,wlan0,10161,128.110.65.254,37227,149.56.19.76,8090,60,TCP
1481077996652,,wlan0,10137,128.110.65.254,55240,31.13.70.3,443,89,TCP
1481077996655,,wlan0,10137,128.110.65.254,55240,31.13.70.3,443,153,TCP
1481077996658,wlan0,,10137,31.13.70.3,443,128.110.65.254,55240,52,TCP
1481077996660,wlan0,,10137,31.13.70.3,443,128.110.65.254,55240,89,TCP
1481077996669,,wlan0,10137,128.110.65.254,55240,31.13.70.3,443,52,TCP
1481077996672,wlan0,,10137,31.13.70.3,443,128.110.65.254,55240,89,TCP
1481077996680,,wlan0,10137,128.110.65.254,55240,31.13.70.3,443,52,TCP
1481077998191,,wlan0,10018,128.110.65.254,53361,173.194.203.188,5228,144,TCP
1481077998191,,wlan0,10161,128.110.65.254,37228,149.56.19.76,8090,60,TCP
1481077998193,wlan0,,10018,173.194.203.188,5228,128.110.65.254,53361,52,TCP
1481077999706,,wlan0,10137,128.110.65.254,55240,31.13.70.3,443,153,TCP
1481078000218,wlan0,,10137,31.13.70.3,443,128.110.65.254,55240,89,TCP
1481078000219,,wlan0,10137,128.110.65.254,55240,31.13.70.3,443,52,TCP
1481078001222,,wlan0,10161,128.110.65.254,37228,149.56.19.76,8090,60,TCP
1481078007230,,wlan0,10161,128.110.65.254,37228,149.56.19.76,8090,60,TCP
1481078008234,,wlan0,10161,128.110.65.254,37229,149.56.19.76,8090,60,TCP
1481078011241,,wlan0,10161,128.110.65.254,37229,149.56.19.76,8090,60,TCP
1481078017249,,wlan0,10161,128.110.65.254,37229,149.56.19.76,8090,60,TCP
1481078017752,,wlan0,10161,128.110.65.254,37227,149.56.19.76,8090,60,TCP
1481078030271,,wlan0,10018,128.110.65.254,53361,173.194.203.188,5228,143,TCP
1481078030276,wlan0,,10018,173.194.203.188,5228,128.110.65.254,53361,52,TCP
1481078049795,wlan0,,10018,216.58.217.202,443,128.110.65.254,53228,52,TCP
1481078049798,,wlan0,10018,128.110.65.254,53228,216.58.217.202,443,52,TCP
1481078065817,,wlan0,10161,128.110.65.254,37227,149.56.19.76,8090,60,TCP
1481078065821,wlan0,,10161,149.56.19.76,8090,128.110.65.254,37227,44,TCP
1481078065824,,wlan0,10161,128.110.65.254,37227,149.56.19.76,8090,40,TCP
1481078065826,,wlan0,10161,128.110.65.254,37227,149.56.19.76,8090,253,TCP
1481078065830,wlan0,,10161,149.56.19.76,8090,128.110.65.254,37227,40,TCP
1481078065832,,wlan0,10161,128.110.65.254,37230,149.56.19.76,8090,60,TCP
1481078066837,,wlan0,10137,128.110.65.254,55240,31.13.70.3,443,89,TCP
1481078066840,wlan0,,10137,31.13.70.3,443,128.110.65.254,55240,89,TCP
1481078066844,,wlan0,10137,128.110.65.254,55240,31.13.70.3,443,52,TCP
1481078066846,,wlan0,10137,128.110.65.254,55240,31.13.70.3,443,153,TCP
1481078066857,wlan0,,10137,31.13.70.3,443,128.110.65.254,55240,89,TCP
1481078066859,,wlan0,10137,128.110.65.254,55240,31.13.70.3,443,52,TCP
1481078067366,wlan0,,10162,140.197.248.110,80,128.110.65.254,60945,52,TCP
1481078067367,,wlan0,10162,128.110.65.254,60945,140.197.248.110,80,52,TCP
1481078068871,,wlan0,10161,128.110.65.254,37230,149.56.19.76,8090,60,TCP
1481078071375,,wlan0,10018,128.110.65.254,53361,173.194.203.188,5228,144,TCP
1481078071376,,wlan0,10161,128.110.65.254,37231,149.56.19.76,8090,60,TCP
1481078071377,wlan0,,10018,173.194.203.188,5228,128.110.65.254,53361,52,TCP
1481078074384,,wlan0,10161,128.110.65.254,37231,149.56.19.76,8090,60,TCP
1481078074887,,wlan0,10161,128.110.65.254,37230,149.56.19.76,8090,60,TCP
1481078078412,,wlan0,10137,128.110.65.254,55240,31.13.70.3,443,153,TCP
1481078078421,wlan0,,10137,31.13.70.3,443,128.110.65.254,55240,89,TCP
1481078078422,,wlan0,10137,128.110.65.254,55240,31.13.70.3,443,52,TCP
1481078080427,,wlan0,10161,128.110.65.254,37231,149.56.19.76,8090,60,TCP
1481078081429,,wlan0,10161,128.110.65.254,37232,149.56.19.76,8090,60,TCP
1481078084433,,wlan0,10161,128.110.65.254,37232,149.56.19.76,8090,60,TCP
1481078086943,,wlan0,10161,128.110.65.254,37230,149.56.19.76,8090,60,TCP
1481078090450,,wlan0,10161,128.110.65.254,37232,149.56.19.76,8090,60,TCP
1481078109466,,wlan0,10018,128.110.65.254,53361,173.194.203.188,5228,143,TCP
1481078109471,wlan0,,10018,173.194.203.188,5228,128.110.65.254,53361,52,TCP
1481078110975,,wlan0,10161,128.110.65.254,37230,149.56.19.76,8090,60,TCP
1481078152513,wlan0,,10018,216.58.217.8,443,128.110.65.254,34484,52,TCP
1481078152519,wlan0,,10018,216.58.217.8,443,128.110.65.254,34484,52,TCP
1481078152523,,wlan0,10018,128.110.65.254,34484,216.58.217.8,443,64,TCP
1481078159031,,wlan0,10161,128.110.65.254,37230,149.56.19.76,8090,60,TCP
1481078159536,wlan0,,10161,149.56.19.76,8090,128.110.65.254,37230,44,TCP
1481078159540,,wlan0,10161,128.110.65.254,37230,149.56.19.76,8090,40,TCP
1481078159543,,wlan0,10161,128.110.65.254,37230,149.56.19.76,8090,158,TCP
1481078159568,wlan0,,10161,149.56.19.76,8090,128.110.65.254,37230,40,TCP
1481078159577,,wlan0,10161,128.110.65.254,37233,149.56.19.76,8090,60,TCP
1481078162582,,wlan0,10161,128.110.65.254,37233,149.56.19.76,8090,60,TCP
1481078168590,,wlan0,10161,128.110.65.254,37233,149.56.19.76,8090,60,TCP
1481078176115,,wlan0,10137,128.110.65.254,55240,31.13.70.3,443,89,TCP
1481078176116,,wlan0,10137,128.110.65.254,55240,31.13.70.3,443,153,TCP
1481078176118,wlan0,,10137,31.13.70.3,443,128.110.65.254,55240,52,TCP
1481078176119,wlan0,,10137,31.13.70.3,443,128.110.65.254,55240,89,TCP
1481078176121,,wlan0,10137,128.110.65.254,55240,31.13.70.3,443,52,TCP
1481078176123,wlan0,,10137,31.13.70.3,443,128.110.65.254,55240,89,TCP
1481078176124,,wlan0,10137,128.110.65.254,55240,31.13.70.3,443,52,TCP
1481078180143,,wlan0,10018,128.110.65.254,53361,173.194.203.188,5228,144,TCP
1481078180146,,wlan0,0,128.110.65.254,32046,155.97.136.200,53,62,UDP
1481078180649,wlan0,,0,155.97.136.200,53,128.110.65.254,32046,217,UDP
1481078180651,wlan0,,10018,173.194.203.188,5228,128.110.65.254,53361,52,TCP
1481078180652,,wlan0,10161,128.110.65.254,37234,149.56.19.76,8090,60,TCP
1481078180653,,wlan0,10161,128.110.65.254,37233,149.56.19.76,8090,60,TCP
1481078181154,,wlan0,10112,128.110.65.254,54779,239.255.255.250,1900,157,UDP
1481078181655,,wlan0,10112,128.110.65.254,54779,239.255.255.250,1900,157,UDP
1481078182314,,wlan0,-1,128.110.65.254,0,224.0.0.22,0,40,2
1481078182315,,wlan0,10018,128.110.65.254,5353,224.0.0.251,5353,68,UDP
1481078182316,wlan0,,10018,128.110.65.254,5353,224.0.0.251,5353,68,UDP
1481078183332,,wlan0,10018,128.110.65.254,5353,224.0.0.251,5353,68,UDP
1481078183333,wlan0,,10018,128.110.65.254,5353,224.0.0.251,5353,68,UDP
1481078183334,,wlan0,10161,128.110.65.254,37234,149.56.19.76,8090,60,TCP
1481078184336,,wlan0,10018,128.110.65.254,5353,224.0.0.251,5353,68,UDP
1481078184337,wlan0,,10018,128.110.65.254,5353,224.0.0.251,5353,68,UDP
1481078186515,,wlan0,-1,128.110.65.254,0,224.0.0.22,0,40,2
1481078187517,,wlan0,0,128.110.65.254,60193,155.97.136.200,53,68,UDP
1481078187517,wlan0,,0,155.97.136.200,53,128.110.65.254,60193,366,UDP
1481078187518,,wlan0,10112,128.110.65.254,44984,216.58.216.42,443,60,TCP
1481078187519,wlan0,,10112,216.58.216.42,443,128.110.65.254,44984,60,TCP
1481078187562,,wlan0,10112,128.110.65.254,44984,216.58.216.42,443,52,TCP
1481078187622,,wlan0,10112,128.110.65.254,44984,216.58.216.42,443,262,TCP
1481078187638,wlan0,,10112,216.58.216.42,443,128.110.65.254,44984,52,TCP
1481078187639,wlan0,,10112,216.58.216.42,443,128.110.65.254,44984,1470,TCP
1481078187640,,wlan0,10112,128.110.65.254,44984,216.58.216.42,443,52,TCP
1481078187641,wlan0,,10112,216.58.216.42,443,128.110.65.254,44984,1470,TCP
1481078187643,,wlan0,10112,128.110.65.254,44984,216.58.216.42,443,52,TCP
1481078187644,wlan0,,10112,216.58.216.42,443,128.110.65.254,44984,1255,TCP
1481078187645,,wlan0,10112,128.110.65.254,44984,216.58.216.42,443,52,TCP
1481078187646,,wlan0,10112,128.110.65.254,44984,216.58.216.42,443,170,TCP
1481078187652,,wlan0,10112,128.110.65.254,44984,216.58.216.42,443,97,TCP
1481078187653,,wlan0,10112,128.110.65.254,44984,216.58.216.42,443,94,TCP
1481078187654,,wlan0,10112,128.110.65.254,44984,216.58.216.42,443,86,TCP
1481078187656,,wlan0,10112,128.110.65.254,44984,216.58.216.42,443,411,TCP
1481078187657,wlan0,,10112,216.58.216.42,443,128.110.65.254,44984,306,TCP
1481078187658,,wlan0,10112,128.110.65.254,44984,216.58.216.42,443,52,TCP
1481078187659,wlan0,,10112,216.58.216.42,443,128.110.65.254,44984,100,TCP
1481078187660,,wlan0,10112,128.110.65.254,44984,216.58.216.42,443,1316,TCP
1481078187663,wlan0,,10112,216.58.216.42,443,128.110.65.254,44984,86,TCP
1481078187664,,wlan0,10112,128.110.65.254,44984,216.58.216.42,443,52,TCP
1481078187665,wlan0,,10112,216.58.216.42,443,128.110.65.254,44984,52,TCP
1481078187667,wlan0,,10112,216.58.216.42,443,128.110.65.254,44984,82,TCP
1481078187668,,wlan0,10112,128.110.65.254,44984,216.58.216.42,443,82,TCP
1481078187669,wlan0,,10112,216.58.216.42,443,128.110.65.254,44984,52,TCP
1481078187670,wlan0,,10112,216.58.216.42,443,128.110.65.254,44984,52,TCP
1481078188171,wlan0,,10112,216.58.216.42,443,128.110.65.254,44984,260,TCP
1481078188172,,wlan0,10112,128.110.65.254,44984,216.58.216.42,443,52,TCP
1481078188174,wlan0,,10112,216.58.216.42,443,128.110.65.254,44984,1470,TCP
1481078188174,wlan0,,10112,216.58.216.42,443,128.110.65.254,44984,607,TCP
1481078188179,,wlan0,10112,128.110.65.254,44984,216.58.216.42,443,64,TCP
1481078188184,wlan0,,10112,216.58.216.42,443,128.110.65.254,44984,1470,TCP
1481078188188,,wlan0,10112,128.110.65.254,44984,216.58.216.42,443,64,TCP
1481078188206,wlan0,,10112,216.58.216.42,443,128.110.65.254,44984,1470,TCP
1481078188246,,wlan0,10112,128.110.65.254,44984,216.58.216.42,443,64,TCP
1481078188326,wlan0,,10112,216.58.216.42,443,128.110.65.254,44984,1470,TCP
1481078188349,,wlan0,10112,128.110.65.254,44984,216.58.216.42,443,64,TCP
1481078188374,wlan0,,10112,216.58.216.42,443,128.110.65.254,44984,1470,TCP
1481078188407,,wlan0,10112,128.110.65.254,44984,216.58.216.42,443,64,TCP
1481078188420,wlan0,,10112,216.58.216.42,443,128.110.65.254,44984,1470,TCP
1481078188460,,wlan0,10112,128.110.65.254,44984,216.58.216.42,443,64,TCP
1481078188470,wlan0,,10112,216.58.216.42,443,128.110.65.254,44984,1470,TCP
1481078188476,,wlan0,10112,128.110.65.254,44984,216.58.216.42,443,64,TCP
1481078188478,wlan0,,10112,216.58.216.42,443,128.110.65.254,44984,1470,TCP
1481078188481,,wlan0,10112,128.110.65.254,44984,216.58.216.42,443,52,TCP
1481078188490,wlan0,,10112,216.58.216.42,443,128.110.65.254,44984,1470,TCP
1481078188495,,wlan0,10112,128.110.65.254,44984,216.58.216.42,443,52,TCP
1481078188496,wlan0,,10112,216.58.216.42,443,128.110.65.254,44984,1470,TCP
1481078188497,,wlan0,10112,128.110.65.254,44984,216.58.216.42,443,52,TCP
1481078188499,wlan0,,10112,216.58.216.42,443,128.110.65.254,44984,446,TCP
1481078188500,,wlan0,10112,128.110.65.254,44984,216.58.216.42,443,64,TCP
1481078188504,wlan0,,10112,216.58.216.42,443,128.110.65.254,44984,90,TCP
1481078188505,,wlan0,10112,128.110.65.254,44984,216.58.216.42,443,64,TCP
1481078188509,wlan0,,10112,216.58.216.42,443,128.110.65.254,44984,1470,TCP
1481078188512,,wlan0,10112,128.110.65.254,44984,216.58.216.42,443,52,TCP
1481078188514,wlan0,,10112,216.58.216.42,443,128.110.65.254,44984,90,TCP
1481078188517,,wlan0,10112,128.110.65.254,44984,216.58.216.42,443,64,TCP
1481078188518,wlan0,,10112,216.58.216.42,443,128.110.65.254,44984,1470,TCP
1481078188521,,wlan0,10112,128.110.65.254,44984,216.58.216.42,443,64,TCP
1481078188522,wlan0,,10112,216.58.216.42,443,128.110.65.254,44984,1470,TCP
1481078188525,,wlan0,10112,128.110.65.254,44984,216.58.216.42,443,64,TCP
1481078188526,wlan0,,10112,216.58.216.42,443,128.110.65.254,44984,1470,TCP
1481078188530,,wlan0,10112,128.110.65.254,44984,216.58.216.42,443,64,TCP
1481078188535,,wlan0,10112,128.110.65.254,44984,216.58.216.42,443,90,TCP
1481078189038,wlan0,,10112,216.58.216.42,443,128.110.65.254,44984,52,TCP
1481078189539,,wlan0,10018,128.110.65.254,5353,224.0.0.251,5353,68,UDP
1481078189540,wlan0,,10018,128.110.65.254,5353,224.0.0.251,5353,68,UDP
1481078189541,,wlan0,10161,128.110.65.254,37234,149.56.19.76,8090,60,TCP
1481078190100,,wlan0,-1,128.110.65.254,0,224.0.0.22,0,40,2
1481078190102,,wlan0,0,128.110.65.254,12404,155.97.136.200,53,60,UDP
1481078190102,wlan0,,0,155.97.136.200,53,128.110.65.254,12404,452,UDP
1481078190103,,wlan0,10112,128.110.65.254,38009,140.197.248.80,443,60,TCP
1481078190105,wlan0,,10112,140.197.248.80,443,128.110.65.254,38009,60,TCP
1481078190106,,wlan0,10112,128.110.65.254,38009,140.197.248.80,443,52,TCP
1481078190106,,wlan0,10112,128.110.65.254,38009,140.197.248.80,443,254,TCP
1481078190107,wlan0,,10112,140.197.248.80,443,128.110.65.254,38009,52,TCP
1481078190108,wlan0,,10112,140.197.248.80,443,128.110.65.254,38009,1448,TCP
1481078190109,,wlan0,10112,128.110.65.254,38009,140.197.248.80,443,52,TCP
1481078190110,wlan0,,10112,140.197.248.80,443,128.110.65.254,38009,1500,TCP
1481078190111,,wlan0,10112,128.110.65.254,38009,140.197.248.80,443,52,TCP
1481078190111,wlan0,,10112,140.197.248.80,443,128.110.65.254,38009,652,TCP
1481078190112,,wlan0,10112,128.110.65.254,38009,140.197.248.80,443,52,TCP
1481078190113,wlan0,,10112,140.197.248.80,443,128.110.65.254,38009,554,TCP
1481078190114,,wlan0,10112,128.110.65.254,38009,140.197.248.80,443,52,TCP
1481078190115,,wlan0,10112,128.110.65.254,38009,140.197.248.80,443,170,TCP
1481078190116,wlan0,,10112,140.197.248.80,443,128.110.65.254,38009,306,TCP
1481078190117,wlan0,,10112,140.197.248.80,443,128.110.65.254,38009,134,TCP
1481078190118,wlan0,,10112,140.197.248.80,443,128.110.65.254,38009,134,TCP
1481078190119,,wlan0,10112,128.110.65.254,38009,140.197.248.80,443,64,TCP
1481078190120,,wlan0,10112,128.110.65.254,38009,140.197.248.80,443,97,TCP
1481078190120,,wlan0,10112,128.110.65.254,38009,140.197.248.80,443,94,TCP
1481078190121,,wlan0,10112,128.110.65.254,38009,140.197.248.80,443,86,TCP
1481078190123,,wlan0,10112,128.110.65.254,38009,140.197.248.80,443,82,TCP
1481078190124,,wlan0,10112,128.110.65.254,38009,140.197.248.80,443,1152,TCP
1481078190125,wlan0,,10112,140.197.248.80,443,128.110.65.254,38009,52,TCP
1481078190127,wlan0,,10112,140.197.248.80,443,128.110.65.254,38009,52,TCP
1481078190133,wlan0,,10112,140.197.248.80,443,128.110.65.254,38009,82,TCP
1481078190134,,wlan0,10112,128.110.65.254,38009,140.197.248.80,443,52,TCP
1481078190635,wlan0,,10112,140.197.248.80,443,128.110.65.254,38009,1154,TCP
1481078190636,,wlan0,10112,128.110.65.254,38009,140.197.248.80,443,52,TCP
1481078190637,,wlan0,10112,128.110.65.254,38009,140.197.248.80,443,90,TCP
1481078190638,,wlan0,10161,128.110.65.254,37237,149.56.19.76,8090,60,TCP
1481078190641,wlan0,,10112,140.197.248.80,443,128.110.65.254,38009,52,TCP
1481078192249,,wlan0,-1,128.110.65.254,0,224.0.0.22,0,40,2
1481078193251,,wlan0,10161,128.110.65.254,37237,149.56.19.76,8090,60,TCP
1481078194252,,wlan0,10162,128.110.65.254,60945,140.197.248.110,80,52,TCP
1481078199276,,wlan0,10161,128.110.65.254,37237,149.56.19.76,8090,60,TCP
1481078204782,,wlan0,10161,128.110.65.254,37233,149.56.19.76,8090,60,TCP
1481078208844,,wlan0,10162,128.110.65.254,40882,192.168.0.1,23,60,TCP
1481078210848,,wlan0,10162,128.110.65.254,54154,192.168.0.1,42,60,TCP
1481078213350,,wlan0,10162,128.110.65.254,60815,192.168.0.1,53,60,TCP
1481078215353,,wlan0,10162,128.110.65.254,41658,192.168.0.1,80,60,TCP
1481078217359,,wlan0,10162,128.110.65.254,60368,192.168.0.1,81,60,TCP
1481078218862,,wlan0,10137,128.110.65.254,55025,31.13.70.52,443,52,TCP
1481078218974,,wlan0,10137,128.110.65.254,52030,54.173.152.112,443,52,TCP
1481078218977,,wlan0,10137,128.110.65.254,60324,31.13.70.1,443,52,TCP
1481078218978,wlan0,,10137,54.173.152.112,443,128.110.65.254,52030,40,TCP
1481078218980,,wlan0,10162,128.110.65.254,58614,192.168.0.1,443,60,TCP
1481078220983,,wlan0,10162,128.110.65.254,52758,192.168.0.1,903,60,TCP
1481078223126,,wlan0,10162,128.110.65.254,38216,192.168.0.1,1025,60,TCP
1481078225132,,wlan0,10162,128.110.65.254,51870,192.168.0.1,1080,60,TCP
1481078225133,,wlan0,0,128.110.65.254,59201,155.97.136.200,53,67,UDP
1481078225133,wlan0,,0,155.97.136.200,53,128.110.65.254,59201,390,UDP
1481078225134,,wlan0,10152,128.110.65.254,53582,52.41.229.61,80,60,TCP
1481078225635,wlan0,,10152,52.41.229.61,80,128.110.65.254,53582,60,TCP
1481078225636,,wlan0,10152,128.110.65.254,53582,52.41.229.61,80,52,TCP
1481078225637,,wlan0,10152,128.110.65.254,53582,52.41.229.61,80,412,TCP
1481078225638,wlan0,,10152,52.41.229.61,80,128.110.65.254,53582,52,TCP
1481078225639,wlan0,,10152,52.41.229.61,80,128.110.65.254,53582,310,TCP
1481078225640,,wlan0,10152,128.110.65.254,53582,52.41.229.61,80,52,TCP
1481078227141,,wlan0,10162,128.110.65.254,47301,192.168.0.1,1433,60,TCP
1481078229161,,wlan0,10162,128.110.65.254,59385,192.168.0.1,2745,60,TCP
1481078231100,,wlan0,10162,128.110.65.254,49825,192.168.0.1,3127,60,TCP
1481078233107,,wlan0,0,128.110.65.254,17526,155.97.136.200,53,61,UDP
1481078233108,wlan0,,0,155.97.136.200,53,128.110.65.254,17526,262,UDP
1481078233108,,wlan0,10162,128.110.65.254,38950,192.168.0.1,3306,60,TCP
1481078235112,,wlan0,10162,128.110.65.254,52237,192.168.0.1,3410,60,TCP
1481078237116,,wlan0,10162,128.110.65.254,60126,192.168.0.1,5000,60,TCP
1481078238617,,wlan0,0,128.110.65.254,55559,155.97.136.200,53,64,UDP
1481078238618,wlan0,,0,155.97.136.200,53,128.110.65.254,55559,245,UDP
1481078239120,,wlan0,10137,128.110.65.254,55107,31.13.70.52,443,60,TCP
1481078239120,wlan0,,10137,31.13.70.52,443,128.110.65.254,55107,60,TCP
1481078239121,,wlan0,10137,128.110.65.254,55107,31.13.70.52,443,52,TCP
1481078239122,,wlan0,10137,128.110.65.254,55107,31.13.70.52,443,264,TCP
1481078239122,,wlan0,10137,128.110.65.254,60405,31.13.70.1,443,60,TCP
1481078239123,wlan0,,10137,31.13.70.52,443,128.110.65.254,55107,52,TCP
1481078239126,wlan0,,10137,31.13.70.52,443,128.110.65.254,55107,1450,TCP
1481078239131,,wlan0,10137,128.110.65.254,55107,31.13.70.52,443,52,TCP
1481078239132,wlan0,,10137,31.13.70.52,443,128.110.65.254,55107,739,TCP
1481078239133,,wlan0,10137,128.110.65.254,55107,31.13.70.52,443,64,TCP
1481078239134,wlan0,,10137,31.13.70.52,443,128.110.65.254,55107,1450,TCP
1481078239135,,wlan0,10137,128.110.65.254,55107,31.13.70.52,443,52,TCP
1481078239135,wlan0,,10137,31.13.70.1,443,128.110.65.254,60405,60,TCP
1481078239143,,wlan0,10137,128.110.65.254,60405,31.13.70.1,443,52,TCP
1481078239144,wlan0,,10094,104.126.136.12,80,128.110.65.254,56409,52,TCP
1481078239186,,wlan0,10094,128.110.65.254,56409,104.126.136.12,80,52,TCP
1481078239187,,wlan0,10137,128.110.65.254,60405,31.13.70.1,443,267,TCP
1481078239190,wlan0,,10137,31.13.70.1,443,128.110.65.254,60405,52,TCP
1481078239191,wlan0,,10137,31.13.70.1,443,128.110.65.254,60405,1450,TCP
1481078239192,,wlan0,10137,128.110.65.254,60405,31.13.70.1,443,52,TCP
1481078239193,wlan0,,10137,31.13.70.1,443,128.110.65.254,60405,1450,TCP
1481078239195,,wlan0,10137,128.110.65.254,60405,31.13.70.1,443,52,TCP
1481078239195,wlan0,,10137,31.13.70.1,443,128.110.65.254,60405,418,TCP
1481078239196,,wlan0,10137,128.110.65.254,60405,31.13.70.1,443,52,TCP
1481078239197,,wlan0,10162,128.110.65.254,57357,192.168.0.1,6129,60,TCP
1481078239721,,wlan0,10137,128.110.65.254,55107,31.13.70.52,443,186,TCP
1481078239927,wlan0,,10137,31.13.70.52,443,128.110.65.254,55107,318,TCP
1481078239928,,wlan0,10137,128.110.65.254,55107,31.13.70.52,443,52,TCP
1481078239928,,wlan0,10137,128.110.65.254,60405,31.13.70.1,443,186,TCP
1481078239929,,wlan0,10137,128.110.65.254,55107,31.13.70.52,443,825,TCP
1481078239929,wlan0,,10137,31.13.70.1,443,128.110.65.254,60405,318,TCP
1481078239930,,wlan0,10137,128.110.65.254,60405,31.13.70.1,443,52,TCP
1481078239931,,wlan0,10137,128.110.65.254,60405,31.13.70.1,443,1305,TCP
1481078239932,wlan0,,10137,31.13.70.1,443,128.110.65.254,60405,569,TCP
1481078239933,wlan0,,10137,31.13.70.52,443,128.110.65.254,55107,52,TCP
1481078239933,,wlan0,10137,128.110.65.254,60405,31.13.70.1,443,52,TCP
1481078239934,wlan0,,10137,31.13.70.52,443,128.110.65.254,55107,569,TCP
1481078239935,,wlan0,10137,128.110.65.254,55107,31.13.70.52,443,52,TCP
1481078241437,,wlan0,10162,128.110.65.254,55996,192.168.0.1,6667,60,TCP
1481078244440,,wlan0,0,128.110.65.254,16199,155.97.136.200,53,64,UDP
1481078244441,wlan0,,0,155.97.136.200,53,128.110.65.254,16199,450,UDP
1481078244441,,wlan0,10152,128.110.65.254,47255,54.210.80.108,443,60,TCP
1481078244442,,wlan0,0,128.110.65.254,2436,155.97.136.200,53,61,UDP
1481078244443,wlan0,,0,155.97.136.200,53,128.110.65.254,2436,485,UDP
1481078244447,,wlan0,10152,128.110.65.254,48167,119.147.146.168,80,60,TCP
1481078244449,wlan0,,10152,54.210.80.108,443,128.110.65.254,47255,60,TCP
1481078244450,,wlan0,10152,128.110.65.254,47255,54.210.80.108,443,52,TCP
1481078244451,,wlan0,10152,128.110.65.254,47255,54.210.80.108,443,267,TCP
1481078244452,wlan0,,10152,54.210.80.108,443,128.110.65.254,47255,52,TCP
1481078244457,wlan0,,10152,54.210.80.108,443,128.110.65.254,47255,1500,TCP
1481078244459,,wlan0,10152,128.110.65.254,47255,54.210.80.108,443,52,TCP
1481078244459,wlan0,,10152,54.210.80.108,443,128.110.65.254,47255,1500,TCP
1481078244460,,wlan0,10152,128.110.65.254,47255,54.210.80.108,443,52,TCP
1481078244471,wlan0,,10152,54.210.80.108,443,128.110.65.254,47255,1252,TCP
1481078244472,,wlan0,10152,128.110.65.254,47255,54.210.80.108,443,52,TCP
1481078244476,wlan0,,10152,54.210.80.108,443,128.110.65.254,47255,588,TCP
1481078244480,,wlan0,10152,128.110.65.254,47255,54.210.80.108,443,52,TCP
1481078244481,wlan0,,10152,119.147.146.168,80,128.110.65.254,48167,60,TCP
1481078244482,,wlan0,10152,128.110.65.254,48167,119.147.146.168,80,40,TCP
1481078244483,,wlan0,10152,128.110.65.254,48167,119.147.146.168,80,295,TCP
1481078244984,,wlan0,10152,128.110.65.254,47255,54.210.80.108,443,186,TCP
1481078244985,wlan0,,10152,54.210.80.108,443,128.110.65.254,47255,302,TCP
1481078244986,,wlan0,10152,128.110.65.254,47255,54.210.80.108,443,52,TCP
1481078244989,,wlan0,10152,128.110.65.254,47255,54.210.80.108,443,489,TCP
1481078245491,wlan0,,10152,54.210.80.108,443,128.110.65.254,47255,281,TCP
1481078245492,,wlan0,10152,128.110.65.254,47255,54.210.80.108,443,52,TCP
1481078247496,,wlan0,10152,128.110.65.254,48167,119.147.146.168,80,295,TCP
1481078248013,wlan0,,10152,119.147.146.168,80,128.110.65.254,48167,40,TCP
1481078287144,,wlan0,-1,128.110.65.254,48168,119.147.146.168,80,52,TCP
1481078288409,,wlan0,10162,128.110.65.254,40906,192.168.0.1,23,60,TCP
1481078290413,,wlan0,10162,128.110.65.254,54178,192.168.0.1,42,60,TCP
1481078292418,,wlan0,10162,128.110.65.254,60839,192.168.0.1,53,60,TCP
1481078294433,,wlan0,10162,128.110.65.254,41682,192.168.0.1,80,60,TCP
1481078294935,,wlan0,10161,128.110.65.254,37266,149.56.19.76,8090,60,TCP
1481078294938,,wlan0,10161,128.110.65.254,37267,149.56.19.76,8090,60,TCP
1481078294939,wlan0,,10161,149.56.19.76,8090,128.110.65.254,37266,44,TCP
1481078294941,,wlan0,10161,128.110.65.254,37266,149.56.19.76,8090,40,TCP
1481078294942,,wlan0,10161,128.110.65.254,37266,149.56.19.76,8090,253,TCP
1481078294944,wlan0,,10161,149.56.19.76,8090,128.110.65.254,37266,40,TCP
1481078294945,,wlan0,10161,128.110.65.254,37268,149.56.19.76,8090,60,TCP
1481078295946,,wlan0,0,128.110.65.254,23591,155.97.136.200,53,62,UDP
1481078295948,wlan0,,0,155.97.136.200,53,128.110.65.254,23591,233,UDP
1481078295949,,wlan0,10161,128.110.65.254,43110,104.20.27.56,80,60,TCP
1481078295950,wlan0,,10161,104.20.27.56,80,128.110.65.254,43110,52,TCP
1481078296013,,wlan0,10161,128.110.65.254,43110,104.20.27.56,80,40,TCP
1481078296114,,wlan0,10161,128.110.65.254,43110,104.20.27.56,80,263,TCP
1481078296134,wlan0,,10161,104.20.27.56,80,128.110.65.254,43110,40,TCP
1481078296135,,wlan0,10162,128.110.65.254,60396,192.168.0.1,81,60,TCP
1481078297771,,wlan0,-1,128.110.65.254,48168,119.147.146.168,80,52,TCP
1481078297775,,wlan0,10161,128.110.65.254,37267,149.56.19.76,8090,60,TCP
1481078298277,,wlan0,10161,128.110.65.254,37268,149.56.19.76,8090,60,TCP
1481078298280,,wlan0,10162,128.110.65.254,58642,192.168.0.1,443,60,TCP
1481078300289,,wlan0,10162,128.110.65.254,52786,192.168.0.1,903,60,TCP
1481078301290,,wlan0,10018,128.110.65.254,34484,216.58.217.8,443,559,TCP
1481078301291,,wlan0,10018,128.110.65.254,34484,216.58.217.8,443,75,TCP
1481078301292,wlan0,,10018,216.58.217.8,443,128.110.65.254,34484,40,TCP
1481078301293,wlan0,,10018,216.58.217.8,443,128.110.65.254,34484,40,TCP
1481078302295,,wlan0,10162,128.110.65.254,38244,192.168.0.1,1025,60,TCP
1481078303798,,wlan0,10161,128.110.65.254,37267,149.56.19.76,8090,60,TCP
1481078304299,,wlan0,10161,128.110.65.254,37268,149.56.19.76,8090,60,TCP
1481078304300,,wlan0,10162,128.110.65.254,51898,192.168.0.1,1080,60,TCP
1481078304405,,wlan0,-1,128.110.65.254,48167,119.147.146.168,80,40,TCP
1481078306409,,wlan0,10162,128.110.65.254,47328,192.168.0.1,1433,60,TCP
1481078308414,,wlan0,10162,128.110.65.254,59412,192.168.0.1,2745,60,TCP
1481078310423,,wlan0,10162,128.110.65.254,49852,192.168.0.1,3127,60,TCP
1481078312433,,wlan0,10162,128.110.65.254,38977,192.168.0.1,3306,60,TCP
1481078314437,,wlan0,10162,128.110.65.254,52264,192.168.0.1,3410,60,TCP
1481078315951,,wlan0,10161,128.110.65.254,37267,149.56.19.76,8090,60,TCP
1481078316454,,wlan0,10162,128.110.65.254,60153,192.168.0.1,5000,60,TCP
1481078317346,wlan0,,-1,31.13.70.52,443,128.110.65.254,55107,89,TCP
1481078317347,,wlan0,10137,128.110.65.254,55107,31.13.70.52,443,52,TCP
1481078317348,wlan0,,10137,31.13.70.52,443,128.110.65.254,55107,52,TCP
1481078317394,wlan0,,-1,31.13.70.1,443,128.110.65.254,60405,89,TCP
1481078317395,,wlan0,10137,128.110.65.254,60405,31.13.70.1,443,52,TCP
1481078317396,wlan0,,10137,31.13.70.1,443,128.110.65.254,60405,52,TCP
1481078317397,wlan0,,10137,31.13.70.1,443,128.110.65.254,60405,52,TCP
1481078317397,,wlan0,10137,128.110.65.254,60405,31.13.70.1,443,64,TCP
1481078317398,wlan0,,10137,31.13.70.52,443,128.110.65.254,55107,52,TCP
1481078317399,,wlan0,10137,128.110.65.254,55107,31.13.70.52,443,64,TCP
1481078318401,,wlan0,10162,128.110.65.254,57382,192.168.0.1,6129,60,TCP
1481078318480,,wlan0,-1,128.110.65.254,48168,119.147.146.168,80,52,TCP
1481078320484,,wlan0,10162,128.110.65.254,56021,192.168.0.1,6667,60,TCP
